%!PS-Adobe-3.0 EPSF-3.0 
%%BoundingBox: 0 0 633 255
%%Pages: 0
%%Creator: LibreOffice 4.2
%%Title: none
%%CreationDate: none
%%LanguageLevel: 2
%%EndComments
%%BeginProlog
%%BeginResource: procset SDRes-Prolog 1.0 0
/b4_inc_state save def
/dict_count countdictstack def
/op_count count 1 sub def
userdict begin
0 setgray 0 setlinecap 1 setlinewidth 0 setlinejoin 10 setmiterlimit[] 0 setdash newpath
/languagelevel where {pop languagelevel 1 ne {false setstrokeadjust false setoverprint} if} if
/bdef {bind def} bind def
/c {setrgbcolor} bdef
/l {neg lineto} bdef
/rl {neg rlineto} bdef
/lc {setlinecap} bdef
/lj {setlinejoin} bdef
/lw {setlinewidth} bdef
/ml {setmiterlimit} bdef
/ld {setdash} bdef
/m {neg moveto} bdef
/ct {6 2 roll neg 6 2 roll neg 6 2 roll neg curveto} bdef
/r {rotate} bdef
/t {neg translate} bdef
/s {scale} bdef
/sw {show} bdef
/gs {gsave} bdef
/gr {grestore} bdef
/f {findfont dup length dict begin
{1 index /FID ne {def} {pop pop} ifelse} forall /Encoding ISOLatin1Encoding def
currentdict end /NFont exch definefont pop /NFont findfont} bdef
/p {closepath} bdef
/sf {scalefont setfont} bdef
/ef {eofill}bdef
/pc {closepath stroke}bdef
/ps {stroke}bdef
/pum {matrix currentmatrix}bdef
/pom {setmatrix}bdef
/bs {/aString exch def /nXOfs exch def /nWidth exch def currentpoint nXOfs 0 rmoveto pum nWidth aString stringwidth pop div 1 scale aString show pom moveto} bdef
%%EndResource
%%EndProlog
%%BeginSetup
%%EndSetup
%%Page: 1 1
%%BeginPageSetup
%%EndPageSetup
pum
0.02836 0.02833 s 
0 -9000 t
/tm matrix currentmatrix def
tm setmatrix
-20112 -15612 t 
1 1 s 
1.000 1.000 1.000 c 31280 24611 m  20122 24611 l  20122 15612 l  42437 15612 l 
42437 24611 l  31280 24611 l  p ef
0 lw 1 lj 0.703 0.703 0.703 c 28007 23784 m  21745 23784 l  21745 15992 l 
34269 15992 l  34269 23784 l  28007 23784 l  pc
34269 23783 m  21745 23783 l  ps
34269 22224 m  21745 22224 l  ps
34269 20665 m  21745 20665 l  ps
34269 19108 m  21745 19108 l  ps
34269 17549 m  21745 17549 l  ps
34269 15991 m  21745 15991 l  ps
21745 23933 m  21745 23783 l  ps
21745 23933 m  21745 23783 l  ps
22639 23933 m  22639 23783 l  ps
22639 23933 m  22639 23783 l  ps
23534 23933 m  23534 23783 l  ps
23534 23933 m  23534 23783 l  ps
24428 23933 m  24428 23783 l  ps
24428 23933 m  24428 23783 l  ps
25323 23933 m  25323 23783 l  ps
25323 23933 m  25323 23783 l  ps
26218 23933 m  26218 23783 l  ps
26218 23933 m  26218 23783 l  ps
27112 23933 m  27112 23783 l  ps
27112 23933 m  27112 23783 l  ps
28007 23933 m  28007 23783 l  ps
28007 23933 m  28007 23783 l  ps
28902 23933 m  28902 23783 l  ps
28902 23933 m  28902 23783 l  ps
29796 23933 m  29796 23783 l  ps
29796 23933 m  29796 23783 l  ps
30691 23933 m  30691 23783 l  ps
30691 23933 m  30691 23783 l  ps
31585 23933 m  31585 23783 l  ps
31585 23933 m  31585 23783 l  ps
32479 23933 m  32479 23783 l  ps
32479 23933 m  32479 23783 l  ps
33374 23933 m  33374 23783 l  ps
33374 23933 m  33374 23783 l  ps
34269 23933 m  34269 23783 l  ps
34269 23933 m  34269 23783 l  ps
21745 23783 m  34269 23783 l  ps
21595 23783 m  21745 23783 l  ps
21595 23783 m  21745 23783 l  ps
21595 22224 m  21745 22224 l  ps
21595 22224 m  21745 22224 l  ps
21595 20665 m  21745 20665 l  ps
21595 20665 m  21745 20665 l  ps
21595 19108 m  21745 19108 l  ps
21595 19108 m  21745 19108 l  ps
21595 17549 m  21745 17549 l  ps
21595 17549 m  21745 17549 l  ps
21595 15991 m  21745 15991 l  ps
21595 15991 m  21745 15991 l  ps
21745 23783 m  21745 15991 l  ps
79.99641 lw 0.003 0.273 0.527 c 21745 17180 m  22639 23783 l  23534 23783 l 
24428 23783 l  25323 23783 l  26218 23783 l  27112 23783 l  28007 23783 l 
28902 23783 l  29796 23783 l  30691 23783 l  31585 23783 l  32479 23783 l 
33374 23783 l  34269 23783 l  ps
21620 17055 m  21620 17305 l  21870 17305 l  21870 17055 l  21620 17055 l 
p ef
0 lw 21620 17055 m  21620 17305 l  21870 17305 l  21870 17055 l  21620 17055 l 
pc
22514 23658 m  22514 23908 l  22764 23908 l  22764 23658 l  22514 23658 l 
p ef
22514 23658 m  22514 23908 l  22764 23908 l  22764 23658 l  22514 23658 l 
pc
23409 23658 m  23409 23908 l  23659 23908 l  23659 23658 l  23409 23658 l 
p ef
23409 23658 m  23409 23908 l  23659 23908 l  23659 23658 l  23409 23658 l 
pc
24303 23658 m  24303 23908 l  24553 23908 l  24553 23658 l  24303 23658 l 
p ef
24303 23658 m  24303 23908 l  24553 23908 l  24553 23658 l  24303 23658 l 
pc
25198 23658 m  25198 23908 l  25448 23908 l  25448 23658 l  25198 23658 l 
p ef
25198 23658 m  25198 23908 l  25448 23908 l  25448 23658 l  25198 23658 l 
pc
26093 23658 m  26093 23908 l  26343 23908 l  26343 23658 l  26093 23658 l 
p ef
26093 23658 m  26093 23908 l  26343 23908 l  26343 23658 l  26093 23658 l 
pc
26987 23658 m  26987 23908 l  27237 23908 l  27237 23658 l  26987 23658 l 
p ef
26987 23658 m  26987 23908 l  27237 23908 l  27237 23658 l  26987 23658 l 
pc
27882 23658 m  27882 23908 l  28132 23908 l  28132 23658 l  27882 23658 l 
p ef
27882 23658 m  27882 23908 l  28132 23908 l  28132 23658 l  27882 23658 l 
pc
28777 23658 m  28777 23908 l  29027 23908 l  29027 23658 l  28777 23658 l 
p ef
28777 23658 m  28777 23908 l  29027 23908 l  29027 23658 l  28777 23658 l 
pc
29671 23658 m  29671 23908 l  29921 23908 l  29921 23658 l  29671 23658 l 
p ef
29671 23658 m  29671 23908 l  29921 23908 l  29921 23658 l  29671 23658 l 
pc
30566 23658 m  30566 23908 l  30816 23908 l  30816 23658 l  30566 23658 l 
p ef
30566 23658 m  30566 23908 l  30816 23908 l  30816 23658 l  30566 23658 l 
pc
31460 23658 m  31460 23908 l  31710 23908 l  31710 23658 l  31460 23658 l 
p ef
31460 23658 m  31460 23908 l  31710 23908 l  31710 23658 l  31460 23658 l 
pc
32354 23658 m  32354 23908 l  32604 23908 l  32604 23658 l  32354 23658 l 
p ef
32354 23658 m  32354 23908 l  32604 23908 l  32604 23658 l  32354 23658 l 
pc
33249 23658 m  33249 23908 l  33499 23908 l  33499 23658 l  33249 23658 l 
p ef
33249 23658 m  33249 23908 l  33499 23908 l  33499 23658 l  33249 23658 l 
pc
34144 23658 m  34144 23908 l  34394 23908 l  34394 23658 l  34144 23658 l 
p ef
34144 23658 m  34144 23908 l  34394 23908 l  34394 23658 l  34144 23658 l 
pc
79.99641 lw 1.000 0.261 0.058 c 21745 18296 m  22639 21220 l  23534 22056 l 
24428 22481 l  25323 22420 l  26218 22547 l  27112 22723 l  28007 22783 l 
28902 22778 l  29796 22773 l  30691 22762 l  31585 22774 l  32479 22776 l 
33374 22786 l  34269 22790 l  ps
21620 18296 m  21745 18421 l  21870 18296 l  21745 18171 l  21620 18296 l 
p ef
0 lw 21620 18296 m  21745 18421 l  21870 18296 l  21745 18171 l  21620 18296 l 
pc
22514 21220 m  22639 21345 l  22764 21220 l  22639 21095 l  22514 21220 l 
p ef
22514 21220 m  22639 21345 l  22764 21220 l  22639 21095 l  22514 21220 l 
pc
23409 22056 m  23534 22181 l  23659 22056 l  23534 21931 l  23409 22056 l 
p ef
23409 22056 m  23534 22181 l  23659 22056 l  23534 21931 l  23409 22056 l 
pc
24303 22481 m  24428 22606 l  24553 22481 l  24428 22356 l  24303 22481 l 
p ef
24303 22481 m  24428 22606 l  24553 22481 l  24428 22356 l  24303 22481 l 
pc
25198 22420 m  25323 22545 l  25448 22420 l  25323 22295 l  25198 22420 l 
p ef
25198 22420 m  25323 22545 l  25448 22420 l  25323 22295 l  25198 22420 l 
pc
26093 22547 m  26218 22672 l  26343 22547 l  26218 22422 l  26093 22547 l 
p ef
26093 22547 m  26218 22672 l  26343 22547 l  26218 22422 l  26093 22547 l 
pc
26987 22723 m  27112 22848 l  27237 22723 l  27112 22598 l  26987 22723 l 
p ef
26987 22723 m  27112 22848 l  27237 22723 l  27112 22598 l  26987 22723 l 
pc
27882 22783 m  28007 22908 l  28132 22783 l  28007 22658 l  27882 22783 l 
p ef
27882 22783 m  28007 22908 l  28132 22783 l  28007 22658 l  27882 22783 l 
pc
28777 22778 m  28902 22903 l  29027 22778 l  28902 22653 l  28777 22778 l 
p ef
28777 22778 m  28902 22903 l  29027 22778 l  28902 22653 l  28777 22778 l 
pc
29671 22773 m  29796 22898 l  29921 22773 l  29796 22648 l  29671 22773 l 
p ef
29671 22773 m  29796 22898 l  29921 22773 l  29796 22648 l  29671 22773 l 
pc
30566 22762 m  30691 22887 l  30816 22762 l  30691 22637 l  30566 22762 l 
p ef
30566 22762 m  30691 22887 l  30816 22762 l  30691 22637 l  30566 22762 l 
pc
31460 22774 m  31585 22899 l  31710 22774 l  31585 22649 l  31460 22774 l 
p ef
31460 22774 m  31585 22899 l  31710 22774 l  31585 22649 l  31460 22774 l 
pc
32354 22776 m  32479 22901 l  32604 22776 l  32479 22651 l  32354 22776 l 
p ef
32354 22776 m  32479 22901 l  32604 22776 l  32479 22651 l  32354 22776 l 
pc
33249 22786 m  33374 22911 l  33499 22786 l  33374 22661 l  33249 22786 l 
p ef
33249 22786 m  33374 22911 l  33499 22786 l  33374 22661 l  33249 22786 l 
pc
34144 22790 m  34269 22915 l  34394 22790 l  34269 22665 l  34144 22790 l 
p ef
34144 22790 m  34269 22915 l  34394 22790 l  34269 22665 l  34144 22790 l 
pc
pum
21652 24351 t
0.003 0.003 0.003 c 27 0 m  27 -26 l  89 -26 l  89 -213 l  34 -174 l  34 -204 l 
91 -243 l  120 -243 l  120 -26 l  179 -26 l  179 0 l  27 0 l  p ef
pom
pum
22546 24351 t
18 0 m  18 -22 l  24 -35 31 -47 39 -58 ct 48 -68 57 -77 66 -85 ct 75 -94 84 -101 94 -109 ct 
103 -116 111 -123 118 -130 ct 126 -137 132 -145 136 -152 ct 141 -160 143 -169 143 -179 ct 
143 -186 142 -192 140 -197 ct 138 -202 135 -207 131 -210 ct 127 -214 122 -217 117 -218 ct 
111 -220 105 -221 99 -221 ct 92 -221 87 -220 81 -218 ct 76 -217 71 -214 67 -211 ct 
62 -207 59 -203 56 -198 ct 53 -193 52 -187 51 -180 ct 19 -183 l  20 -192 23 -200 26 -208 ct 
30 -215 35 -222 42 -228 ct 49 -234 57 -238 66 -242 ct 75 -245 86 -247 99 -247 ct 
111 -247 121 -245 131 -242 ct 140 -239 148 -235 155 -229 ct 161 -224 166 -217 170 -209 ct 
173 -200 175 -191 175 -180 ct 175 -172 173 -164 170 -157 ct 167 -149 164 -142 159 -136 ct 
154 -129 148 -123 142 -116 ct 135 -110 129 -104 122 -98 ct 115 -92 107 -86 100 -81 ct 
93 -75 87 -69 80 -63 ct 74 -57 68 -51 63 -45 ct 58 -39 55 -33 52 -26 ct 179 -26 l 
179 0 l  18 0 l  p ef
pom
pum
23441 24351 t
181 -68 m  181 -57 179 -47 175 -38 ct 172 -29 166 -22 160 -16 ct 153 -10 144 -5 134 -2 ct 
123 1 112 3 98 3 ct 83 3 71 1 60 -3 ct 50 -6 42 -11 35 -17 ct 28 -24 23 -31 20 -39 ct 
17 -46 14 -55 13 -63 ct 46 -66 l  46 -60 48 -54 51 -48 ct 53 -43 56 -38 61 -35 ct 
65 -31 70 -28 76 -26 ct 83 -24 90 -23 98 -23 ct 114 -23 126 -27 135 -34 ct 144 -42 149 -54 149 -69 ct 
149 -78 147 -85 143 -90 ct 139 -96 134 -100 128 -103 ct 122 -106 115 -108 109 -109 ct 
102 -110 95 -111 89 -111 ct 72 -111 l  72 -138 l  89 -138 l  94 -138 101 -139 107 -140 ct 
113 -141 119 -143 124 -146 ct 129 -149 134 -154 137 -159 ct 141 -164 142 -171 142 -180 ct 
142 -193 138 -203 131 -210 ct 123 -218 112 -221 97 -221 ct 83 -221 72 -218 64 -211 ct 
55 -204 50 -194 49 -182 ct 18 -184 l  19 -195 22 -204 26 -212 ct 31 -220 37 -226 44 -231 ct 
51 -237 59 -241 68 -243 ct 77 -246 87 -247 97 -247 ct 111 -247 122 -245 132 -242 ct 
142 -239 150 -234 156 -228 ct 162 -222 167 -216 170 -208 ct 173 -200 174 -192 174 -183 ct 
174 -176 173 -169 171 -163 ct 169 -157 166 -151 162 -146 ct 158 -141 153 -137 146 -134 ct 
140 -130 132 -127 123 -125 ct 123 -125 l  133 -124 142 -122 149 -118 ct 156 -115 162 -111 167 -105 ct 
171 -100 175 -95 177 -88 ct 180 -82 181 -75 181 -68 ct p ef
pom
pum
24335 24351 t
152 -55 m  152 0 l  123 0 l  123 -55 l  8 -55 l  8 -79 l  119 -243 l  152 -243 l 
152 -79 l  186 -79 l  186 -55 l  152 -55 l  p
123 -208 m  122 -207 122 -206 121 -205 ct 120 -203 119 -201 118 -199 ct 117 -197 115 -195 114 -193 ct 
113 -191 112 -189 111 -187 ct 49 -96 l  48 -95 47 -94 46 -92 ct 45 -91 44 -89 43 -88 ct 
42 -86 41 -84 39 -83 ct 38 -81 37 -80 37 -79 ct 123 -79 l  123 -208 l  p ef
pom
pum
25230 24351 t
182 -80 m  182 -67 180 -56 176 -46 ct 172 -36 167 -27 160 -20 ct 152 -13 143 -7 133 -3 ct 
122 1 109 3 95 3 ct 83 3 71 1 62 -1 ct 52 -4 44 -9 38 -14 ct 31 -19 26 -25 22 -32 ct 
18 -39 16 -47 14 -55 ct 46 -58 l  47 -54 49 -49 51 -45 ct 53 -41 56 -37 60 -33 ct 
64 -30 69 -27 75 -25 ct 81 -23 88 -22 96 -22 ct 104 -22 111 -24 118 -26 ct 124 -29 130 -32 135 -37 ct 
139 -42 143 -48 145 -55 ct 148 -62 149 -70 149 -79 ct 149 -86 148 -93 146 -99 ct 
143 -106 140 -111 135 -116 ct 131 -120 125 -124 119 -126 ct 112 -129 105 -130 97 -130 ct 
92 -130 87 -130 82 -129 ct 78 -128 74 -126 70 -125 ct 67 -123 63 -121 60 -119 ct 
57 -117 54 -115 52 -113 ct 21 -113 l  29 -243 l  167 -243 l  167 -217 l  58 -217 l 
53 -140 l  58 -144 65 -148 74 -151 ct 82 -154 92 -155 103 -155 ct 115 -155 126 -154 136 -150 ct 
145 -146 154 -141 160 -134 ct 167 -128 172 -120 176 -110 ct 180 -101 182 -91 182 -80 ct 
p ef
pom
pum
26125 24351 t
181 -80 m  181 -68 179 -57 176 -47 ct 172 -36 167 -28 161 -20 ct 154 -13 146 -7 136 -3 ct 
126 1 115 3 102 3 ct 88 3 76 0 65 -5 ct 55 -11 46 -18 39 -28 ct 32 -39 27 -51 23 -66 ct 
20 -81 18 -97 18 -116 ct 18 -138 20 -157 24 -173 ct 28 -190 34 -203 41 -214 ct 
48 -225 58 -233 68 -239 ct 79 -244 91 -247 105 -247 ct 113 -247 121 -246 128 -244 ct 
135 -243 142 -240 148 -236 ct 154 -232 159 -227 163 -221 ct 168 -215 171 -207 174 -198 ct 
144 -192 l  141 -203 136 -210 129 -215 ct 122 -220 114 -222 104 -222 ct 96 -222 88 -220 81 -216 ct 
74 -212 69 -206 64 -198 ct 59 -190 55 -180 53 -168 ct 50 -156 49 -142 49 -126 ct 
54 -136 62 -144 73 -150 ct 83 -155 95 -158 108 -158 ct 119 -158 129 -156 138 -153 ct 
147 -149 154 -144 161 -137 ct 167 -130 172 -122 176 -113 ct 179 -103 181 -92 181 -80 ct 
p
149 -79 m  149 -87 148 -95 146 -102 ct 144 -108 141 -114 137 -119 ct 133 -124 128 -128 122 -130 ct 
115 -133 108 -134 100 -134 ct 95 -134 89 -133 83 -131 ct 78 -130 72 -127 68 -123 ct 
63 -120 59 -115 56 -109 ct 53 -102 52 -95 52 -86 ct 52 -77 53 -69 55 -61 ct 58 -53 61 -46 65 -41 ct 
70 -35 75 -30 81 -27 ct 87 -24 94 -22 101 -22 ct 109 -22 116 -23 121 -26 ct 127 -29 132 -32 137 -37 ct 
141 -42 144 -48 146 -55 ct 148 -62 149 -70 149 -79 ct p ef
pom
pum
27019 24351 t
179 -218 m  166 -200 155 -182 145 -165 ct 135 -147 126 -130 119 -113 ct 111 -95 106 -77 101 -59 ct 
97 -41 95 -21 95 -1 ct 63 -1 l  63 -20 65 -39 70 -58 ct 74 -76 81 -95 88 -113 ct 
96 -131 105 -148 116 -166 ct 126 -183 137 -200 149 -217 ct 18 -217 l  18 -243 l 
179 -243 l  179 -218 l  p ef
pom
pum
27914 24351 t
181 -68 m  181 -58 179 -48 176 -40 ct 173 -31 168 -24 161 -17 ct 154 -11 146 -6 135 -2 ct 
125 1 113 3 98 3 ct 84 3 72 1 61 -2 ct 51 -6 42 -11 35 -17 ct 29 -23 24 -31 20 -40 ct 
17 -48 15 -58 15 -68 ct 15 -77 17 -85 19 -92 ct 22 -98 26 -104 30 -109 ct 35 -114 40 -118 46 -121 ct 
52 -125 58 -127 64 -128 ct 64 -128 l  57 -130 51 -132 46 -136 ct 40 -140 36 -144 32 -149 ct 
29 -154 26 -159 24 -166 ct 22 -172 21 -178 21 -185 ct 21 -193 23 -201 26 -209 ct 
29 -216 34 -223 41 -229 ct 47 -234 55 -239 64 -242 ct 74 -245 85 -247 98 -247 ct 
111 -247 122 -245 132 -242 ct 142 -239 150 -234 156 -228 ct 162 -223 167 -216 170 -209 ct 
173 -201 175 -193 175 -184 ct 175 -178 174 -171 172 -165 ct 170 -159 167 -154 164 -149 ct 
160 -144 156 -139 150 -136 ct 145 -132 139 -130 132 -129 ct 132 -128 l  139 -127 145 -125 151 -122 ct 
157 -119 162 -115 167 -110 ct 171 -105 175 -99 177 -92 ct 180 -85 181 -77 181 -68 ct 
p
143 -183 m  143 -189 142 -194 140 -199 ct 139 -204 136 -209 133 -212 ct 129 -216 125 -219 119 -221 ct 
113 -223 106 -224 98 -224 ct 89 -224 83 -223 77 -221 ct 71 -219 67 -216 63 -212 ct 
59 -209 57 -204 55 -199 ct 54 -194 53 -189 53 -183 ct 53 -178 53 -173 55 -168 ct 
56 -163 58 -158 62 -154 ct 65 -150 69 -147 75 -144 ct 81 -141 89 -140 98 -140 ct 
108 -140 116 -141 121 -144 ct 127 -147 132 -150 135 -154 ct 138 -158 140 -163 141 -168 ct 
142 -173 143 -178 143 -183 ct p
149 -71 m  149 -77 148 -83 146 -88 ct 145 -94 142 -98 138 -103 ct 134 -107 129 -110 122 -113 ct 
116 -115 107 -117 98 -117 ct 88 -117 81 -115 74 -113 ct 68 -110 63 -107 59 -103 ct 
55 -98 52 -93 50 -88 ct 48 -82 47 -76 47 -70 ct 47 -63 48 -56 50 -50 ct 52 -44 55 -39 59 -34 ct 
63 -30 68 -26 75 -24 ct 81 -21 89 -20 99 -20 ct 108 -20 116 -21 122 -24 ct 129 -26 134 -30 138 -34 ct 
142 -39 145 -44 146 -50 ct 148 -56 149 -63 149 -71 ct p ef
pom
pum
28809 24351 t
180 -127 m  180 -105 178 -86 173 -70 ct 169 -54 164 -40 156 -29 ct 148 -19 139 -11 128 -5 ct 
117 0 105 3 92 3 ct 82 3 74 2 67 0 ct 59 -2 52 -5 47 -9 ct 41 -13 36 -18 32 -24 ct 
27 -31 24 -39 22 -48 ct 51 -52 l  54 -42 59 -34 66 -29 ct 73 -24 82 -22 92 -22 ct 
101 -22 108 -24 115 -28 ct 122 -32 128 -38 133 -46 ct 138 -54 142 -64 144 -76 ct 
147 -88 149 -102 149 -118 ct 147 -112 143 -108 139 -103 ct 135 -99 130 -95 125 -93 ct 
119 -90 114 -87 107 -86 ct 101 -84 95 -84 89 -84 ct 78 -84 68 -86 59 -89 ct 50 -93 42 -99 36 -106 ct 
30 -113 25 -122 22 -132 ct 18 -142 17 -153 17 -165 ct 17 -178 18 -189 22 -199 ct 
26 -209 31 -218 38 -225 ct 45 -232 53 -238 63 -241 ct 73 -245 85 -247 97 -247 ct 
124 -247 145 -237 159 -217 ct 173 -197 180 -167 180 -127 ct p
146 -157 m  146 -166 145 -174 143 -182 ct 141 -190 137 -197 133 -203 ct 129 -209 124 -213 118 -217 ct 
112 -220 104 -222 96 -222 ct 89 -222 82 -221 76 -218 ct 70 -215 65 -211 61 -207 ct 
57 -202 54 -196 51 -189 ct 49 -182 48 -174 48 -165 ct 48 -157 49 -150 51 -143 ct 
53 -136 56 -130 60 -124 ct 64 -119 69 -115 75 -112 ct 81 -109 88 -108 96 -108 ct 
102 -108 108 -109 114 -111 ct 119 -113 125 -116 130 -120 ct 134 -124 138 -129 141 -135 ct 
144 -141 146 -149 146 -157 ct p ef
pom
pum
29611 24351 t
27 0 m  27 -26 l  89 -26 l  89 -213 l  34 -174 l  34 -204 l  91 -243 l 
120 -243 l  120 -26 l  179 -26 l  179 0 l  27 0 l  p ef
368 -122 m  368 -99 365 -79 361 -63 ct 356 -47 350 -34 343 -25 ct 335 -15 326 -8 316 -3 ct 
305 1 294 3 283 3 ct 271 3 260 1 250 -3 ct 239 -8 231 -15 223 -24 ct 215 -34 210 -47 205 -63 ct 
201 -79 199 -99 199 -122 ct 199 -146 201 -167 205 -183 ct 210 -199 216 -212 223 -221 ct 
231 -231 240 -237 250 -241 ct 260 -245 272 -247 284 -247 ct 295 -247 306 -245 316 -241 ct 
327 -237 335 -231 343 -221 ct 351 -212 357 -199 361 -183 ct 365 -167 368 -146 368 -122 ct 
p
336 -122 m  336 -141 335 -157 333 -170 ct 330 -183 327 -193 322 -201 ct 318 -209 312 -214 306 -217 ct 
299 -220 292 -222 284 -222 ct 275 -222 267 -220 261 -217 ct 254 -214 248 -208 244 -201 ct 
239 -193 236 -183 234 -170 ct 231 -157 230 -141 230 -122 ct 230 -103 231 -88 234 -75 ct 
236 -62 239 -52 244 -44 ct 249 -36 254 -31 261 -27 ct 267 -24 275 -22 283 -22 ct 
291 -22 299 -24 305 -27 ct 312 -31 317 -36 322 -44 ct 326 -52 330 -62 332 -75 ct 
335 -88 336 -103 336 -122 ct p ef
pom
pum
30506 24351 t
27 0 m  27 -26 l  89 -26 l  89 -213 l  34 -174 l  34 -204 l  91 -243 l 
120 -243 l  120 -26 l  179 -26 l  179 0 l  27 0 l  p ef
212 0 m  212 -26 l  274 -26 l  274 -213 l  219 -174 l  219 -204 l  276 -243 l 
305 -243 l  305 -26 l  364 -26 l  364 0 l  212 0 l  p ef
pom
pum
31401 24351 t
27 0 m  27 -26 l  89 -26 l  89 -213 l  34 -174 l  34 -204 l  91 -243 l 
120 -243 l  120 -26 l  179 -26 l  179 0 l  27 0 l  p ef
203 0 m  203 -22 l  209 -35 216 -47 224 -58 ct 233 -68 242 -77 251 -85 ct 260 -94 269 -101 279 -109 ct 
288 -116 296 -123 303 -130 ct 311 -137 317 -145 321 -152 ct 326 -160 328 -169 328 -179 ct 
328 -186 327 -192 325 -197 ct 323 -202 320 -207 316 -210 ct 312 -214 307 -217 302 -218 ct 
296 -220 290 -221 284 -221 ct 277 -221 272 -220 266 -218 ct 261 -217 256 -214 252 -211 ct 
247 -207 244 -203 241 -198 ct 238 -193 237 -187 236 -180 ct 204 -183 l  205 -192 208 -200 211 -208 ct 
215 -215 220 -222 227 -228 ct 234 -234 242 -238 251 -242 ct 260 -245 271 -247 284 -247 ct 
296 -247 306 -245 316 -242 ct 325 -239 333 -235 340 -229 ct 346 -224 351 -217 355 -209 ct 
358 -200 360 -191 360 -180 ct 360 -172 358 -164 355 -157 ct 352 -149 349 -142 344 -136 ct 
339 -129 333 -123 327 -116 ct 320 -110 314 -104 307 -98 ct 300 -92 292 -86 285 -81 ct 
278 -75 272 -69 265 -63 ct 259 -57 253 -51 248 -45 ct 243 -39 240 -33 237 -26 ct 
364 -26 l  364 0 l  203 0 l  p ef
pom
pum
32295 24351 t
27 0 m  27 -26 l  89 -26 l  89 -213 l  34 -174 l  34 -204 l  91 -243 l 
120 -243 l  120 -26 l  179 -26 l  179 0 l  27 0 l  p ef
366 -68 m  366 -57 364 -47 360 -38 ct 357 -29 351 -22 345 -16 ct 338 -10 329 -5 319 -2 ct 
308 1 297 3 283 3 ct 268 3 256 1 245 -3 ct 235 -6 227 -11 220 -17 ct 213 -24 208 -31 205 -39 ct 
202 -46 199 -55 198 -63 ct 231 -66 l  231 -60 233 -54 236 -48 ct 238 -43 241 -38 246 -35 ct 
250 -31 255 -28 261 -26 ct 268 -24 275 -23 283 -23 ct 299 -23 311 -27 320 -34 ct 
329 -42 334 -54 334 -69 ct 334 -78 332 -85 328 -90 ct 324 -96 319 -100 313 -103 ct 
307 -106 300 -108 294 -109 ct 287 -110 280 -111 274 -111 ct 257 -111 l  257 -138 l 
274 -138 l  279 -138 286 -139 292 -140 ct 298 -141 304 -143 309 -146 ct 314 -149 319 -154 322 -159 ct 
326 -164 327 -171 327 -180 ct 327 -193 323 -203 316 -210 ct 308 -218 297 -221 282 -221 ct 
268 -221 257 -218 249 -211 ct 240 -204 235 -194 234 -182 ct 203 -184 l  204 -195 207 -204 211 -212 ct 
216 -220 222 -226 229 -231 ct 236 -237 244 -241 253 -243 ct 262 -246 272 -247 282 -247 ct 
296 -247 307 -245 317 -242 ct 327 -239 335 -234 341 -228 ct 347 -222 352 -216 355 -208 ct 
358 -200 359 -192 359 -183 ct 359 -176 358 -169 356 -163 ct 354 -157 351 -151 347 -146 ct 
343 -141 338 -137 331 -134 ct 325 -130 317 -127 308 -125 ct 308 -125 l  318 -124 327 -122 334 -118 ct 
341 -115 347 -111 352 -105 ct 356 -100 360 -95 362 -88 ct 365 -82 366 -75 366 -68 ct 
p ef
pom
pum
33190 24351 t
27 0 m  27 -26 l  89 -26 l  89 -213 l  34 -174 l  34 -204 l  91 -243 l 
120 -243 l  120 -26 l  179 -26 l  179 0 l  27 0 l  p ef
337 -55 m  337 0 l  308 0 l  308 -55 l  193 -55 l  193 -79 l  304 -243 l 
337 -243 l  337 -79 l  371 -79 l  371 -55 l  337 -55 l  p
308 -208 m  307 -207 307 -206 306 -205 ct 305 -203 304 -201 303 -199 ct 302 -197 300 -195 299 -193 ct 
298 -191 297 -189 296 -187 ct 234 -96 l  233 -95 232 -94 231 -92 ct 230 -91 229 -89 228 -88 ct 
227 -86 226 -84 224 -83 ct 223 -81 222 -80 222 -79 ct 308 -79 l  308 -208 l 
p ef
pom
pum
34085 24351 t
27 0 m  27 -26 l  89 -26 l  89 -213 l  34 -174 l  34 -204 l  91 -243 l 
120 -243 l  120 -26 l  179 -26 l  179 0 l  27 0 l  p ef
367 -80 m  367 -67 365 -56 361 -46 ct 357 -36 352 -27 345 -20 ct 337 -13 328 -7 318 -3 ct 
307 1 294 3 280 3 ct 268 3 256 1 247 -1 ct 237 -4 229 -9 223 -14 ct 216 -19 211 -25 207 -32 ct 
203 -39 201 -47 199 -55 ct 231 -58 l  232 -54 234 -49 236 -45 ct 238 -41 241 -37 245 -33 ct 
249 -30 254 -27 260 -25 ct 266 -23 273 -22 281 -22 ct 289 -22 296 -24 303 -26 ct 
309 -29 315 -32 320 -37 ct 324 -42 328 -48 330 -55 ct 333 -62 334 -70 334 -79 ct 
334 -86 333 -93 331 -99 ct 328 -106 325 -111 320 -116 ct 316 -120 310 -124 304 -126 ct 
297 -129 290 -130 282 -130 ct 277 -130 272 -130 267 -129 ct 263 -128 259 -126 255 -125 ct 
252 -123 248 -121 245 -119 ct 242 -117 239 -115 237 -113 ct 206 -113 l  214 -243 l 
352 -243 l  352 -217 l  243 -217 l  238 -140 l  243 -144 250 -148 259 -151 ct 
267 -154 277 -155 288 -155 ct 300 -155 311 -154 321 -150 ct 330 -146 339 -141 345 -134 ct 
352 -128 357 -120 361 -110 ct 365 -101 367 -91 367 -80 ct p ef
pom
pum
21310 23904 t
183 -122 m  183 -99 180 -79 176 -63 ct 171 -47 165 -34 158 -25 ct 150 -15 141 -8 131 -3 ct 
120 1 109 3 98 3 ct 86 3 75 1 65 -3 ct 54 -8 46 -15 38 -24 ct 30 -34 25 -47 20 -63 ct 
16 -79 14 -99 14 -122 ct 14 -146 16 -167 20 -183 ct 25 -199 31 -212 38 -221 ct 
46 -231 55 -237 65 -241 ct 75 -245 87 -247 99 -247 ct 110 -247 121 -245 131 -241 ct 
142 -237 150 -231 158 -221 ct 166 -212 172 -199 176 -183 ct 180 -167 183 -146 183 -122 ct 
p
151 -122 m  151 -141 150 -157 148 -170 ct 145 -183 142 -193 137 -201 ct 133 -209 127 -214 121 -217 ct 
114 -220 107 -222 99 -222 ct 90 -222 82 -220 76 -217 ct 69 -214 63 -208 59 -201 ct 
54 -193 51 -183 49 -170 ct 46 -157 45 -141 45 -122 ct 45 -103 46 -88 49 -75 ct 
51 -62 54 -52 59 -44 ct 64 -36 69 -31 76 -27 ct 82 -24 90 -22 98 -22 ct 106 -22 114 -24 120 -27 ct 
127 -31 132 -36 137 -44 ct 141 -52 145 -62 147 -75 ct 150 -88 151 -103 151 -122 ct 
p ef
pom
pum
20754 22345 t
182 -80 m  182 -67 180 -56 176 -46 ct 172 -36 167 -27 160 -20 ct 152 -13 143 -7 133 -3 ct 
122 1 109 3 95 3 ct 83 3 71 1 62 -1 ct 52 -4 44 -9 38 -14 ct 31 -19 26 -25 22 -32 ct 
18 -39 16 -47 14 -55 ct 46 -58 l  47 -54 49 -49 51 -45 ct 53 -41 56 -37 60 -33 ct 
64 -30 69 -27 75 -25 ct 81 -23 88 -22 96 -22 ct 104 -22 111 -24 118 -26 ct 124 -29 130 -32 135 -37 ct 
139 -42 143 -48 145 -55 ct 148 -62 149 -70 149 -79 ct 149 -86 148 -93 146 -99 ct 
143 -106 140 -111 135 -116 ct 131 -120 125 -124 119 -126 ct 112 -129 105 -130 97 -130 ct 
92 -130 87 -130 82 -129 ct 78 -128 74 -126 70 -125 ct 67 -123 63 -121 60 -119 ct 
57 -117 54 -115 52 -113 ct 21 -113 l  29 -243 l  167 -243 l  167 -217 l  58 -217 l 
53 -140 l  58 -144 65 -148 74 -151 ct 82 -154 92 -155 103 -155 ct 115 -155 126 -154 136 -150 ct 
145 -146 154 -141 160 -134 ct 167 -128 172 -120 176 -110 ct 180 -101 182 -91 182 -80 ct 
p ef
368 -122 m  368 -99 365 -79 361 -63 ct 356 -47 350 -34 343 -25 ct 335 -15 326 -8 316 -3 ct 
305 1 294 3 283 3 ct 271 3 260 1 250 -3 ct 239 -8 231 -15 223 -24 ct 215 -34 210 -47 205 -63 ct 
201 -79 199 -99 199 -122 ct 199 -146 201 -167 205 -183 ct 210 -199 216 -212 223 -221 ct 
231 -231 240 -237 250 -241 ct 260 -245 272 -247 284 -247 ct 295 -247 306 -245 316 -241 ct 
327 -237 335 -231 343 -221 ct 351 -212 357 -199 361 -183 ct 365 -167 368 -146 368 -122 ct 
p
336 -122 m  336 -141 335 -157 333 -170 ct 330 -183 327 -193 322 -201 ct 318 -209 312 -214 306 -217 ct 
299 -220 292 -222 284 -222 ct 275 -222 267 -220 261 -217 ct 254 -214 248 -208 244 -201 ct 
239 -193 236 -183 234 -170 ct 231 -157 230 -141 230 -122 ct 230 -103 231 -88 234 -75 ct 
236 -62 239 -52 244 -44 ct 249 -36 254 -31 261 -27 ct 267 -24 275 -22 283 -22 ct 
291 -22 299 -24 305 -27 ct 312 -31 317 -36 322 -44 ct 326 -52 330 -62 332 -75 ct 
335 -88 336 -103 336 -122 ct p ef
553 -122 m  553 -99 550 -79 546 -63 ct 541 -47 535 -34 528 -25 ct 520 -15 511 -8 501 -3 ct 
490 1 479 3 468 3 ct 456 3 445 1 435 -3 ct 424 -8 416 -15 408 -24 ct 400 -34 395 -47 390 -63 ct 
386 -79 384 -99 384 -122 ct 384 -146 386 -167 390 -183 ct 395 -199 401 -212 408 -221 ct 
416 -231 425 -237 435 -241 ct 445 -245 457 -247 469 -247 ct 480 -247 491 -245 501 -241 ct 
512 -237 520 -231 528 -221 ct 536 -212 542 -199 546 -183 ct 550 -167 553 -146 553 -122 ct 
p
521 -122 m  521 -141 520 -157 518 -170 ct 515 -183 512 -193 507 -201 ct 503 -209 497 -214 491 -217 ct 
484 -220 477 -222 469 -222 ct 460 -222 452 -220 446 -217 ct 439 -214 433 -208 429 -201 ct 
424 -193 421 -183 419 -170 ct 416 -157 415 -141 415 -122 ct 415 -103 416 -88 419 -75 ct 
421 -62 424 -52 429 -44 ct 434 -36 439 -31 446 -27 ct 452 -24 460 -22 468 -22 ct 
476 -22 484 -24 490 -27 ct 497 -31 502 -36 507 -44 ct 511 -52 515 -62 517 -75 ct 
520 -88 521 -103 521 -122 ct p ef
739 -122 m  739 -99 736 -79 732 -63 ct 727 -47 721 -34 714 -25 ct 706 -15 697 -8 687 -3 ct 
676 1 665 3 654 3 ct 642 3 631 1 621 -3 ct 610 -8 602 -15 594 -24 ct 586 -34 581 -47 576 -63 ct 
572 -79 570 -99 570 -122 ct 570 -146 572 -167 576 -183 ct 581 -199 587 -212 594 -221 ct 
602 -231 611 -237 621 -241 ct 631 -245 643 -247 655 -247 ct 666 -247 677 -245 687 -241 ct 
698 -237 706 -231 714 -221 ct 722 -212 728 -199 732 -183 ct 736 -167 739 -146 739 -122 ct 
p
707 -122 m  707 -141 706 -157 704 -170 ct 701 -183 698 -193 693 -201 ct 689 -209 683 -214 677 -217 ct 
670 -220 663 -222 655 -222 ct 646 -222 638 -220 632 -217 ct 625 -214 619 -208 615 -201 ct 
610 -193 607 -183 605 -170 ct 602 -157 601 -141 601 -122 ct 601 -103 602 -88 605 -75 ct 
607 -62 610 -52 615 -44 ct 620 -36 625 -31 632 -27 ct 638 -24 646 -22 654 -22 ct 
662 -22 670 -24 676 -27 ct 683 -31 688 -36 693 -44 ct 697 -52 701 -62 703 -75 ct 
706 -88 707 -103 707 -122 ct p ef
pom
pum
20569 20786 t
27 0 m  27 -26 l  89 -26 l  89 -213 l  34 -174 l  34 -204 l  91 -243 l 
120 -243 l  120 -26 l  179 -26 l  179 0 l  27 0 l  p ef
368 -122 m  368 -99 365 -79 361 -63 ct 356 -47 350 -34 343 -25 ct 335 -15 326 -8 316 -3 ct 
305 1 294 3 283 3 ct 271 3 260 1 250 -3 ct 239 -8 231 -15 223 -24 ct 215 -34 210 -47 205 -63 ct 
201 -79 199 -99 199 -122 ct 199 -146 201 -167 205 -183 ct 210 -199 216 -212 223 -221 ct 
231 -231 240 -237 250 -241 ct 260 -245 272 -247 284 -247 ct 295 -247 306 -245 316 -241 ct 
327 -237 335 -231 343 -221 ct 351 -212 357 -199 361 -183 ct 365 -167 368 -146 368 -122 ct 
p
336 -122 m  336 -141 335 -157 333 -170 ct 330 -183 327 -193 322 -201 ct 318 -209 312 -214 306 -217 ct 
299 -220 292 -222 284 -222 ct 275 -222 267 -220 261 -217 ct 254 -214 248 -208 244 -201 ct 
239 -193 236 -183 234 -170 ct 231 -157 230 -141 230 -122 ct 230 -103 231 -88 234 -75 ct 
236 -62 239 -52 244 -44 ct 249 -36 254 -31 261 -27 ct 267 -24 275 -22 283 -22 ct 
291 -22 299 -24 305 -27 ct 312 -31 317 -36 322 -44 ct 326 -52 330 -62 332 -75 ct 
335 -88 336 -103 336 -122 ct p ef
553 -122 m  553 -99 550 -79 546 -63 ct 541 -47 535 -34 528 -25 ct 520 -15 511 -8 501 -3 ct 
490 1 479 3 468 3 ct 456 3 445 1 435 -3 ct 424 -8 416 -15 408 -24 ct 400 -34 395 -47 390 -63 ct 
386 -79 384 -99 384 -122 ct 384 -146 386 -167 390 -183 ct 395 -199 401 -212 408 -221 ct 
416 -231 425 -237 435 -241 ct 445 -245 457 -247 469 -247 ct 480 -247 491 -245 501 -241 ct 
512 -237 520 -231 528 -221 ct 536 -212 542 -199 546 -183 ct 550 -167 553 -146 553 -122 ct 
p
521 -122 m  521 -141 520 -157 518 -170 ct 515 -183 512 -193 507 -201 ct 503 -209 497 -214 491 -217 ct 
484 -220 477 -222 469 -222 ct 460 -222 452 -220 446 -217 ct 439 -214 433 -208 429 -201 ct 
424 -193 421 -183 419 -170 ct 416 -157 415 -141 415 -122 ct 415 -103 416 -88 419 -75 ct 
421 -62 424 -52 429 -44 ct 434 -36 439 -31 446 -27 ct 452 -24 460 -22 468 -22 ct 
476 -22 484 -24 490 -27 ct 497 -31 502 -36 507 -44 ct 511 -52 515 -62 517 -75 ct 
520 -88 521 -103 521 -122 ct p ef
739 -122 m  739 -99 736 -79 732 -63 ct 727 -47 721 -34 714 -25 ct 706 -15 697 -8 687 -3 ct 
676 1 665 3 654 3 ct 642 3 631 1 621 -3 ct 610 -8 602 -15 594 -24 ct 586 -34 581 -47 576 -63 ct 
572 -79 570 -99 570 -122 ct 570 -146 572 -167 576 -183 ct 581 -199 587 -212 594 -221 ct 
602 -231 611 -237 621 -241 ct 631 -245 643 -247 655 -247 ct 666 -247 677 -245 687 -241 ct 
698 -237 706 -231 714 -221 ct 722 -212 728 -199 732 -183 ct 736 -167 739 -146 739 -122 ct 
p
707 -122 m  707 -141 706 -157 704 -170 ct 701 -183 698 -193 693 -201 ct 689 -209 683 -214 677 -217 ct 
670 -220 663 -222 655 -222 ct 646 -222 638 -220 632 -217 ct 625 -214 619 -208 615 -201 ct 
610 -193 607 -183 605 -170 ct 602 -157 601 -141 601 -122 ct 601 -103 602 -88 605 -75 ct 
607 -62 610 -52 615 -44 ct 620 -36 625 -31 632 -27 ct 638 -24 646 -22 654 -22 ct 
662 -22 670 -24 676 -27 ct 683 -31 688 -36 693 -44 ct 697 -52 701 -62 703 -75 ct 
706 -88 707 -103 707 -122 ct p ef
924 -122 m  924 -99 921 -79 917 -63 ct 912 -47 906 -34 899 -25 ct 891 -15 882 -8 872 -3 ct 
861 1 850 3 839 3 ct 827 3 816 1 806 -3 ct 795 -8 787 -15 779 -24 ct 771 -34 766 -47 761 -63 ct 
757 -79 755 -99 755 -122 ct 755 -146 757 -167 761 -183 ct 766 -199 772 -212 779 -221 ct 
787 -231 796 -237 806 -241 ct 816 -245 828 -247 840 -247 ct 851 -247 862 -245 872 -241 ct 
883 -237 891 -231 899 -221 ct 907 -212 913 -199 917 -183 ct 921 -167 924 -146 924 -122 ct 
p
892 -122 m  892 -141 891 -157 889 -170 ct 886 -183 883 -193 878 -201 ct 874 -209 868 -214 862 -217 ct 
855 -220 848 -222 840 -222 ct 831 -222 823 -220 817 -217 ct 810 -214 804 -208 800 -201 ct 
795 -193 792 -183 790 -170 ct 787 -157 786 -141 786 -122 ct 786 -103 787 -88 790 -75 ct 
792 -62 795 -52 800 -44 ct 805 -36 810 -31 817 -27 ct 823 -24 831 -22 839 -22 ct 
847 -22 855 -24 861 -27 ct 868 -31 873 -36 878 -44 ct 882 -52 886 -62 888 -75 ct 
891 -88 892 -103 892 -122 ct p ef
pom
pum
20569 19228 t
27 0 m  27 -26 l  89 -26 l  89 -213 l  34 -174 l  34 -204 l  91 -243 l 
120 -243 l  120 -26 l  179 -26 l  179 0 l  27 0 l  p ef
367 -80 m  367 -67 365 -56 361 -46 ct 357 -36 352 -27 345 -20 ct 337 -13 328 -7 318 -3 ct 
307 1 294 3 280 3 ct 268 3 256 1 247 -1 ct 237 -4 229 -9 223 -14 ct 216 -19 211 -25 207 -32 ct 
203 -39 201 -47 199 -55 ct 231 -58 l  232 -54 234 -49 236 -45 ct 238 -41 241 -37 245 -33 ct 
249 -30 254 -27 260 -25 ct 266 -23 273 -22 281 -22 ct 289 -22 296 -24 303 -26 ct 
309 -29 315 -32 320 -37 ct 324 -42 328 -48 330 -55 ct 333 -62 334 -70 334 -79 ct 
334 -86 333 -93 331 -99 ct 328 -106 325 -111 320 -116 ct 316 -120 310 -124 304 -126 ct 
297 -129 290 -130 282 -130 ct 277 -130 272 -130 267 -129 ct 263 -128 259 -126 255 -125 ct 
252 -123 248 -121 245 -119 ct 242 -117 239 -115 237 -113 ct 206 -113 l  214 -243 l 
352 -243 l  352 -217 l  243 -217 l  238 -140 l  243 -144 250 -148 259 -151 ct 
267 -154 277 -155 288 -155 ct 300 -155 311 -154 321 -150 ct 330 -146 339 -141 345 -134 ct 
352 -128 357 -120 361 -110 ct 365 -101 367 -91 367 -80 ct p ef
553 -122 m  553 -99 550 -79 546 -63 ct 541 -47 535 -34 528 -25 ct 520 -15 511 -8 501 -3 ct 
490 1 479 3 468 3 ct 456 3 445 1 435 -3 ct 424 -8 416 -15 408 -24 ct 400 -34 395 -47 390 -63 ct 
386 -79 384 -99 384 -122 ct 384 -146 386 -167 390 -183 ct 395 -199 401 -212 408 -221 ct 
416 -231 425 -237 435 -241 ct 445 -245 457 -247 469 -247 ct 480 -247 491 -245 501 -241 ct 
512 -237 520 -231 528 -221 ct 536 -212 542 -199 546 -183 ct 550 -167 553 -146 553 -122 ct 
p
521 -122 m  521 -141 520 -157 518 -170 ct 515 -183 512 -193 507 -201 ct 503 -209 497 -214 491 -217 ct 
484 -220 477 -222 469 -222 ct 460 -222 452 -220 446 -217 ct 439 -214 433 -208 429 -201 ct 
424 -193 421 -183 419 -170 ct 416 -157 415 -141 415 -122 ct 415 -103 416 -88 419 -75 ct 
421 -62 424 -52 429 -44 ct 434 -36 439 -31 446 -27 ct 452 -24 460 -22 468 -22 ct 
476 -22 484 -24 490 -27 ct 497 -31 502 -36 507 -44 ct 511 -52 515 -62 517 -75 ct 
520 -88 521 -103 521 -122 ct p ef
739 -122 m  739 -99 736 -79 732 -63 ct 727 -47 721 -34 714 -25 ct 706 -15 697 -8 687 -3 ct 
676 1 665 3 654 3 ct 642 3 631 1 621 -3 ct 610 -8 602 -15 594 -24 ct 586 -34 581 -47 576 -63 ct 
572 -79 570 -99 570 -122 ct 570 -146 572 -167 576 -183 ct 581 -199 587 -212 594 -221 ct 
602 -231 611 -237 621 -241 ct 631 -245 643 -247 655 -247 ct 666 -247 677 -245 687 -241 ct 
698 -237 706 -231 714 -221 ct 722 -212 728 -199 732 -183 ct 736 -167 739 -146 739 -122 ct 
p
707 -122 m  707 -141 706 -157 704 -170 ct 701 -183 698 -193 693 -201 ct 689 -209 683 -214 677 -217 ct 
670 -220 663 -222 655 -222 ct 646 -222 638 -220 632 -217 ct 625 -214 619 -208 615 -201 ct 
610 -193 607 -183 605 -170 ct 602 -157 601 -141 601 -122 ct 601 -103 602 -88 605 -75 ct 
607 -62 610 -52 615 -44 ct 620 -36 625 -31 632 -27 ct 638 -24 646 -22 654 -22 ct 
662 -22 670 -24 676 -27 ct 683 -31 688 -36 693 -44 ct 697 -52 701 -62 703 -75 ct 
706 -88 707 -103 707 -122 ct p ef
924 -122 m  924 -99 921 -79 917 -63 ct 912 -47 906 -34 899 -25 ct 891 -15 882 -8 872 -3 ct 
861 1 850 3 839 3 ct 827 3 816 1 806 -3 ct 795 -8 787 -15 779 -24 ct 771 -34 766 -47 761 -63 ct 
757 -79 755 -99 755 -122 ct 755 -146 757 -167 761 -183 ct 766 -199 772 -212 779 -221 ct 
787 -231 796 -237 806 -241 ct 816 -245 828 -247 840 -247 ct 851 -247 862 -245 872 -241 ct 
883 -237 891 -231 899 -221 ct 907 -212 913 -199 917 -183 ct 921 -167 924 -146 924 -122 ct 
p
892 -122 m  892 -141 891 -157 889 -170 ct 886 -183 883 -193 878 -201 ct 874 -209 868 -214 862 -217 ct 
855 -220 848 -222 840 -222 ct 831 -222 823 -220 817 -217 ct 810 -214 804 -208 800 -201 ct 
795 -193 792 -183 790 -170 ct 787 -157 786 -141 786 -122 ct 786 -103 787 -88 790 -75 ct 
792 -62 795 -52 800 -44 ct 805 -36 810 -31 817 -27 ct 823 -24 831 -22 839 -22 ct 
847 -22 855 -24 861 -27 ct 868 -31 873 -36 878 -44 ct 882 -52 886 -62 888 -75 ct 
891 -88 892 -103 892 -122 ct p ef
pom
pum
20569 17669 t
18 0 m  18 -22 l  24 -35 31 -47 39 -58 ct 48 -68 57 -77 66 -85 ct 75 -94 84 -101 94 -109 ct 
103 -116 111 -123 118 -130 ct 126 -137 132 -145 136 -152 ct 141 -160 143 -169 143 -179 ct 
143 -186 142 -192 140 -197 ct 138 -202 135 -207 131 -210 ct 127 -214 122 -217 117 -218 ct 
111 -220 105 -221 99 -221 ct 92 -221 87 -220 81 -218 ct 76 -217 71 -214 67 -211 ct 
62 -207 59 -203 56 -198 ct 53 -193 52 -187 51 -180 ct 19 -183 l  20 -192 23 -200 26 -208 ct 
30 -215 35 -222 42 -228 ct 49 -234 57 -238 66 -242 ct 75 -245 86 -247 99 -247 ct 
111 -247 121 -245 131 -242 ct 140 -239 148 -235 155 -229 ct 161 -224 166 -217 170 -209 ct 
173 -200 175 -191 175 -180 ct 175 -172 173 -164 170 -157 ct 167 -149 164 -142 159 -136 ct 
154 -129 148 -123 142 -116 ct 135 -110 129 -104 122 -98 ct 115 -92 107 -86 100 -81 ct 
93 -75 87 -69 80 -63 ct 74 -57 68 -51 63 -45 ct 58 -39 55 -33 52 -26 ct 179 -26 l 
179 0 l  18 0 l  p ef
368 -122 m  368 -99 365 -79 361 -63 ct 356 -47 350 -34 343 -25 ct 335 -15 326 -8 316 -3 ct 
305 1 294 3 283 3 ct 271 3 260 1 250 -3 ct 239 -8 231 -15 223 -24 ct 215 -34 210 -47 205 -63 ct 
201 -79 199 -99 199 -122 ct 199 -146 201 -167 205 -183 ct 210 -199 216 -212 223 -221 ct 
231 -231 240 -237 250 -241 ct 260 -245 272 -247 284 -247 ct 295 -247 306 -245 316 -241 ct 
327 -237 335 -231 343 -221 ct 351 -212 357 -199 361 -183 ct 365 -167 368 -146 368 -122 ct 
p
336 -122 m  336 -141 335 -157 333 -170 ct 330 -183 327 -193 322 -201 ct 318 -209 312 -214 306 -217 ct 
299 -220 292 -222 284 -222 ct 275 -222 267 -220 261 -217 ct 254 -214 248 -208 244 -201 ct 
239 -193 236 -183 234 -170 ct 231 -157 230 -141 230 -122 ct 230 -103 231 -88 234 -75 ct 
236 -62 239 -52 244 -44 ct 249 -36 254 -31 261 -27 ct 267 -24 275 -22 283 -22 ct 
291 -22 299 -24 305 -27 ct 312 -31 317 -36 322 -44 ct 326 -52 330 -62 332 -75 ct 
335 -88 336 -103 336 -122 ct p ef
553 -122 m  553 -99 550 -79 546 -63 ct 541 -47 535 -34 528 -25 ct 520 -15 511 -8 501 -3 ct 
490 1 479 3 468 3 ct 456 3 445 1 435 -3 ct 424 -8 416 -15 408 -24 ct 400 -34 395 -47 390 -63 ct 
386 -79 384 -99 384 -122 ct 384 -146 386 -167 390 -183 ct 395 -199 401 -212 408 -221 ct 
416 -231 425 -237 435 -241 ct 445 -245 457 -247 469 -247 ct 480 -247 491 -245 501 -241 ct 
512 -237 520 -231 528 -221 ct 536 -212 542 -199 546 -183 ct 550 -167 553 -146 553 -122 ct 
p
521 -122 m  521 -141 520 -157 518 -170 ct 515 -183 512 -193 507 -201 ct 503 -209 497 -214 491 -217 ct 
484 -220 477 -222 469 -222 ct 460 -222 452 -220 446 -217 ct 439 -214 433 -208 429 -201 ct 
424 -193 421 -183 419 -170 ct 416 -157 415 -141 415 -122 ct 415 -103 416 -88 419 -75 ct 
421 -62 424 -52 429 -44 ct 434 -36 439 -31 446 -27 ct 452 -24 460 -22 468 -22 ct 
476 -22 484 -24 490 -27 ct 497 -31 502 -36 507 -44 ct 511 -52 515 -62 517 -75 ct 
520 -88 521 -103 521 -122 ct p ef
739 -122 m  739 -99 736 -79 732 -63 ct 727 -47 721 -34 714 -25 ct 706 -15 697 -8 687 -3 ct 
676 1 665 3 654 3 ct 642 3 631 1 621 -3 ct 610 -8 602 -15 594 -24 ct 586 -34 581 -47 576 -63 ct 
572 -79 570 -99 570 -122 ct 570 -146 572 -167 576 -183 ct 581 -199 587 -212 594 -221 ct 
602 -231 611 -237 621 -241 ct 631 -245 643 -247 655 -247 ct 666 -247 677 -245 687 -241 ct 
698 -237 706 -231 714 -221 ct 722 -212 728 -199 732 -183 ct 736 -167 739 -146 739 -122 ct 
p
707 -122 m  707 -141 706 -157 704 -170 ct 701 -183 698 -193 693 -201 ct 689 -209 683 -214 677 -217 ct 
670 -220 663 -222 655 -222 ct 646 -222 638 -220 632 -217 ct 625 -214 619 -208 615 -201 ct 
610 -193 607 -183 605 -170 ct 602 -157 601 -141 601 -122 ct 601 -103 602 -88 605 -75 ct 
607 -62 610 -52 615 -44 ct 620 -36 625 -31 632 -27 ct 638 -24 646 -22 654 -22 ct 
662 -22 670 -24 676 -27 ct 683 -31 688 -36 693 -44 ct 697 -52 701 -62 703 -75 ct 
706 -88 707 -103 707 -122 ct p ef
924 -122 m  924 -99 921 -79 917 -63 ct 912 -47 906 -34 899 -25 ct 891 -15 882 -8 872 -3 ct 
861 1 850 3 839 3 ct 827 3 816 1 806 -3 ct 795 -8 787 -15 779 -24 ct 771 -34 766 -47 761 -63 ct 
757 -79 755 -99 755 -122 ct 755 -146 757 -167 761 -183 ct 766 -199 772 -212 779 -221 ct 
787 -231 796 -237 806 -241 ct 816 -245 828 -247 840 -247 ct 851 -247 862 -245 872 -241 ct 
883 -237 891 -231 899 -221 ct 907 -212 913 -199 917 -183 ct 921 -167 924 -146 924 -122 ct 
p
892 -122 m  892 -141 891 -157 889 -170 ct 886 -183 883 -193 878 -201 ct 874 -209 868 -214 862 -217 ct 
855 -220 848 -222 840 -222 ct 831 -222 823 -220 817 -217 ct 810 -214 804 -208 800 -201 ct 
795 -193 792 -183 790 -170 ct 787 -157 786 -141 786 -122 ct 786 -103 787 -88 790 -75 ct 
792 -62 795 -52 800 -44 ct 805 -36 810 -31 817 -27 ct 823 -24 831 -22 839 -22 ct 
847 -22 855 -24 861 -27 ct 868 -31 873 -36 878 -44 ct 882 -52 886 -62 888 -75 ct 
891 -88 892 -103 892 -122 ct p ef
pom
pum
20569 16111 t
18 0 m  18 -22 l  24 -35 31 -47 39 -58 ct 48 -68 57 -77 66 -85 ct 75 -94 84 -101 94 -109 ct 
103 -116 111 -123 118 -130 ct 126 -137 132 -145 136 -152 ct 141 -160 143 -169 143 -179 ct 
143 -186 142 -192 140 -197 ct 138 -202 135 -207 131 -210 ct 127 -214 122 -217 117 -218 ct 
111 -220 105 -221 99 -221 ct 92 -221 87 -220 81 -218 ct 76 -217 71 -214 67 -211 ct 
62 -207 59 -203 56 -198 ct 53 -193 52 -187 51 -180 ct 19 -183 l  20 -192 23 -200 26 -208 ct 
30 -215 35 -222 42 -228 ct 49 -234 57 -238 66 -242 ct 75 -245 86 -247 99 -247 ct 
111 -247 121 -245 131 -242 ct 140 -239 148 -235 155 -229 ct 161 -224 166 -217 170 -209 ct 
173 -200 175 -191 175 -180 ct 175 -172 173 -164 170 -157 ct 167 -149 164 -142 159 -136 ct 
154 -129 148 -123 142 -116 ct 135 -110 129 -104 122 -98 ct 115 -92 107 -86 100 -81 ct 
93 -75 87 -69 80 -63 ct 74 -57 68 -51 63 -45 ct 58 -39 55 -33 52 -26 ct 179 -26 l 
179 0 l  18 0 l  p ef
367 -80 m  367 -67 365 -56 361 -46 ct 357 -36 352 -27 345 -20 ct 337 -13 328 -7 318 -3 ct 
307 1 294 3 280 3 ct 268 3 256 1 247 -1 ct 237 -4 229 -9 223 -14 ct 216 -19 211 -25 207 -32 ct 
203 -39 201 -47 199 -55 ct 231 -58 l  232 -54 234 -49 236 -45 ct 238 -41 241 -37 245 -33 ct 
249 -30 254 -27 260 -25 ct 266 -23 273 -22 281 -22 ct 289 -22 296 -24 303 -26 ct 
309 -29 315 -32 320 -37 ct 324 -42 328 -48 330 -55 ct 333 -62 334 -70 334 -79 ct 
334 -86 333 -93 331 -99 ct 328 -106 325 -111 320 -116 ct 316 -120 310 -124 304 -126 ct 
297 -129 290 -130 282 -130 ct 277 -130 272 -130 267 -129 ct 263 -128 259 -126 255 -125 ct 
252 -123 248 -121 245 -119 ct 242 -117 239 -115 237 -113 ct 206 -113 l  214 -243 l 
352 -243 l  352 -217 l  243 -217 l  238 -140 l  243 -144 250 -148 259 -151 ct 
267 -154 277 -155 288 -155 ct 300 -155 311 -154 321 -150 ct 330 -146 339 -141 345 -134 ct 
352 -128 357 -120 361 -110 ct 365 -101 367 -91 367 -80 ct p ef
553 -122 m  553 -99 550 -79 546 -63 ct 541 -47 535 -34 528 -25 ct 520 -15 511 -8 501 -3 ct 
490 1 479 3 468 3 ct 456 3 445 1 435 -3 ct 424 -8 416 -15 408 -24 ct 400 -34 395 -47 390 -63 ct 
386 -79 384 -99 384 -122 ct 384 -146 386 -167 390 -183 ct 395 -199 401 -212 408 -221 ct 
416 -231 425 -237 435 -241 ct 445 -245 457 -247 469 -247 ct 480 -247 491 -245 501 -241 ct 
512 -237 520 -231 528 -221 ct 536 -212 542 -199 546 -183 ct 550 -167 553 -146 553 -122 ct 
p
521 -122 m  521 -141 520 -157 518 -170 ct 515 -183 512 -193 507 -201 ct 503 -209 497 -214 491 -217 ct 
484 -220 477 -222 469 -222 ct 460 -222 452 -220 446 -217 ct 439 -214 433 -208 429 -201 ct 
424 -193 421 -183 419 -170 ct 416 -157 415 -141 415 -122 ct 415 -103 416 -88 419 -75 ct 
421 -62 424 -52 429 -44 ct 434 -36 439 -31 446 -27 ct 452 -24 460 -22 468 -22 ct 
476 -22 484 -24 490 -27 ct 497 -31 502 -36 507 -44 ct 511 -52 515 -62 517 -75 ct 
520 -88 521 -103 521 -122 ct p ef
739 -122 m  739 -99 736 -79 732 -63 ct 727 -47 721 -34 714 -25 ct 706 -15 697 -8 687 -3 ct 
676 1 665 3 654 3 ct 642 3 631 1 621 -3 ct 610 -8 602 -15 594 -24 ct 586 -34 581 -47 576 -63 ct 
572 -79 570 -99 570 -122 ct 570 -146 572 -167 576 -183 ct 581 -199 587 -212 594 -221 ct 
602 -231 611 -237 621 -241 ct 631 -245 643 -247 655 -247 ct 666 -247 677 -245 687 -241 ct 
698 -237 706 -231 714 -221 ct 722 -212 728 -199 732 -183 ct 736 -167 739 -146 739 -122 ct 
p
707 -122 m  707 -141 706 -157 704 -170 ct 701 -183 698 -193 693 -201 ct 689 -209 683 -214 677 -217 ct 
670 -220 663 -222 655 -222 ct 646 -222 638 -220 632 -217 ct 625 -214 619 -208 615 -201 ct 
610 -193 607 -183 605 -170 ct 602 -157 601 -141 601 -122 ct 601 -103 602 -88 605 -75 ct 
607 -62 610 -52 615 -44 ct 620 -36 625 -31 632 -27 ct 638 -24 646 -22 654 -22 ct 
662 -22 670 -24 676 -27 ct 683 -31 688 -36 693 -44 ct 697 -52 701 -62 703 -75 ct 
706 -88 707 -103 707 -122 ct p ef
924 -122 m  924 -99 921 -79 917 -63 ct 912 -47 906 -34 899 -25 ct 891 -15 882 -8 872 -3 ct 
861 1 850 3 839 3 ct 827 3 816 1 806 -3 ct 795 -8 787 -15 779 -24 ct 771 -34 766 -47 761 -63 ct 
757 -79 755 -99 755 -122 ct 755 -146 757 -167 761 -183 ct 766 -199 772 -212 779 -221 ct 
787 -231 796 -237 806 -241 ct 816 -245 828 -247 840 -247 ct 851 -247 862 -245 872 -241 ct 
883 -237 891 -231 899 -221 ct 907 -212 913 -199 917 -183 ct 921 -167 924 -146 924 -122 ct 
p
892 -122 m  892 -141 891 -157 889 -170 ct 886 -183 883 -193 878 -201 ct 874 -209 868 -214 862 -217 ct 
855 -220 848 -222 840 -222 ct 831 -222 823 -220 817 -217 ct 810 -214 804 -208 800 -201 ct 
795 -193 792 -183 790 -170 ct 787 -157 786 -141 786 -122 ct 786 -103 787 -88 790 -75 ct 
792 -62 795 -52 800 -44 ct 805 -36 810 -31 817 -27 ct 823 -24 831 -22 839 -22 ct 
847 -22 855 -24 861 -27 ct 868 -31 873 -36 878 -44 ct 882 -52 886 -62 888 -75 ct 
891 -88 892 -103 892 -122 ct p ef
pom
79.99641 lw 0.003 0.273 0.527 c 35018 19663 m  35818 19663 l  ps
35312 19558 m  35312 19768 l  35523 19768 l  35523 19558 l  35312 19558 l 
p ef
0 lw 35312 19558 m  35312 19768 l  35523 19768 l  35523 19558 l  35312 19558 l 
pc
79.99641 lw 1.000 0.261 0.058 c 35018 20160 m  35818 20160 l  ps
35312 20160 m  35418 20265 l  35523 20160 l  35418 20056 l  35312 20160 l 
p ef
0 lw 35312 20160 m  35418 20265 l  35523 20160 l  35418 20056 l  35312 20160 l 
pc
pum
35918 19783 t
0.003 0.003 0.003 c 142 -30 m  136 -18 128 -10 119 -5 ct 109 0 97 3 83 3 ct 60 3 43 -5 31 -21 ct 
20 -37 15 -61 15 -93 ct 15 -158 38 -190 83 -190 ct 98 -190 109 -187 119 -182 ct 
128 -177 136 -169 142 -158 ct 142 -158 l  142 -159 142 -161 142 -163 ct 142 -166 142 -168 142 -171 ct 
142 -174 142 -176 142 -179 ct 142 -181 142 -183 142 -184 ct 142 -256 l  173 -256 l 
173 -39 l  173 -34 173 -30 173 -26 ct 173 -22 173 -18 173 -14 ct 173 -11 173 -8 173 -5 ct 
173 -3 173 -1 174 0 ct 144 0 l  144 -1 143 -3 143 -5 ct 143 -7 143 -10 143 -12 ct 
143 -15 142 -18 142 -21 ct 142 -24 142 -27 142 -30 ct 142 -30 l  p
47 -94 m  47 -81 48 -70 50 -61 ct 51 -52 54 -44 58 -38 ct 61 -32 66 -28 71 -25 ct 
77 -22 83 -21 91 -21 ct 100 -21 107 -22 113 -25 ct 119 -28 124 -32 129 -38 ct 133 -44 136 -51 138 -61 ct 
140 -70 142 -82 142 -96 ct 142 -109 140 -120 138 -129 ct 136 -138 133 -146 129 -151 ct 
124 -157 119 -161 113 -163 ct 107 -166 100 -167 92 -167 ct 84 -167 78 -166 72 -163 ct 
67 -160 62 -156 58 -150 ct 55 -145 52 -137 50 -128 ct 48 -118 47 -107 47 -94 ct 
p ef
233 -87 m  233 -77 234 -68 236 -60 ct 238 -52 241 -45 245 -39 ct 249 -33 254 -28 261 -25 ct 
268 -22 275 -20 285 -20 ct 298 -20 309 -23 317 -28 ct 325 -34 331 -41 333 -49 ct 
361 -41 l  359 -36 356 -31 352 -26 ct 349 -20 344 -16 338 -11 ct 333 -7 325 -4 316 -1 ct 
308 2 297 3 285 3 ct 257 3 236 -5 222 -22 ct 207 -38 200 -62 200 -95 ct 200 -112 202 -127 207 -139 ct 
211 -151 217 -161 224 -169 ct 232 -176 241 -182 251 -185 ct 261 -188 272 -190 283 -190 ct 
299 -190 312 -187 323 -182 ct 333 -177 342 -170 348 -162 ct 354 -153 359 -142 362 -130 ct 
364 -118 366 -105 366 -91 ct 366 -87 l  233 -87 l  p
334 -111 m  332 -130 327 -145 319 -154 ct 310 -163 298 -167 283 -167 ct 278 -167 272 -166 267 -165 ct 
261 -163 256 -160 251 -156 ct 246 -152 242 -146 239 -139 ct 235 -131 233 -122 233 -111 ct 
334 -111 l  p ef
432 -164 m  432 -1 l  401 -1 l  401 -164 l  375 -164 l  375 -187 l  401 -187 l 
401 -208 l  401 -215 402 -221 403 -227 ct 404 -233 407 -238 410 -242 ct 413 -246 418 -250 424 -252 ct 
430 -255 437 -256 447 -256 ct 450 -256 454 -256 458 -255 ct 462 -255 466 -255 469 -254 ct 
469 -230 l  467 -231 464 -231 462 -231 ct 459 -232 457 -232 455 -232 ct 450 -232 446 -231 444 -230 ct 
441 -229 438 -227 437 -224 ct 435 -222 434 -219 433 -216 ct 433 -212 432 -208 432 -204 ct 
432 -187 l  469 -187 l  469 -164 l  432 -164 l  p ef
547 3 m  529 3 515 -2 505 -12 ct 496 -22 491 -35 491 -53 ct 491 -65 493 -75 498 -83 ct 
503 -91 509 -97 516 -102 ct 524 -106 532 -109 542 -111 ct 552 -113 562 -114 571 -114 ct 
613 -114 l  613 -124 l  613 -132 613 -138 611 -144 ct 609 -149 607 -154 604 -157 ct 
600 -161 596 -163 591 -165 ct 586 -166 580 -167 573 -167 ct 567 -167 562 -167 557 -166 ct 
552 -165 548 -163 545 -161 ct 541 -159 538 -156 536 -152 ct 534 -148 532 -143 532 -137 ct 
499 -140 l  500 -148 503 -154 506 -160 ct 509 -167 514 -172 520 -176 ct 525 -181 533 -184 542 -187 ct 
551 -189 561 -191 574 -191 ct 598 -191 615 -185 627 -175 ct 639 -164 645 -148 645 -128 ct 
645 -48 l  645 -38 646 -31 648 -27 ct 651 -22 655 -20 662 -20 ct 664 -20 666 -20 667 -20 ct 
669 -20 671 -21 672 -21 ct 672 -2 l  668 -1 665 0 661 0 ct 657 1 653 1 648 1 ct 
643 1 637 0 633 -1 ct 629 -3 626 -5 623 -8 ct 620 -11 618 -15 617 -20 ct 616 -25 615 -30 614 -36 ct 
613 -36 l  610 -30 606 -25 602 -20 ct 598 -15 594 -11 589 -8 ct 583 -4 577 -2 571 0 ct 
564 2 556 3 547 3 ct p
554 -20 m  564 -20 573 -22 580 -26 ct 588 -29 594 -34 599 -39 ct 604 -45 607 -51 610 -58 ct 
612 -64 613 -71 613 -77 ct 613 -92 l  579 -92 l  572 -92 565 -92 558 -91 ct 
551 -90 545 -88 540 -85 ct 535 -82 531 -78 527 -73 ct 524 -67 523 -61 523 -52 ct 
523 -42 526 -34 531 -29 ct 537 -23 544 -20 554 -20 ct p ef
715 -187 m  715 -69 l  715 -60 716 -52 717 -46 ct 718 -40 721 -35 724 -31 ct 
727 -27 730 -25 735 -23 ct 740 -22 746 -21 754 -21 ct 761 -21 768 -22 773 -25 ct 
779 -27 784 -31 789 -36 ct 793 -41 796 -47 798 -54 ct 801 -61 802 -70 802 -79 ct 
802 -187 l  833 -187 l  833 -40 l  833 -36 833 -32 833 -28 ct 833 -24 833 -20 833 -16 ct 
833 -12 833 -9 834 -6 ct 834 -3 834 -1 834 0 ct 805 0 l  804 -1 804 -3 804 -5 ct 
804 -8 804 -11 804 -14 ct 804 -17 803 -20 803 -24 ct 803 -27 803 -30 803 -32 ct 
803 -32 l  800 -27 796 -22 793 -18 ct 789 -13 785 -10 780 -7 ct 776 -4 770 -1 764 1 ct 
758 2 751 3 743 3 ct 733 3 724 2 716 -1 ct 709 -3 703 -7 698 -13 ct 693 -18 690 -25 687 -33 ct 
685 -41 684 -51 684 -63 ct 684 -187 l  715 -187 l  p ef
871 0 m  871 -256 l  902 -256 l  902 0 l  871 0 l  p ef
1021 -1 m  1017 0 1012 1 1007 2 ct 1002 3 997 3 990 3 ct 965 3 953 -11 953 -39 ct 
953 -164 l  931 -164 l  931 -187 l  954 -187 l  963 -228 l  984 -228 l 
984 -187 l  1018 -187 l  1018 -164 l  984 -164 l  984 -46 l  984 -37 985 -31 988 -27 ct 
991 -23 996 -22 1004 -22 ct 1007 -22 1009 -22 1012 -22 ct 1015 -23 1018 -23 1021 -24 ct 
1021 -1 l  p ef
1054 -92 m  1054 -108 1055 -123 1058 -138 ct 1060 -152 1064 -166 1069 -180 ct 
1074 -193 1081 -206 1089 -219 ct 1097 -232 1106 -244 1118 -256 ct 1147 -256 l 
1137 -244 1127 -232 1119 -219 ct 1112 -206 1105 -193 1100 -180 ct 1095 -166 1091 -152 1089 -137 ct 
1086 -123 1085 -107 1085 -91 ct 1085 -76 1086 -60 1089 -46 ct 1091 -31 1095 -17 1100 -3 ct 
1105 10 1112 23 1119 36 ct 1127 49 1137 61 1147 73 ct 1118 73 l  1106 61 1097 49 1089 36 ct 
1081 23 1074 10 1069 -3 ct 1064 -17 1060 -31 1058 -45 ct 1055 -60 1054 -75 1054 -91 ct 
1054 -92 l  p ef
1302 -52 m  1302 -43 1300 -36 1297 -29 ct 1293 -22 1288 -16 1282 -11 ct 1275 -7 1268 -3 1258 -1 ct 
1249 2 1238 3 1226 3 ct 1215 3 1206 2 1197 1 ct 1188 -1 1181 -4 1174 -8 ct 1167 -11 1162 -16 1158 -22 ct 
1153 -28 1150 -36 1148 -44 ct 1175 -50 l  1178 -40 1183 -32 1192 -28 ct 1200 -23 1211 -21 1226 -21 ct 
1233 -21 1239 -21 1244 -22 ct 1250 -23 1255 -25 1259 -27 ct 1263 -29 1266 -32 1268 -36 ct 
1270 -39 1272 -44 1272 -50 ct 1272 -55 1270 -60 1268 -63 ct 1265 -67 1261 -70 1257 -73 ct 
1252 -75 1246 -77 1239 -79 ct 1233 -81 1225 -83 1217 -85 ct 1210 -87 1202 -89 1195 -91 ct 
1188 -94 1181 -97 1175 -101 ct 1169 -105 1164 -110 1161 -116 ct 1157 -122 1155 -129 1155 -138 ct 
1155 -155 1161 -168 1173 -177 ct 1186 -186 1203 -190 1226 -190 ct 1247 -190 1263 -186 1275 -179 ct 
1288 -172 1295 -160 1298 -144 ct 1271 -141 l  1270 -146 1268 -150 1265 -153 ct 
1262 -156 1259 -159 1255 -161 ct 1251 -163 1247 -164 1242 -165 ct 1237 -166 1232 -167 1226 -167 ct 
1212 -167 1202 -164 1195 -160 ct 1189 -156 1185 -149 1185 -141 ct 1185 -136 1187 -132 1189 -128 ct 
1192 -125 1195 -122 1199 -120 ct 1204 -118 1209 -116 1215 -114 ct 1222 -113 1228 -111 1236 -109 ct 
1241 -108 1246 -106 1251 -105 ct 1256 -103 1261 -102 1266 -100 ct 1271 -98 1276 -95 1280 -93 ct 
1284 -90 1288 -87 1291 -83 ct 1294 -79 1297 -75 1299 -70 ct 1301 -65 1302 -59 1302 -52 ct 
p ef
1378 -155 m  1381 -161 1385 -166 1389 -171 ct 1393 -175 1397 -179 1402 -182 ct 
1407 -185 1412 -187 1418 -188 ct 1424 -189 1430 -190 1437 -190 ct 1449 -190 1459 -188 1467 -185 ct 
1474 -182 1480 -177 1485 -172 ct 1489 -166 1492 -159 1494 -151 ct 1496 -143 1496 -134 1496 -124 ct 
1496 0 l  1465 0 l  1465 -118 l  1465 -126 1465 -133 1464 -139 ct 1463 -145 1461 -150 1458 -154 ct 
1455 -158 1451 -161 1446 -163 ct 1441 -165 1435 -166 1427 -166 ct 1419 -166 1413 -165 1407 -162 ct 
1401 -159 1396 -156 1392 -151 ct 1387 -146 1384 -140 1382 -133 ct 1380 -126 1379 -119 1379 -110 ct 
1379 0 l  1347 0 l  1347 -256 l  1379 -256 l  1379 -189 l  1379 -186 1378 -182 1378 -178 ct 
1378 -174 1378 -171 1378 -167 ct 1378 -164 1378 -162 1377 -159 ct 1377 -157 1377 -155 1377 -155 ct 
1378 -155 l  p ef
1579 3 m  1561 3 1547 -2 1537 -12 ct 1528 -22 1523 -35 1523 -53 ct 1523 -65 1525 -75 1530 -83 ct 
1535 -91 1541 -97 1548 -102 ct 1556 -106 1564 -109 1574 -111 ct 1584 -113 1594 -114 1603 -114 ct 
1645 -114 l  1645 -124 l  1645 -132 1645 -138 1643 -144 ct 1641 -149 1639 -154 1636 -157 ct 
1632 -161 1628 -163 1623 -165 ct 1618 -166 1612 -167 1605 -167 ct 1599 -167 1594 -167 1589 -166 ct 
1584 -165 1580 -163 1577 -161 ct 1573 -159 1570 -156 1568 -152 ct 1566 -148 1564 -143 1564 -137 ct 
1531 -140 l  1532 -148 1535 -154 1538 -160 ct 1541 -167 1546 -172 1552 -176 ct 
1557 -181 1565 -184 1574 -187 ct 1583 -189 1593 -191 1606 -191 ct 1630 -191 1647 -185 1659 -175 ct 
1671 -164 1677 -148 1677 -128 ct 1677 -48 l  1677 -38 1678 -31 1680 -27 ct 1683 -22 1687 -20 1694 -20 ct 
1696 -20 1698 -20 1699 -20 ct 1701 -20 1703 -21 1704 -21 ct 1704 -2 l  1700 -1 1697 0 1693 0 ct 
1689 1 1685 1 1680 1 ct 1675 1 1669 0 1665 -1 ct 1661 -3 1658 -5 1655 -8 ct 1652 -11 1650 -15 1649 -20 ct 
1648 -25 1647 -30 1646 -36 ct 1645 -36 l  1642 -30 1638 -25 1634 -20 ct 1630 -15 1626 -11 1621 -8 ct 
1615 -4 1609 -2 1603 0 ct 1596 2 1588 3 1579 3 ct p
1586 -20 m  1596 -20 1605 -22 1612 -26 ct 1620 -29 1626 -34 1631 -39 ct 1636 -45 1639 -51 1642 -58 ct 
1644 -64 1645 -71 1645 -77 ct 1645 -92 l  1611 -92 l  1604 -92 1597 -92 1590 -91 ct 
1583 -90 1577 -88 1572 -85 ct 1567 -82 1563 -78 1559 -73 ct 1556 -67 1555 -61 1555 -52 ct 
1555 -42 1558 -34 1563 -29 ct 1569 -23 1576 -20 1586 -20 ct p ef
1717 0 m  1717 -143 l  1717 -147 1717 -151 1717 -155 ct 1717 -159 1717 -163 1717 -167 ct 
1717 -171 1717 -174 1717 -178 ct 1717 -181 1717 -184 1716 -187 ct 1746 -187 l 
1746 -184 1746 -181 1746 -178 ct 1746 -174 1747 -171 1747 -167 ct 1747 -164 1747 -160 1747 -157 ct 
1747 -154 1747 -151 1747 -148 ct 1748 -148 l  1750 -156 1752 -162 1755 -167 ct 
1757 -172 1760 -177 1764 -180 ct 1767 -183 1771 -186 1775 -188 ct 1780 -189 1786 -190 1792 -190 ct 
1795 -190 1797 -190 1799 -189 ct 1802 -189 1803 -189 1805 -188 ct 1805 -160 l 
1803 -160 1800 -161 1797 -161 ct 1795 -161 1792 -162 1788 -162 ct 1781 -162 1775 -160 1770 -157 ct 
1765 -154 1761 -149 1758 -143 ct 1755 -138 1752 -131 1751 -123 ct 1749 -115 1749 -107 1749 -97 ct 
1749 0 l  1717 0 l  p ef
1847 -87 m  1847 -77 1848 -68 1850 -60 ct 1852 -52 1855 -45 1859 -39 ct 1863 -33 1868 -28 1875 -25 ct 
1882 -22 1889 -20 1899 -20 ct 1912 -20 1923 -23 1931 -28 ct 1939 -34 1945 -41 1947 -49 ct 
1975 -41 l  1973 -36 1970 -31 1966 -26 ct 1963 -20 1958 -16 1952 -11 ct 1947 -7 1939 -4 1930 -1 ct 
1922 2 1911 3 1899 3 ct 1871 3 1850 -5 1836 -22 ct 1821 -38 1814 -62 1814 -95 ct 
1814 -112 1816 -127 1821 -139 ct 1825 -151 1831 -161 1838 -169 ct 1846 -176 1855 -182 1865 -185 ct 
1875 -188 1886 -190 1897 -190 ct 1913 -190 1926 -187 1937 -182 ct 1947 -177 1956 -170 1962 -162 ct 
1968 -153 1973 -142 1976 -130 ct 1978 -118 1980 -105 1980 -91 ct 1980 -87 l 
1847 -87 l  p
1948 -111 m  1946 -130 1941 -145 1933 -154 ct 1924 -163 1912 -167 1897 -167 ct 
1892 -167 1886 -166 1881 -165 ct 1875 -163 1870 -160 1865 -156 ct 1860 -152 1856 -146 1853 -139 ct 
1849 -131 1847 -122 1847 -111 ct 1948 -111 l  p ef
2126 -30 m  2120 -18 2112 -10 2103 -5 ct 2093 0 2081 3 2067 3 ct 2044 3 2027 -5 2015 -21 ct 
2004 -37 1999 -61 1999 -93 ct 1999 -158 2022 -190 2067 -190 ct 2082 -190 2093 -187 2103 -182 ct 
2112 -177 2120 -169 2126 -158 ct 2126 -158 l  2126 -159 2126 -161 2126 -163 ct 
2126 -166 2126 -168 2126 -171 ct 2126 -174 2126 -176 2126 -179 ct 2126 -181 2126 -183 2126 -184 ct 
2126 -256 l  2157 -256 l  2157 -39 l  2157 -34 2157 -30 2157 -26 ct 2157 -22 2157 -18 2157 -14 ct 
2157 -11 2157 -8 2157 -5 ct 2157 -3 2157 -1 2158 0 ct 2128 0 l  2128 -1 2127 -3 2127 -5 ct 
2127 -7 2127 -10 2127 -12 ct 2127 -15 2126 -18 2126 -21 ct 2126 -24 2126 -27 2126 -30 ct 
2126 -30 l  p
2031 -94 m  2031 -81 2032 -70 2034 -61 ct 2035 -52 2038 -44 2042 -38 ct 2045 -32 2050 -28 2055 -25 ct 
2061 -22 2067 -21 2075 -21 ct 2084 -21 2091 -22 2097 -25 ct 2103 -28 2108 -32 2113 -38 ct 
2117 -44 2120 -51 2122 -61 ct 2124 -70 2126 -82 2126 -96 ct 2126 -109 2124 -120 2122 -129 ct 
2120 -138 2117 -146 2113 -151 ct 2108 -157 2103 -161 2097 -163 ct 2091 -166 2084 -167 2076 -167 ct 
2068 -167 2062 -166 2056 -163 ct 2051 -160 2046 -156 2042 -150 ct 2039 -145 2036 -137 2034 -128 ct 
2032 -118 2031 -107 2031 -94 ct p ef
2266 -91 m  2266 -75 2264 -60 2262 -45 ct 2260 -31 2256 -17 2251 -3 ct 2245 10 2239 23 2231 36 ct 
2223 49 2213 61 2202 73 ct 2172 73 l  2183 61 2192 49 2200 36 ct 2208 23 2214 10 2219 -3 ct 
2225 -17 2228 -31 2231 -46 ct 2233 -60 2234 -76 2234 -91 ct 2234 -107 2233 -123 2231 -137 ct 
2228 -152 2225 -166 2219 -180 ct 2214 -193 2208 -206 2200 -219 ct 2192 -232 2183 -244 2172 -256 ct 
2202 -256 l  2213 -244 2223 -232 2231 -219 ct 2239 -206 2245 -193 2251 -180 ct 
2256 -166 2260 -152 2262 -138 ct 2264 -123 2266 -108 2266 -92 ct 2266 -91 l 
p ef
pom
pum
35918 20280 t
142 -30 m  136 -18 128 -10 119 -5 ct 109 0 97 3 83 3 ct 60 3 43 -5 31 -21 ct 20 -37 15 -61 15 -93 ct 
15 -158 38 -190 83 -190 ct 98 -190 109 -187 119 -182 ct 128 -177 136 -169 142 -158 ct 
142 -158 l  142 -159 142 -161 142 -163 ct 142 -166 142 -168 142 -171 ct 142 -174 142 -176 142 -179 ct 
142 -181 142 -183 142 -184 ct 142 -256 l  173 -256 l  173 -39 l  173 -34 173 -30 173 -26 ct 
173 -22 173 -18 173 -14 ct 173 -11 173 -8 173 -5 ct 173 -3 173 -1 174 0 ct 144 0 l 
144 -1 143 -3 143 -5 ct 143 -7 143 -10 143 -12 ct 143 -15 142 -18 142 -21 ct 142 -24 142 -27 142 -30 ct 
142 -30 l  p
47 -94 m  47 -81 48 -70 50 -61 ct 51 -52 54 -44 58 -38 ct 61 -32 66 -28 71 -25 ct 
77 -22 83 -21 91 -21 ct 100 -21 107 -22 113 -25 ct 119 -28 124 -32 129 -38 ct 133 -44 136 -51 138 -61 ct 
140 -70 142 -82 142 -96 ct 142 -109 140 -120 138 -129 ct 136 -138 133 -146 129 -151 ct 
124 -157 119 -161 113 -163 ct 107 -166 100 -167 92 -167 ct 84 -167 78 -166 72 -163 ct 
67 -160 62 -156 58 -150 ct 55 -145 52 -137 50 -128 ct 48 -118 47 -107 47 -94 ct 
p ef
233 -87 m  233 -77 234 -68 236 -60 ct 238 -52 241 -45 245 -39 ct 249 -33 254 -28 261 -25 ct 
268 -22 275 -20 285 -20 ct 298 -20 309 -23 317 -28 ct 325 -34 331 -41 333 -49 ct 
361 -41 l  359 -36 356 -31 352 -26 ct 349 -20 344 -16 338 -11 ct 333 -7 325 -4 316 -1 ct 
308 2 297 3 285 3 ct 257 3 236 -5 222 -22 ct 207 -38 200 -62 200 -95 ct 200 -112 202 -127 207 -139 ct 
211 -151 217 -161 224 -169 ct 232 -176 241 -182 251 -185 ct 261 -188 272 -190 283 -190 ct 
299 -190 312 -187 323 -182 ct 333 -177 342 -170 348 -162 ct 354 -153 359 -142 362 -130 ct 
364 -118 366 -105 366 -91 ct 366 -87 l  233 -87 l  p
334 -111 m  332 -130 327 -145 319 -154 ct 310 -163 298 -167 283 -167 ct 278 -167 272 -166 267 -165 ct 
261 -163 256 -160 251 -156 ct 246 -152 242 -146 239 -139 ct 235 -131 233 -122 233 -111 ct 
334 -111 l  p ef
432 -164 m  432 -1 l  401 -1 l  401 -164 l  375 -164 l  375 -187 l  401 -187 l 
401 -208 l  401 -215 402 -221 403 -227 ct 404 -233 407 -238 410 -242 ct 413 -246 418 -250 424 -252 ct 
430 -255 437 -256 447 -256 ct 450 -256 454 -256 458 -255 ct 462 -255 466 -255 469 -254 ct 
469 -230 l  467 -231 464 -231 462 -231 ct 459 -232 457 -232 455 -232 ct 450 -232 446 -231 444 -230 ct 
441 -229 438 -227 437 -224 ct 435 -222 434 -219 433 -216 ct 433 -212 432 -208 432 -204 ct 
432 -187 l  469 -187 l  469 -164 l  432 -164 l  p ef
547 3 m  529 3 515 -2 505 -12 ct 496 -22 491 -35 491 -53 ct 491 -65 493 -75 498 -83 ct 
503 -91 509 -97 516 -102 ct 524 -106 532 -109 542 -111 ct 552 -113 562 -114 571 -114 ct 
613 -114 l  613 -124 l  613 -132 613 -138 611 -144 ct 609 -149 607 -154 604 -157 ct 
600 -161 596 -163 591 -165 ct 586 -166 580 -167 573 -167 ct 567 -167 562 -167 557 -166 ct 
552 -165 548 -163 545 -161 ct 541 -159 538 -156 536 -152 ct 534 -148 532 -143 532 -137 ct 
499 -140 l  500 -148 503 -154 506 -160 ct 509 -167 514 -172 520 -176 ct 525 -181 533 -184 542 -187 ct 
551 -189 561 -191 574 -191 ct 598 -191 615 -185 627 -175 ct 639 -164 645 -148 645 -128 ct 
645 -48 l  645 -38 646 -31 648 -27 ct 651 -22 655 -20 662 -20 ct 664 -20 666 -20 667 -20 ct 
669 -20 671 -21 672 -21 ct 672 -2 l  668 -1 665 0 661 0 ct 657 1 653 1 648 1 ct 
643 1 637 0 633 -1 ct 629 -3 626 -5 623 -8 ct 620 -11 618 -15 617 -20 ct 616 -25 615 -30 614 -36 ct 
613 -36 l  610 -30 606 -25 602 -20 ct 598 -15 594 -11 589 -8 ct 583 -4 577 -2 571 0 ct 
564 2 556 3 547 3 ct p
554 -20 m  564 -20 573 -22 580 -26 ct 588 -29 594 -34 599 -39 ct 604 -45 607 -51 610 -58 ct 
612 -64 613 -71 613 -77 ct 613 -92 l  579 -92 l  572 -92 565 -92 558 -91 ct 
551 -90 545 -88 540 -85 ct 535 -82 531 -78 527 -73 ct 524 -67 523 -61 523 -52 ct 
523 -42 526 -34 531 -29 ct 537 -23 544 -20 554 -20 ct p ef
715 -187 m  715 -69 l  715 -60 716 -52 717 -46 ct 718 -40 721 -35 724 -31 ct 
727 -27 730 -25 735 -23 ct 740 -22 746 -21 754 -21 ct 761 -21 768 -22 773 -25 ct 
779 -27 784 -31 789 -36 ct 793 -41 796 -47 798 -54 ct 801 -61 802 -70 802 -79 ct 
802 -187 l  833 -187 l  833 -40 l  833 -36 833 -32 833 -28 ct 833 -24 833 -20 833 -16 ct 
833 -12 833 -9 834 -6 ct 834 -3 834 -1 834 0 ct 805 0 l  804 -1 804 -3 804 -5 ct 
804 -8 804 -11 804 -14 ct 804 -17 803 -20 803 -24 ct 803 -27 803 -30 803 -32 ct 
803 -32 l  800 -27 796 -22 793 -18 ct 789 -13 785 -10 780 -7 ct 776 -4 770 -1 764 1 ct 
758 2 751 3 743 3 ct 733 3 724 2 716 -1 ct 709 -3 703 -7 698 -13 ct 693 -18 690 -25 687 -33 ct 
685 -41 684 -51 684 -63 ct 684 -187 l  715 -187 l  p ef
871 0 m  871 -256 l  902 -256 l  902 0 l  871 0 l  p ef
1021 -1 m  1017 0 1012 1 1007 2 ct 1002 3 997 3 990 3 ct 965 3 953 -11 953 -39 ct 
953 -164 l  931 -164 l  931 -187 l  954 -187 l  963 -228 l  984 -228 l 
984 -187 l  1018 -187 l  1018 -164 l  984 -164 l  984 -46 l  984 -37 985 -31 988 -27 ct 
991 -23 996 -22 1004 -22 ct 1007 -22 1009 -22 1012 -22 ct 1015 -23 1018 -23 1021 -24 ct 
1021 -1 l  p ef
1054 -92 m  1054 -108 1055 -123 1058 -138 ct 1060 -152 1064 -166 1069 -180 ct 
1074 -193 1081 -206 1089 -219 ct 1097 -232 1106 -244 1118 -256 ct 1147 -256 l 
1137 -244 1127 -232 1119 -219 ct 1112 -206 1105 -193 1100 -180 ct 1095 -166 1091 -152 1089 -137 ct 
1086 -123 1085 -107 1085 -91 ct 1085 -76 1086 -60 1089 -46 ct 1091 -31 1095 -17 1100 -3 ct 
1105 10 1112 23 1119 36 ct 1127 49 1137 61 1147 73 ct 1118 73 l  1106 61 1097 49 1089 36 ct 
1081 23 1074 10 1069 -3 ct 1064 -17 1060 -31 1058 -45 ct 1055 -60 1054 -75 1054 -91 ct 
1054 -92 l  p ef
1280 0 m  1280 -118 l  1280 -127 1280 -135 1278 -141 ct 1277 -147 1275 -152 1272 -156 ct 
1269 -160 1265 -162 1260 -164 ct 1255 -165 1249 -166 1242 -166 ct 1234 -166 1228 -165 1222 -162 ct 
1216 -160 1211 -156 1207 -151 ct 1202 -146 1199 -140 1197 -133 ct 1195 -126 1194 -117 1194 -108 ct 
1194 0 l  1162 0 l  1162 -147 l  1162 -151 1162 -155 1162 -159 ct 1162 -163 1162 -167 1162 -171 ct 
1162 -175 1162 -178 1162 -181 ct 1162 -184 1162 -186 1161 -187 ct 1191 -187 l 
1191 -186 1191 -184 1191 -182 ct 1191 -179 1191 -176 1192 -173 ct 1192 -170 1192 -167 1192 -163 ct 
1192 -160 1192 -157 1192 -155 ct 1193 -155 l  1196 -160 1199 -165 1202 -169 ct 
1206 -174 1210 -177 1215 -180 ct 1220 -183 1225 -186 1231 -188 ct 1237 -189 1244 -190 1252 -190 ct 
1263 -190 1272 -189 1279 -186 ct 1286 -184 1293 -180 1297 -174 ct 1302 -169 1306 -162 1308 -154 ct 
1310 -146 1311 -136 1311 -124 ct 1311 0 l  1280 0 l  p ef
1505 -94 m  1505 -61 1497 -37 1483 -21 ct 1469 -5 1448 3 1420 3 ct 1407 3 1396 1 1386 -3 ct 
1375 -7 1367 -13 1360 -21 ct 1353 -29 1347 -39 1343 -51 ct 1340 -63 1338 -77 1338 -94 ct 
1338 -158 1366 -190 1421 -190 ct 1436 -190 1448 -188 1459 -184 ct 1469 -180 1478 -174 1485 -166 ct 
1491 -158 1496 -148 1500 -136 ct 1503 -124 1505 -110 1505 -94 ct p
1472 -94 m  1472 -108 1471 -120 1469 -129 ct 1466 -139 1463 -146 1459 -152 ct 
1454 -158 1449 -161 1443 -164 ct 1437 -166 1430 -167 1422 -167 ct 1414 -167 1407 -166 1400 -164 ct 
1394 -161 1389 -157 1384 -152 ct 1380 -146 1376 -138 1374 -129 ct 1372 -120 1370 -108 1370 -94 ct 
1370 -79 1372 -67 1374 -58 ct 1377 -48 1380 -41 1385 -35 ct 1389 -30 1394 -26 1400 -23 ct 
1406 -21 1413 -20 1420 -20 ct 1428 -20 1435 -21 1442 -23 ct 1448 -26 1453 -29 1458 -35 ct 
1462 -41 1466 -48 1468 -58 ct 1471 -67 1472 -79 1472 -94 ct p ef
1650 0 m  1650 -118 l  1650 -127 1650 -135 1648 -141 ct 1647 -147 1645 -152 1642 -156 ct 
1639 -160 1635 -162 1630 -164 ct 1625 -165 1619 -166 1612 -166 ct 1604 -166 1598 -165 1592 -162 ct 
1586 -160 1581 -156 1577 -151 ct 1572 -146 1569 -140 1567 -133 ct 1565 -126 1564 -117 1564 -108 ct 
1564 0 l  1532 0 l  1532 -147 l  1532 -151 1532 -155 1532 -159 ct 1532 -163 1532 -167 1532 -171 ct 
1532 -175 1532 -178 1532 -181 ct 1532 -184 1532 -186 1531 -187 ct 1561 -187 l 
1561 -186 1561 -184 1561 -182 ct 1561 -179 1561 -176 1562 -173 ct 1562 -170 1562 -167 1562 -163 ct 
1562 -160 1562 -157 1562 -155 ct 1563 -155 l  1566 -160 1569 -165 1572 -169 ct 
1576 -174 1580 -177 1585 -180 ct 1590 -183 1595 -186 1601 -188 ct 1607 -189 1614 -190 1622 -190 ct 
1633 -190 1642 -189 1649 -186 ct 1656 -184 1663 -180 1667 -174 ct 1672 -169 1676 -162 1678 -154 ct 
1680 -146 1681 -136 1681 -124 ct 1681 0 l  1650 0 l  p ef
1741 -87 m  1741 -77 1742 -68 1744 -60 ct 1746 -52 1749 -45 1753 -39 ct 1757 -33 1762 -28 1769 -25 ct 
1776 -22 1783 -20 1793 -20 ct 1806 -20 1817 -23 1825 -28 ct 1833 -34 1839 -41 1841 -49 ct 
1869 -41 l  1867 -36 1864 -31 1860 -26 ct 1857 -20 1852 -16 1846 -11 ct 1841 -7 1833 -4 1824 -1 ct 
1816 2 1805 3 1793 3 ct 1765 3 1744 -5 1730 -22 ct 1715 -38 1708 -62 1708 -95 ct 
1708 -112 1710 -127 1715 -139 ct 1719 -151 1725 -161 1732 -169 ct 1740 -176 1749 -182 1759 -185 ct 
1769 -188 1780 -190 1791 -190 ct 1807 -190 1820 -187 1831 -182 ct 1841 -177 1850 -170 1856 -162 ct 
1862 -153 1867 -142 1870 -130 ct 1872 -118 1874 -105 1874 -91 ct 1874 -87 l 
1741 -87 l  p
1842 -111 m  1840 -130 1835 -145 1827 -154 ct 1818 -163 1806 -167 1791 -167 ct 
1786 -167 1780 -166 1775 -165 ct 1769 -163 1764 -160 1759 -156 ct 1754 -152 1750 -146 1747 -139 ct 
1743 -131 1741 -122 1741 -111 ct 1842 -111 l  p ef
1975 -91 m  1975 -75 1973 -60 1971 -45 ct 1969 -31 1965 -17 1960 -3 ct 1954 10 1948 23 1940 36 ct 
1932 49 1922 61 1911 73 ct 1881 73 l  1892 61 1901 49 1909 36 ct 1917 23 1923 10 1928 -3 ct 
1934 -17 1937 -31 1940 -46 ct 1942 -60 1943 -76 1943 -91 ct 1943 -107 1942 -123 1940 -137 ct 
1937 -152 1934 -166 1928 -180 ct 1923 -193 1917 -206 1909 -219 ct 1901 -232 1892 -244 1881 -256 ct 
1911 -256 l  1922 -244 1932 -232 1940 -219 ct 1948 -206 1954 -193 1960 -180 ct 
1965 -166 1969 -152 1971 -138 ct 1973 -123 1975 -108 1975 -92 ct 1975 -91 l 
p ef
2254 -52 m  2254 -43 2252 -36 2249 -29 ct 2245 -22 2240 -16 2234 -11 ct 2227 -7 2220 -3 2210 -1 ct 
2201 2 2190 3 2178 3 ct 2167 3 2158 2 2149 1 ct 2140 -1 2133 -4 2126 -8 ct 2119 -11 2114 -16 2110 -22 ct 
2105 -28 2102 -36 2100 -44 ct 2127 -50 l  2130 -40 2135 -32 2144 -28 ct 2152 -23 2163 -21 2178 -21 ct 
2185 -21 2191 -21 2196 -22 ct 2202 -23 2207 -25 2211 -27 ct 2215 -29 2218 -32 2220 -36 ct 
2222 -39 2224 -44 2224 -50 ct 2224 -55 2222 -60 2220 -63 ct 2217 -67 2213 -70 2209 -73 ct 
2204 -75 2198 -77 2191 -79 ct 2185 -81 2177 -83 2169 -85 ct 2162 -87 2154 -89 2147 -91 ct 
2140 -94 2133 -97 2127 -101 ct 2121 -105 2116 -110 2113 -116 ct 2109 -122 2107 -129 2107 -138 ct 
2107 -155 2113 -168 2125 -177 ct 2138 -186 2155 -190 2178 -190 ct 2199 -190 2215 -186 2227 -179 ct 
2240 -172 2247 -160 2250 -144 ct 2223 -141 l  2222 -146 2220 -150 2217 -153 ct 
2214 -156 2211 -159 2207 -161 ct 2203 -163 2199 -164 2194 -165 ct 2189 -166 2184 -167 2178 -167 ct 
2164 -167 2154 -164 2147 -160 ct 2141 -156 2137 -149 2137 -141 ct 2137 -136 2139 -132 2141 -128 ct 
2144 -125 2147 -122 2151 -120 ct 2156 -118 2161 -116 2167 -114 ct 2174 -113 2180 -111 2188 -109 ct 
2193 -108 2198 -106 2203 -105 ct 2208 -103 2213 -102 2218 -100 ct 2223 -98 2228 -95 2232 -93 ct 
2236 -90 2240 -87 2243 -83 ct 2246 -79 2249 -75 2251 -70 ct 2253 -65 2254 -59 2254 -52 ct 
p ef
2330 -155 m  2333 -161 2337 -166 2341 -171 ct 2345 -175 2349 -179 2354 -182 ct 
2359 -185 2364 -187 2370 -188 ct 2376 -189 2382 -190 2389 -190 ct 2401 -190 2411 -188 2419 -185 ct 
2426 -182 2432 -177 2437 -172 ct 2441 -166 2444 -159 2446 -151 ct 2448 -143 2448 -134 2448 -124 ct 
2448 0 l  2417 0 l  2417 -118 l  2417 -126 2417 -133 2416 -139 ct 2415 -145 2413 -150 2410 -154 ct 
2407 -158 2403 -161 2398 -163 ct 2393 -165 2387 -166 2379 -166 ct 2371 -166 2365 -165 2359 -162 ct 
2353 -159 2348 -156 2344 -151 ct 2339 -146 2336 -140 2334 -133 ct 2332 -126 2331 -119 2331 -110 ct 
2331 0 l  2299 0 l  2299 -256 l  2331 -256 l  2331 -189 l  2331 -186 2330 -182 2330 -178 ct 
2330 -174 2330 -171 2330 -167 ct 2330 -164 2330 -162 2329 -159 ct 2329 -157 2329 -155 2329 -155 ct 
2330 -155 l  p ef
2532 3 m  2514 3 2500 -2 2490 -12 ct 2481 -22 2476 -35 2476 -53 ct 2476 -65 2478 -75 2483 -83 ct 
2488 -91 2494 -97 2501 -102 ct 2509 -106 2517 -109 2527 -111 ct 2537 -113 2547 -114 2556 -114 ct 
2598 -114 l  2598 -124 l  2598 -132 2598 -138 2596 -144 ct 2594 -149 2592 -154 2589 -157 ct 
2585 -161 2581 -163 2576 -165 ct 2571 -166 2565 -167 2558 -167 ct 2552 -167 2547 -167 2542 -166 ct 
2537 -165 2533 -163 2530 -161 ct 2526 -159 2523 -156 2521 -152 ct 2519 -148 2517 -143 2517 -137 ct 
2484 -140 l  2485 -148 2488 -154 2491 -160 ct 2494 -167 2499 -172 2505 -176 ct 
2510 -181 2518 -184 2527 -187 ct 2536 -189 2546 -191 2559 -191 ct 2583 -191 2600 -185 2612 -175 ct 
2624 -164 2630 -148 2630 -128 ct 2630 -48 l  2630 -38 2631 -31 2633 -27 ct 2636 -22 2640 -20 2647 -20 ct 
2649 -20 2651 -20 2652 -20 ct 2654 -20 2656 -21 2657 -21 ct 2657 -2 l  2653 -1 2650 0 2646 0 ct 
2642 1 2638 1 2633 1 ct 2628 1 2622 0 2618 -1 ct 2614 -3 2611 -5 2608 -8 ct 2605 -11 2603 -15 2602 -20 ct 
2601 -25 2600 -30 2599 -36 ct 2598 -36 l  2595 -30 2591 -25 2587 -20 ct 2583 -15 2579 -11 2574 -8 ct 
2568 -4 2562 -2 2556 0 ct 2549 2 2541 3 2532 3 ct p
2539 -20 m  2549 -20 2558 -22 2565 -26 ct 2573 -29 2579 -34 2584 -39 ct 2589 -45 2592 -51 2595 -58 ct 
2597 -64 2598 -71 2598 -77 ct 2598 -92 l  2564 -92 l  2557 -92 2550 -92 2543 -91 ct 
2536 -90 2530 -88 2525 -85 ct 2520 -82 2516 -78 2512 -73 ct 2509 -67 2508 -61 2508 -52 ct 
2508 -42 2511 -34 2516 -29 ct 2522 -23 2529 -20 2539 -20 ct p ef
2670 0 m  2670 -143 l  2670 -147 2670 -151 2670 -155 ct 2670 -159 2670 -163 2670 -167 ct 
2670 -171 2670 -174 2670 -178 ct 2670 -181 2670 -184 2669 -187 ct 2699 -187 l 
2699 -184 2699 -181 2699 -178 ct 2699 -174 2700 -171 2700 -167 ct 2700 -164 2700 -160 2700 -157 ct 
2700 -154 2700 -151 2700 -148 ct 2701 -148 l  2703 -156 2705 -162 2708 -167 ct 
2710 -172 2713 -177 2717 -180 ct 2720 -183 2724 -186 2728 -188 ct 2733 -189 2739 -190 2745 -190 ct 
2748 -190 2750 -190 2752 -189 ct 2755 -189 2756 -189 2758 -188 ct 2758 -160 l 
2756 -160 2753 -161 2750 -161 ct 2748 -161 2745 -162 2741 -162 ct 2734 -162 2728 -160 2723 -157 ct 
2718 -154 2714 -149 2711 -143 ct 2708 -138 2705 -131 2704 -123 ct 2702 -115 2702 -107 2702 -97 ct 
2702 0 l  2670 0 l  p ef
2800 -87 m  2800 -77 2801 -68 2803 -60 ct 2805 -52 2808 -45 2812 -39 ct 2816 -33 2821 -28 2828 -25 ct 
2835 -22 2842 -20 2852 -20 ct 2865 -20 2876 -23 2884 -28 ct 2892 -34 2898 -41 2900 -49 ct 
2928 -41 l  2926 -36 2923 -31 2919 -26 ct 2916 -20 2911 -16 2905 -11 ct 2900 -7 2892 -4 2883 -1 ct 
2875 2 2864 3 2852 3 ct 2824 3 2803 -5 2789 -22 ct 2774 -38 2767 -62 2767 -95 ct 
2767 -112 2769 -127 2774 -139 ct 2778 -151 2784 -161 2791 -169 ct 2799 -176 2808 -182 2818 -185 ct 
2828 -188 2839 -190 2850 -190 ct 2866 -190 2879 -187 2890 -182 ct 2900 -177 2909 -170 2915 -162 ct 
2921 -153 2926 -142 2929 -130 ct 2931 -118 2933 -105 2933 -91 ct 2933 -87 l 
2800 -87 l  p
2901 -111 m  2899 -130 2894 -145 2886 -154 ct 2877 -163 2865 -167 2850 -167 ct 
2845 -167 2839 -166 2834 -165 ct 2828 -163 2823 -160 2818 -156 ct 2813 -152 2809 -146 2806 -139 ct 
2802 -131 2800 -122 2800 -111 ct 2901 -111 l  p ef
3079 -30 m  3073 -18 3065 -10 3056 -5 ct 3046 0 3034 3 3020 3 ct 2997 3 2980 -5 2968 -21 ct 
2957 -37 2952 -61 2952 -93 ct 2952 -158 2975 -190 3020 -190 ct 3035 -190 3046 -187 3056 -182 ct 
3065 -177 3073 -169 3079 -158 ct 3079 -158 l  3079 -159 3079 -161 3079 -163 ct 
3079 -166 3079 -168 3079 -171 ct 3079 -174 3079 -176 3079 -179 ct 3079 -181 3079 -183 3079 -184 ct 
3079 -256 l  3110 -256 l  3110 -39 l  3110 -34 3110 -30 3110 -26 ct 3110 -22 3110 -18 3110 -14 ct 
3110 -11 3110 -8 3110 -5 ct 3110 -3 3110 -1 3111 0 ct 3081 0 l  3081 -1 3080 -3 3080 -5 ct 
3080 -7 3080 -10 3080 -12 ct 3080 -15 3079 -18 3079 -21 ct 3079 -24 3079 -27 3079 -30 ct 
3079 -30 l  p
2984 -94 m  2984 -81 2985 -70 2987 -61 ct 2988 -52 2991 -44 2995 -38 ct 2998 -32 3003 -28 3008 -25 ct 
3014 -22 3020 -21 3028 -21 ct 3037 -21 3044 -22 3050 -25 ct 3056 -28 3061 -32 3066 -38 ct 
3070 -44 3073 -51 3075 -61 ct 3077 -70 3079 -82 3079 -96 ct 3079 -109 3077 -120 3075 -129 ct 
3073 -138 3070 -146 3066 -151 ct 3061 -157 3056 -161 3050 -163 ct 3044 -166 3037 -167 3029 -167 ct 
3021 -167 3015 -166 3009 -163 ct 3004 -160 2999 -156 2995 -150 ct 2992 -145 2989 -137 2987 -128 ct 
2985 -118 2984 -107 2984 -94 ct p ef
3144 -92 m  3144 -108 3145 -123 3148 -138 ct 3150 -152 3154 -166 3159 -180 ct 
3164 -193 3171 -206 3179 -219 ct 3187 -232 3196 -244 3208 -256 ct 3237 -256 l 
3227 -244 3217 -232 3209 -219 ct 3202 -206 3195 -193 3190 -180 ct 3185 -166 3181 -152 3179 -137 ct 
3176 -123 3175 -107 3175 -91 ct 3175 -76 3176 -60 3179 -46 ct 3181 -31 3185 -17 3190 -3 ct 
3195 10 3202 23 3209 36 ct 3217 49 3227 61 3237 73 ct 3208 73 l  3196 61 3187 49 3179 36 ct 
3171 23 3164 10 3159 -3 ct 3154 -17 3150 -31 3148 -45 ct 3145 -60 3144 -75 3144 -91 ct 
3144 -92 l  p ef
3429 0 m  3401 -71 l  3291 -71 l  3263 0 l  3229 0 l  3328 -243 l  3365 -243 l 
3463 0 l  3429 0 l  p
3360 -177 m  3359 -182 3357 -186 3355 -191 ct 3353 -196 3352 -200 3351 -204 ct 
3349 -208 3348 -211 3348 -213 ct 3347 -216 3346 -218 3346 -218 ct 3346 -218 3345 -216 3345 -213 ct 
3344 -211 3343 -207 3341 -203 ct 3340 -200 3339 -195 3337 -191 ct 3335 -186 3333 -181 3332 -177 ct 
3301 -97 l  3392 -97 l  3360 -177 l  p ef
3532 -38 m  3532 -9 l  3532 -3 3532 3 3532 8 ct 3531 13 3530 17 3529 22 ct 3528 26 3527 30 3525 34 ct 
3523 38 3521 41 3519 45 ct 3498 45 l  3503 38 3507 30 3510 23 ct 3513 15 3514 7 3514 0 ct 
3499 0 l  3499 -38 l  3532 -38 l  p ef
3895 -68 m  3895 -56 3892 -46 3888 -37 ct 3883 -28 3876 -21 3868 -16 ct 3860 -10 3850 -6 3840 -4 ct 
3829 -1 3818 0 3806 0 ct 3707 0 l  3707 -243 l  3795 -243 l  3809 -243 3821 -242 3831 -240 ct 
3842 -237 3851 -234 3858 -229 ct 3865 -224 3871 -218 3875 -211 ct 3879 -203 3881 -194 3881 -184 ct 
3881 -177 3880 -171 3878 -165 ct 3876 -159 3873 -153 3869 -149 ct 3865 -144 3861 -140 3855 -136 ct 
3849 -132 3842 -130 3835 -128 ct 3844 -127 3853 -125 3860 -121 ct 3868 -118 3874 -114 3879 -109 ct 
3884 -103 3888 -97 3891 -91 ct 3894 -84 3895 -76 3895 -68 ct p
3848 -180 m  3848 -193 3843 -203 3834 -208 ct 3825 -214 3812 -217 3795 -217 ct 
3740 -217 l  3740 -140 l  3795 -140 l  3805 -140 3813 -141 3820 -143 ct 3826 -144 3832 -147 3836 -151 ct 
3840 -154 3843 -158 3845 -163 ct 3847 -168 3848 -174 3848 -180 ct p
3862 -71 m  3862 -79 3860 -85 3857 -91 ct 3855 -96 3850 -101 3845 -104 ct 3840 -107 3834 -110 3826 -112 ct 
3819 -113 3810 -114 3801 -114 ct 3740 -114 l  3740 -26 l  3804 -26 l  3812 -26 3820 -27 3827 -28 ct 
3834 -30 3840 -32 3845 -36 ct 3850 -39 3854 -44 3857 -49 ct 3860 -55 3862 -62 3862 -71 ct 
p ef
3982 -38 m  3982 -9 l  3982 -3 3982 3 3982 8 ct 3981 13 3980 17 3979 22 ct 3978 26 3977 30 3975 34 ct 
3973 38 3971 41 3969 45 ct 3948 45 l  3953 38 3957 30 3960 23 ct 3963 15 3964 7 3964 0 ct 
3949 0 l  3949 -38 l  3982 -38 l  p ef
4265 -220 m  4251 -220 4239 -218 4228 -213 ct 4217 -209 4208 -202 4201 -194 ct 
4194 -185 4189 -175 4185 -163 ct 4181 -151 4179 -138 4179 -123 ct 4179 -108 4181 -95 4185 -83 ct 
4189 -71 4195 -60 4202 -52 ct 4210 -43 4219 -36 4230 -31 ct 4240 -26 4252 -24 4266 -24 ct 
4275 -24 4284 -25 4292 -28 ct 4299 -30 4306 -34 4313 -38 ct 4319 -43 4325 -48 4329 -54 ct 
4334 -60 4339 -67 4343 -75 ct 4369 -61 l  4365 -52 4360 -44 4353 -36 ct 4347 -28 4339 -21 4331 -15 ct 
4322 -10 4312 -5 4301 -2 ct 4290 1 4278 3 4264 3 ct 4245 3 4227 0 4213 -6 ct 4198 -13 4186 -21 4176 -33 ct 
4166 -44 4158 -57 4153 -73 ct 4148 -88 4146 -105 4146 -123 ct 4146 -142 4149 -159 4154 -174 ct 
4159 -190 4167 -203 4177 -213 ct 4187 -224 4199 -232 4214 -238 ct 4229 -244 4245 -247 4264 -247 ct 
4290 -247 4312 -242 4329 -232 ct 4346 -222 4359 -207 4367 -187 ct 4336 -176 l 
4334 -182 4331 -188 4327 -193 ct 4323 -198 4318 -203 4312 -207 ct 4306 -211 4299 -214 4291 -216 ct 
4284 -219 4275 -220 4265 -220 ct p ef
4462 -91 m  4462 -75 4460 -60 4458 -45 ct 4456 -31 4452 -17 4447 -3 ct 4441 10 4435 23 4427 36 ct 
4419 49 4409 61 4398 73 ct 4368 73 l  4379 61 4388 49 4396 36 ct 4404 23 4410 10 4415 -3 ct 
4421 -17 4424 -31 4427 -46 ct 4429 -60 4430 -76 4430 -91 ct 4430 -107 4429 -123 4427 -137 ct 
4424 -152 4421 -166 4415 -180 ct 4410 -193 4404 -206 4396 -219 ct 4388 -232 4379 -244 4368 -256 ct 
4398 -256 l  4409 -244 4419 -232 4427 -219 ct 4435 -206 4441 -193 4447 -180 ct 
4452 -166 4456 -152 4458 -138 ct 4460 -123 4462 -108 4462 -92 ct 4462 -91 l 
p ef
4759 -94 m  4759 -80 4757 -67 4755 -55 ct 4753 -43 4749 -33 4744 -25 ct 4738 -16 4731 -9 4722 -4 ct 
4714 1 4703 3 4690 3 ct 4677 3 4665 0 4655 -5 ct 4645 -10 4637 -18 4632 -29 ct 
4631 -29 l  4631 -29 4631 -28 4631 -26 ct 4631 -24 4632 -22 4632 -19 ct 4632 -17 4632 -14 4632 -10 ct 
4632 -7 4632 -3 4632 0 ct 4632 73 l  4601 73 l  4601 -149 l  4601 -153 4601 -158 4601 -162 ct 
4601 -166 4601 -170 4600 -173 ct 4600 -176 4600 -179 4600 -182 ct 4600 -184 4600 -186 4600 -187 ct 
4630 -187 l  4630 -187 4630 -185 4630 -183 ct 4630 -181 4631 -179 4631 -176 ct 
4631 -173 4631 -170 4631 -166 ct 4631 -163 4631 -160 4631 -157 ct 4632 -157 l 
4635 -163 4638 -168 4642 -172 ct 4646 -176 4650 -180 4655 -182 ct 4659 -185 4665 -187 4670 -188 ct 
4676 -189 4683 -190 4690 -190 ct 4703 -190 4714 -188 4722 -183 ct 4731 -179 4738 -172 4744 -164 ct 
4749 -155 4753 -145 4755 -134 ct 4757 -122 4759 -109 4759 -94 ct p
4726 -94 m  4726 -105 4725 -115 4724 -124 ct 4722 -133 4720 -141 4717 -147 ct 
4713 -153 4709 -158 4703 -161 ct 4698 -164 4690 -166 4682 -166 ct 4675 -166 4669 -165 4662 -163 ct 
4656 -161 4651 -157 4647 -152 ct 4642 -146 4638 -139 4636 -129 ct 4633 -119 4632 -107 4632 -91 ct 
4632 -78 4633 -67 4635 -58 ct 4637 -49 4640 -41 4645 -36 ct 4649 -30 4654 -26 4660 -24 ct 
4666 -21 4674 -20 4682 -20 ct 4690 -20 4697 -22 4703 -25 ct 4709 -28 4713 -33 4717 -39 ct 
4720 -46 4722 -53 4724 -63 ct 4725 -72 4726 -82 4726 -94 ct p ef
4787 0 m  4787 -143 l  4787 -147 4787 -151 4787 -155 ct 4787 -159 4787 -163 4787 -167 ct 
4787 -171 4787 -174 4787 -178 ct 4787 -181 4787 -184 4786 -187 ct 4816 -187 l 
4816 -184 4816 -181 4816 -178 ct 4816 -174 4817 -171 4817 -167 ct 4817 -164 4817 -160 4817 -157 ct 
4817 -154 4817 -151 4817 -148 ct 4818 -148 l  4820 -156 4822 -162 4825 -167 ct 
4827 -172 4830 -177 4834 -180 ct 4837 -183 4841 -186 4845 -188 ct 4850 -189 4856 -190 4862 -190 ct 
4865 -190 4867 -190 4869 -189 ct 4872 -189 4873 -189 4875 -188 ct 4875 -160 l 
4873 -160 4870 -161 4867 -161 ct 4865 -161 4862 -162 4858 -162 ct 4851 -162 4845 -160 4840 -157 ct 
4835 -154 4831 -149 4828 -143 ct 4825 -138 4822 -131 4821 -123 ct 4819 -115 4819 -107 4819 -97 ct 
4819 0 l  4787 0 l  p ef
4892 -226 m  4892 -256 l  4923 -256 l  4923 -226 l  4892 -226 l  p
4892 0 m  4892 -187 l  4923 -187 l  4923 0 l  4892 0 l  p ef
5054 0 m  5017 0 l  4949 -187 l  4982 -187 l  5023 -65 l  5024 -63 5025 -60 5026 -56 ct 
5027 -52 5028 -49 5030 -45 ct 5031 -41 5032 -37 5033 -33 ct 5034 -30 5035 -27 5035 -24 ct 
5036 -27 5037 -30 5038 -33 ct 5039 -37 5040 -41 5041 -44 ct 5042 -48 5044 -52 5045 -56 ct 
5046 -59 5047 -62 5048 -65 ct 5090 -187 l  5123 -187 l  5054 0 l  p ef
5204 3 m  5186 3 5172 -2 5162 -12 ct 5153 -22 5148 -35 5148 -53 ct 5148 -65 5150 -75 5155 -83 ct 
5160 -91 5166 -97 5173 -102 ct 5181 -106 5189 -109 5199 -111 ct 5209 -113 5219 -114 5228 -114 ct 
5270 -114 l  5270 -124 l  5270 -132 5270 -138 5268 -144 ct 5266 -149 5264 -154 5261 -157 ct 
5257 -161 5253 -163 5248 -165 ct 5243 -166 5237 -167 5230 -167 ct 5224 -167 5219 -167 5214 -166 ct 
5209 -165 5205 -163 5202 -161 ct 5198 -159 5195 -156 5193 -152 ct 5191 -148 5189 -143 5189 -137 ct 
5156 -140 l  5157 -148 5160 -154 5163 -160 ct 5166 -167 5171 -172 5177 -176 ct 
5182 -181 5190 -184 5199 -187 ct 5208 -189 5218 -191 5231 -191 ct 5255 -191 5272 -185 5284 -175 ct 
5296 -164 5302 -148 5302 -128 ct 5302 -48 l  5302 -38 5303 -31 5305 -27 ct 5308 -22 5312 -20 5319 -20 ct 
5321 -20 5323 -20 5324 -20 ct 5326 -20 5328 -21 5329 -21 ct 5329 -2 l  5325 -1 5322 0 5318 0 ct 
5314 1 5310 1 5305 1 ct 5300 1 5294 0 5290 -1 ct 5286 -3 5283 -5 5280 -8 ct 5277 -11 5275 -15 5274 -20 ct 
5273 -25 5272 -30 5271 -36 ct 5270 -36 l  5267 -30 5263 -25 5259 -20 ct 5255 -15 5251 -11 5246 -8 ct 
5240 -4 5234 -2 5228 0 ct 5221 2 5213 3 5204 3 ct p
5211 -20 m  5221 -20 5230 -22 5237 -26 ct 5245 -29 5251 -34 5256 -39 ct 5261 -45 5264 -51 5267 -58 ct 
5269 -64 5270 -71 5270 -77 ct 5270 -92 l  5236 -92 l  5229 -92 5222 -92 5215 -91 ct 
5208 -90 5202 -88 5197 -85 ct 5192 -82 5188 -78 5184 -73 ct 5181 -67 5180 -61 5180 -52 ct 
5180 -42 5183 -34 5188 -29 ct 5194 -23 5201 -20 5211 -20 ct p ef
5413 -1 m  5409 0 5404 1 5399 2 ct 5394 3 5389 3 5382 3 ct 5357 3 5345 -11 5345 -39 ct 
5345 -164 l  5323 -164 l  5323 -187 l  5346 -187 l  5355 -228 l  5376 -228 l 
5376 -187 l  5410 -187 l  5410 -164 l  5376 -164 l  5376 -46 l  5376 -37 5377 -31 5380 -27 ct 
5383 -23 5388 -22 5396 -22 ct 5399 -22 5401 -22 5404 -22 ct 5407 -23 5410 -23 5413 -24 ct 
5413 -1 l  p ef
5472 -87 m  5472 -77 5473 -68 5475 -60 ct 5477 -52 5480 -45 5484 -39 ct 5488 -33 5493 -28 5500 -25 ct 
5507 -22 5514 -20 5524 -20 ct 5537 -20 5548 -23 5556 -28 ct 5564 -34 5570 -41 5572 -49 ct 
5600 -41 l  5598 -36 5595 -31 5591 -26 ct 5588 -20 5583 -16 5577 -11 ct 5572 -7 5564 -4 5555 -1 ct 
5547 2 5536 3 5524 3 ct 5496 3 5475 -5 5461 -22 ct 5446 -38 5439 -62 5439 -95 ct 
5439 -112 5441 -127 5446 -139 ct 5450 -151 5456 -161 5463 -169 ct 5471 -176 5480 -182 5490 -185 ct 
5500 -188 5511 -190 5522 -190 ct 5538 -190 5551 -187 5562 -182 ct 5572 -177 5581 -170 5587 -162 ct 
5593 -153 5598 -142 5601 -130 ct 5603 -118 5605 -105 5605 -91 ct 5605 -87 l 
5472 -87 l  p
5573 -111 m  5571 -130 5566 -145 5558 -154 ct 5549 -163 5537 -167 5522 -167 ct 
5517 -167 5511 -166 5506 -165 ct 5500 -163 5495 -160 5490 -156 ct 5485 -152 5481 -146 5478 -139 ct 
5474 -131 5472 -122 5472 -111 ct 5573 -111 l  p ef
5631 -92 m  5631 -108 5632 -123 5635 -138 ct 5637 -152 5641 -166 5646 -180 ct 
5651 -193 5658 -206 5666 -219 ct 5674 -232 5683 -244 5695 -256 ct 5724 -256 l 
5714 -244 5704 -232 5696 -219 ct 5689 -206 5682 -193 5677 -180 ct 5672 -166 5668 -152 5666 -137 ct 
5663 -123 5662 -107 5662 -91 ct 5662 -76 5663 -60 5666 -46 ct 5668 -31 5672 -17 5677 -3 ct 
5682 10 5689 23 5696 36 ct 5704 49 5714 61 5724 73 ct 5695 73 l  5683 61 5674 49 5666 36 ct 
5658 23 5651 10 5646 -3 ct 5641 -17 5637 -31 5635 -45 ct 5632 -60 5631 -75 5631 -91 ct 
5631 -92 l  p ef
5856 0 m  5793 -85 l  5770 -67 l  5770 0 l  5739 0 l  5739 -256 l  5770 -256 l 
5770 -96 l  5852 -187 l  5888 -187 l  5812 -107 l  5892 0 l  5856 0 l 
p ef
5966 -38 m  5966 -9 l  5966 -3 5966 3 5966 8 ct 5965 13 5964 17 5963 22 ct 5962 26 5961 30 5959 34 ct 
5957 38 5955 41 5953 45 ct 5932 45 l  5937 38 5941 30 5944 23 ct 5947 15 5948 7 5948 0 ct 
5933 0 l  5933 -38 l  5966 -38 l  p ef
6030 -226 m  6030 -256 l  6061 -256 l  6061 -226 l  6030 -226 l  p
6061 23 m  6061 30 6060 37 6059 43 ct 6058 49 6055 54 6052 59 ct 6049 63 6045 67 6040 69 ct 
6034 72 6028 73 6019 73 ct 6015 73 6012 73 6008 73 ct 6004 73 6001 73 5997 72 ct 
5997 48 l  5999 48 6001 48 6003 49 ct 6005 49 6007 49 6008 49 ct 6012 49 6016 48 6019 47 ct 
6022 46 6024 44 6025 42 ct 6027 39 6028 36 6029 32 ct 6029 28 6030 24 6030 19 ct 
6030 -187 l  6061 -187 l  6061 23 l  p ef
6181 -91 m  6181 -75 6179 -60 6177 -45 ct 6175 -31 6171 -17 6166 -3 ct 6160 10 6154 23 6146 36 ct 
6138 49 6128 61 6117 73 ct 6087 73 l  6098 61 6107 49 6115 36 ct 6123 23 6129 10 6134 -3 ct 
6140 -17 6143 -31 6146 -46 ct 6148 -60 6149 -76 6149 -91 ct 6149 -107 6148 -123 6146 -137 ct 
6143 -152 6140 -166 6134 -180 ct 6129 -193 6123 -206 6115 -219 ct 6107 -232 6098 -244 6087 -256 ct 
6117 -256 l  6128 -244 6138 -232 6146 -219 ct 6154 -206 6160 -193 6166 -180 ct 
6171 -166 6175 -152 6177 -138 ct 6179 -123 6181 -108 6181 -92 ct 6181 -91 l 
p ef
pom
pum
35918 20677 t
62 -164 m  62 -1 l  31 -1 l  31 -164 l  5 -164 l  5 -187 l  31 -187 l 
31 -208 l  31 -215 32 -221 33 -227 ct 34 -233 37 -238 40 -242 ct 43 -246 48 -250 54 -252 ct 
60 -255 67 -256 77 -256 ct 80 -256 84 -256 88 -255 ct 92 -255 96 -255 99 -254 ct 
99 -230 l  97 -231 94 -231 92 -231 ct 89 -232 87 -232 85 -232 ct 80 -232 76 -231 74 -230 ct 
71 -229 68 -227 67 -224 ct 65 -222 64 -219 63 -216 ct 63 -212 62 -208 62 -204 ct 
62 -187 l  99 -187 l  99 -164 l  62 -164 l  p ef
130 -226 m  130 -256 l  161 -256 l  161 -226 l  130 -226 l  p
130 0 m  130 -187 l  161 -187 l  161 0 l  130 0 l  p ef
209 0 m  209 -143 l  209 -147 209 -151 209 -155 ct 209 -159 209 -163 209 -167 ct 
209 -171 209 -174 209 -178 ct 209 -181 209 -184 208 -187 ct 238 -187 l  238 -184 238 -181 238 -178 ct 
238 -174 239 -171 239 -167 ct 239 -164 239 -160 239 -157 ct 239 -154 239 -151 239 -148 ct 
240 -148 l  242 -156 244 -162 247 -167 ct 249 -172 252 -177 256 -180 ct 259 -183 263 -186 267 -188 ct 
272 -189 278 -190 284 -190 ct 287 -190 289 -190 291 -189 ct 294 -189 295 -189 297 -188 ct 
297 -160 l  295 -160 292 -161 289 -161 ct 287 -161 284 -162 280 -162 ct 273 -162 267 -160 262 -157 ct 
257 -154 253 -149 250 -143 ct 247 -138 244 -131 243 -123 ct 241 -115 241 -107 241 -97 ct 
241 0 l  209 0 l  p ef
455 -52 m  455 -43 453 -36 450 -29 ct 446 -22 441 -16 435 -11 ct 428 -7 421 -3 411 -1 ct 
402 2 391 3 379 3 ct 368 3 359 2 350 1 ct 341 -1 334 -4 327 -8 ct 320 -11 315 -16 311 -22 ct 
306 -28 303 -36 301 -44 ct 328 -50 l  331 -40 336 -32 345 -28 ct 353 -23 364 -21 379 -21 ct 
386 -21 392 -21 397 -22 ct 403 -23 408 -25 412 -27 ct 416 -29 419 -32 421 -36 ct 
423 -39 425 -44 425 -50 ct 425 -55 423 -60 421 -63 ct 418 -67 414 -70 410 -73 ct 
405 -75 399 -77 392 -79 ct 386 -81 378 -83 370 -85 ct 363 -87 355 -89 348 -91 ct 
341 -94 334 -97 328 -101 ct 322 -105 317 -110 314 -116 ct 310 -122 308 -129 308 -138 ct 
308 -155 314 -168 326 -177 ct 339 -186 356 -190 379 -190 ct 400 -190 416 -186 428 -179 ct 
441 -172 448 -160 451 -144 ct 424 -141 l  423 -146 421 -150 418 -153 ct 415 -156 412 -159 408 -161 ct 
404 -163 400 -164 395 -165 ct 390 -166 385 -167 379 -167 ct 365 -167 355 -164 348 -160 ct 
342 -156 338 -149 338 -141 ct 338 -136 340 -132 342 -128 ct 345 -125 348 -122 352 -120 ct 
357 -118 362 -116 368 -114 ct 375 -113 381 -111 389 -109 ct 394 -108 399 -106 404 -105 ct 
409 -103 414 -102 419 -100 ct 424 -98 429 -95 433 -93 ct 437 -90 441 -87 444 -83 ct 
447 -79 450 -75 452 -70 ct 454 -65 455 -59 455 -52 ct p ef
571 -1 m  567 0 562 1 557 2 ct 552 3 547 3 540 3 ct 515 3 503 -11 503 -39 ct 503 -164 l 
481 -164 l  481 -187 l  504 -187 l  513 -228 l  534 -228 l  534 -187 l 
568 -187 l  568 -164 l  534 -164 l  534 -46 l  534 -37 535 -31 538 -27 ct 
541 -23 546 -22 554 -22 ct 557 -22 559 -22 562 -22 ct 565 -23 568 -23 571 -24 ct 
571 -1 l  p ef
764 -94 m  764 -80 762 -67 760 -55 ct 758 -43 754 -33 749 -25 ct 743 -16 736 -9 727 -4 ct 
719 1 708 3 695 3 ct 682 3 670 0 660 -5 ct 650 -10 642 -18 637 -29 ct 636 -29 l 
636 -29 636 -28 636 -26 ct 636 -24 637 -22 637 -19 ct 637 -17 637 -14 637 -10 ct 
637 -7 637 -3 637 0 ct 637 73 l  606 73 l  606 -149 l  606 -153 606 -158 606 -162 ct 
606 -166 606 -170 605 -173 ct 605 -176 605 -179 605 -182 ct 605 -184 605 -186 605 -187 ct 
635 -187 l  635 -187 635 -185 635 -183 ct 635 -181 636 -179 636 -176 ct 636 -173 636 -170 636 -166 ct 
636 -163 636 -160 636 -157 ct 637 -157 l  640 -163 643 -168 647 -172 ct 651 -176 655 -180 660 -182 ct 
664 -185 670 -187 675 -188 ct 681 -189 688 -190 695 -190 ct 708 -190 719 -188 727 -183 ct 
736 -179 743 -172 749 -164 ct 754 -155 758 -145 760 -134 ct 762 -122 764 -109 764 -94 ct 
p
731 -94 m  731 -105 730 -115 729 -124 ct 727 -133 725 -141 722 -147 ct 718 -153 714 -158 708 -161 ct 
703 -164 695 -166 687 -166 ct 680 -166 674 -165 667 -163 ct 661 -161 656 -157 652 -152 ct 
647 -146 643 -139 641 -129 ct 638 -119 637 -107 637 -91 ct 637 -78 638 -67 640 -58 ct 
642 -49 645 -41 650 -36 ct 654 -30 659 -26 665 -24 ct 671 -21 679 -20 687 -20 ct 
695 -20 702 -22 708 -25 ct 714 -28 718 -33 722 -39 ct 725 -46 727 -53 729 -63 ct 
730 -72 731 -82 731 -94 ct p ef
791 0 m  791 -143 l  791 -147 791 -151 791 -155 ct 791 -159 791 -163 791 -167 ct 
791 -171 791 -174 791 -178 ct 791 -181 791 -184 790 -187 ct 820 -187 l  820 -184 820 -181 820 -178 ct 
820 -174 821 -171 821 -167 ct 821 -164 821 -160 821 -157 ct 821 -154 821 -151 821 -148 ct 
822 -148 l  824 -156 826 -162 829 -167 ct 831 -172 834 -177 838 -180 ct 841 -183 845 -186 849 -188 ct 
854 -189 860 -190 866 -190 ct 869 -190 871 -190 873 -189 ct 876 -189 877 -189 879 -188 ct 
879 -160 l  877 -160 874 -161 871 -161 ct 869 -161 866 -162 862 -162 ct 855 -162 849 -160 844 -157 ct 
839 -154 835 -149 832 -143 ct 829 -138 826 -131 825 -123 ct 823 -115 823 -107 823 -97 ct 
823 0 l  791 0 l  p ef
897 -226 m  897 -256 l  928 -256 l  928 -226 l  897 -226 l  p
897 0 m  897 -187 l  928 -187 l  928 0 l  897 0 l  p ef
1059 0 m  1022 0 l  954 -187 l  987 -187 l  1028 -65 l  1029 -63 1030 -60 1031 -56 ct 
1032 -52 1033 -49 1035 -45 ct 1036 -41 1037 -37 1038 -33 ct 1039 -30 1040 -27 1040 -24 ct 
1041 -27 1042 -30 1043 -33 ct 1044 -37 1045 -41 1046 -44 ct 1047 -48 1049 -52 1050 -56 ct 
1051 -59 1052 -62 1053 -65 ct 1095 -187 l  1128 -187 l  1059 0 l  p ef
1209 3 m  1191 3 1177 -2 1167 -12 ct 1158 -22 1153 -35 1153 -53 ct 1153 -65 1155 -75 1160 -83 ct 
1165 -91 1171 -97 1178 -102 ct 1186 -106 1194 -109 1204 -111 ct 1214 -113 1224 -114 1233 -114 ct 
1275 -114 l  1275 -124 l  1275 -132 1275 -138 1273 -144 ct 1271 -149 1269 -154 1266 -157 ct 
1262 -161 1258 -163 1253 -165 ct 1248 -166 1242 -167 1235 -167 ct 1229 -167 1224 -167 1219 -166 ct 
1214 -165 1210 -163 1207 -161 ct 1203 -159 1200 -156 1198 -152 ct 1196 -148 1194 -143 1194 -137 ct 
1161 -140 l  1162 -148 1165 -154 1168 -160 ct 1171 -167 1176 -172 1182 -176 ct 
1187 -181 1195 -184 1204 -187 ct 1213 -189 1223 -191 1236 -191 ct 1260 -191 1277 -185 1289 -175 ct 
1301 -164 1307 -148 1307 -128 ct 1307 -48 l  1307 -38 1308 -31 1310 -27 ct 1313 -22 1317 -20 1324 -20 ct 
1326 -20 1328 -20 1329 -20 ct 1331 -20 1333 -21 1334 -21 ct 1334 -2 l  1330 -1 1327 0 1323 0 ct 
1319 1 1315 1 1310 1 ct 1305 1 1299 0 1295 -1 ct 1291 -3 1288 -5 1285 -8 ct 1282 -11 1280 -15 1279 -20 ct 
1278 -25 1277 -30 1276 -36 ct 1275 -36 l  1272 -30 1268 -25 1264 -20 ct 1260 -15 1256 -11 1251 -8 ct 
1245 -4 1239 -2 1233 0 ct 1226 2 1218 3 1209 3 ct p
1216 -20 m  1226 -20 1235 -22 1242 -26 ct 1250 -29 1256 -34 1261 -39 ct 1266 -45 1269 -51 1272 -58 ct 
1274 -64 1275 -71 1275 -77 ct 1275 -92 l  1241 -92 l  1234 -92 1227 -92 1220 -91 ct 
1213 -90 1207 -88 1202 -85 ct 1197 -82 1193 -78 1189 -73 ct 1186 -67 1185 -61 1185 -52 ct 
1185 -42 1188 -34 1193 -29 ct 1199 -23 1206 -20 1216 -20 ct p ef
1418 -1 m  1414 0 1409 1 1404 2 ct 1399 3 1394 3 1387 3 ct 1362 3 1350 -11 1350 -39 ct 
1350 -164 l  1328 -164 l  1328 -187 l  1351 -187 l  1360 -228 l  1381 -228 l 
1381 -187 l  1415 -187 l  1415 -164 l  1381 -164 l  1381 -46 l  1381 -37 1382 -31 1385 -27 ct 
1388 -23 1393 -22 1401 -22 ct 1404 -22 1406 -22 1409 -22 ct 1412 -23 1415 -23 1418 -24 ct 
1418 -1 l  p ef
1477 -87 m  1477 -77 1478 -68 1480 -60 ct 1482 -52 1485 -45 1489 -39 ct 1493 -33 1498 -28 1505 -25 ct 
1512 -22 1519 -20 1529 -20 ct 1542 -20 1553 -23 1561 -28 ct 1569 -34 1575 -41 1577 -49 ct 
1605 -41 l  1603 -36 1600 -31 1596 -26 ct 1593 -20 1588 -16 1582 -11 ct 1577 -7 1569 -4 1560 -1 ct 
1552 2 1541 3 1529 3 ct 1501 3 1480 -5 1466 -22 ct 1451 -38 1444 -62 1444 -95 ct 
1444 -112 1446 -127 1451 -139 ct 1455 -151 1461 -161 1468 -169 ct 1476 -176 1485 -182 1495 -185 ct 
1505 -188 1516 -190 1527 -190 ct 1543 -190 1556 -187 1567 -182 ct 1577 -177 1586 -170 1592 -162 ct 
1598 -153 1603 -142 1606 -130 ct 1608 -118 1610 -105 1610 -91 ct 1610 -87 l 
1477 -87 l  p
1578 -111 m  1576 -130 1571 -145 1563 -154 ct 1554 -163 1542 -167 1527 -167 ct 
1522 -167 1516 -166 1511 -165 ct 1505 -163 1500 -160 1495 -156 ct 1490 -152 1486 -146 1483 -139 ct 
1479 -131 1477 -122 1477 -111 ct 1578 -111 l  p ef
1636 -92 m  1636 -108 1637 -123 1640 -138 ct 1642 -152 1646 -166 1651 -180 ct 
1656 -193 1663 -206 1671 -219 ct 1679 -232 1688 -244 1700 -256 ct 1729 -256 l 
1719 -244 1709 -232 1701 -219 ct 1694 -206 1687 -193 1682 -180 ct 1677 -166 1673 -152 1671 -137 ct 
1668 -123 1667 -107 1667 -91 ct 1667 -76 1668 -60 1671 -46 ct 1673 -31 1677 -17 1682 -3 ct 
1687 10 1694 23 1701 36 ct 1709 49 1719 61 1729 73 ct 1700 73 l  1688 61 1679 49 1671 36 ct 
1663 23 1656 10 1651 -3 ct 1646 -17 1642 -31 1640 -45 ct 1637 -60 1636 -75 1636 -91 ct 
1636 -92 l  p ef
1884 -52 m  1884 -43 1882 -36 1879 -29 ct 1875 -22 1870 -16 1864 -11 ct 1857 -7 1850 -3 1840 -1 ct 
1831 2 1820 3 1808 3 ct 1797 3 1788 2 1779 1 ct 1770 -1 1763 -4 1756 -8 ct 1749 -11 1744 -16 1740 -22 ct 
1735 -28 1732 -36 1730 -44 ct 1757 -50 l  1760 -40 1765 -32 1774 -28 ct 1782 -23 1793 -21 1808 -21 ct 
1815 -21 1821 -21 1826 -22 ct 1832 -23 1837 -25 1841 -27 ct 1845 -29 1848 -32 1850 -36 ct 
1852 -39 1854 -44 1854 -50 ct 1854 -55 1852 -60 1850 -63 ct 1847 -67 1843 -70 1839 -73 ct 
1834 -75 1828 -77 1821 -79 ct 1815 -81 1807 -83 1799 -85 ct 1792 -87 1784 -89 1777 -91 ct 
1770 -94 1763 -97 1757 -101 ct 1751 -105 1746 -110 1743 -116 ct 1739 -122 1737 -129 1737 -138 ct 
1737 -155 1743 -168 1755 -177 ct 1768 -186 1785 -190 1808 -190 ct 1829 -190 1845 -186 1857 -179 ct 
1870 -172 1877 -160 1880 -144 ct 1853 -141 l  1852 -146 1850 -150 1847 -153 ct 
1844 -156 1841 -159 1837 -161 ct 1833 -163 1829 -164 1824 -165 ct 1819 -166 1814 -167 1808 -167 ct 
1794 -167 1784 -164 1777 -160 ct 1771 -156 1767 -149 1767 -141 ct 1767 -136 1769 -132 1771 -128 ct 
1774 -125 1777 -122 1781 -120 ct 1786 -118 1791 -116 1797 -114 ct 1804 -113 1810 -111 1818 -109 ct 
1823 -108 1828 -106 1833 -105 ct 1838 -103 1843 -102 1848 -100 ct 1853 -98 1858 -95 1862 -93 ct 
1866 -90 1870 -87 1873 -83 ct 1876 -79 1879 -75 1881 -70 ct 1883 -65 1884 -59 1884 -52 ct 
p ef
1929 -226 m  1929 -256 l  1960 -256 l  1960 -226 l  1929 -226 l  p
1929 0 m  1929 -187 l  1960 -187 l  1960 0 l  1929 0 l  p ef
1992 0 m  1992 -24 l  2106 -163 l  1999 -163 l  1999 -187 l  2141 -187 l 
2141 -163 l  2027 -24 l  2148 -24 l  2148 0 l  1992 0 l  p ef
2218 -87 m  2218 -77 2219 -68 2221 -60 ct 2223 -52 2226 -45 2230 -39 ct 2234 -33 2239 -28 2246 -25 ct 
2253 -22 2260 -20 2270 -20 ct 2283 -20 2294 -23 2302 -28 ct 2310 -34 2316 -41 2318 -49 ct 
2346 -41 l  2344 -36 2341 -31 2337 -26 ct 2334 -20 2329 -16 2323 -11 ct 2318 -7 2310 -4 2301 -1 ct 
2293 2 2282 3 2270 3 ct 2242 3 2221 -5 2207 -22 ct 2192 -38 2185 -62 2185 -95 ct 
2185 -112 2187 -127 2192 -139 ct 2196 -151 2202 -161 2209 -169 ct 2217 -176 2226 -182 2236 -185 ct 
2246 -188 2257 -190 2268 -190 ct 2284 -190 2297 -187 2308 -182 ct 2318 -177 2327 -170 2333 -162 ct 
2339 -153 2344 -142 2347 -130 ct 2349 -118 2351 -105 2351 -91 ct 2351 -87 l 
2218 -87 l  p
2319 -111 m  2317 -130 2312 -145 2304 -154 ct 2295 -163 2283 -167 2268 -167 ct 
2263 -167 2257 -166 2252 -165 ct 2246 -163 2241 -160 2236 -156 ct 2231 -152 2227 -146 2224 -139 ct 
2220 -131 2218 -122 2218 -111 ct 2319 -111 l  p ef
2451 -91 m  2451 -75 2449 -60 2447 -45 ct 2445 -31 2441 -17 2436 -3 ct 2430 10 2424 23 2416 36 ct 
2408 49 2398 61 2387 73 ct 2357 73 l  2368 61 2377 49 2385 36 ct 2393 23 2399 10 2404 -3 ct 
2410 -17 2413 -31 2416 -46 ct 2418 -60 2419 -76 2419 -91 ct 2419 -107 2418 -123 2416 -137 ct 
2413 -152 2410 -166 2404 -180 ct 2399 -193 2393 -206 2385 -219 ct 2377 -232 2368 -244 2357 -256 ct 
2387 -256 l  2398 -244 2408 -232 2416 -219 ct 2424 -206 2430 -193 2436 -180 ct 
2441 -166 2445 -152 2447 -138 ct 2449 -123 2451 -108 2451 -92 ct 2451 -91 l 
p ef
pom
0 9000 t 
pom
count op_count sub {pop} repeat countdictstack dict_count sub {end} repeat b4_inc_state restore
%%PageTrailer
%%Trailer
%%EOF
