%!PS-Adobe-3.0 EPSF-3.0 
%%BoundingBox: 0 0 454 255
%%Pages: 0
%%Creator: LibreOffice 4.2
%%Title: none
%%CreationDate: none
%%LanguageLevel: 2
%%EndComments
%%BeginProlog
%%BeginResource: procset SDRes-Prolog 1.0 0
/b4_inc_state save def
/dict_count countdictstack def
/op_count count 1 sub def
userdict begin
0 setgray 0 setlinecap 1 setlinewidth 0 setlinejoin 10 setmiterlimit[] 0 setdash newpath
/languagelevel where {pop languagelevel 1 ne {false setstrokeadjust false setoverprint} if} if
/bdef {bind def} bind def
/c {setrgbcolor} bdef
/l {neg lineto} bdef
/rl {neg rlineto} bdef
/lc {setlinecap} bdef
/lj {setlinejoin} bdef
/lw {setlinewidth} bdef
/ml {setmiterlimit} bdef
/ld {setdash} bdef
/m {neg moveto} bdef
/ct {6 2 roll neg 6 2 roll neg 6 2 roll neg curveto} bdef
/r {rotate} bdef
/t {neg translate} bdef
/s {scale} bdef
/sw {show} bdef
/gs {gsave} bdef
/gr {grestore} bdef
/f {findfont dup length dict begin
{1 index /FID ne {def} {pop pop} ifelse} forall /Encoding ISOLatin1Encoding def
currentdict end /NFont exch definefont pop /NFont findfont} bdef
/p {closepath} bdef
/sf {scalefont setfont} bdef
/ef {eofill}bdef
/pc {closepath stroke}bdef
/ps {stroke}bdef
/pum {matrix currentmatrix}bdef
/pom {setmatrix}bdef
/bs {/aString exch def /nXOfs exch def /nWidth exch def currentpoint nXOfs 0 rmoveto pum nWidth aString stringwidth pop div 1 scale aString show pom moveto} bdef
%%EndResource
%%EndProlog
%%BeginSetup
%%EndSetup
%%Page: 1 1
%%BeginPageSetup
%%EndPageSetup
pum
0.02837 0.02833 s 
0 -9000 t
/tm matrix currentmatrix def
tm setmatrix
-12587 -4775 t 
1 1 s 
1.000 1.000 1.000 c 20587 13774 m  12587 13774 l  12587 4775 l  28586 4775 l 
28586 13774 l  20587 13774 l  p ef
0 lw 1 lj 0.703 0.703 0.703 c 19060 12947 m  13899 12947 l  13899 5155 l 
24221 5155 l  24221 12947 l  19060 12947 l  pc
24221 12946 m  13899 12946 l  ps
24221 11971 m  13899 11971 l  ps
24221 10997 m  13899 10997 l  ps
24221 10023 m  13899 10023 l  ps
24221 9050 m  13899 9050 l  ps
24221 8076 m  13899 8076 l  ps
24221 7102 m  13899 7102 l  ps
24221 6128 m  13899 6128 l  ps
24221 5154 m  13899 5154 l  ps
13899 13096 m  13899 12946 l  ps
13899 13096 m  13899 12946 l  ps
14636 13096 m  14636 12946 l  ps
14636 13096 m  14636 12946 l  ps
15373 13096 m  15373 12946 l  ps
15373 13096 m  15373 12946 l  ps
16111 13096 m  16111 12946 l  ps
16111 13096 m  16111 12946 l  ps
16848 13096 m  16848 12946 l  ps
16848 13096 m  16848 12946 l  ps
17585 13096 m  17585 12946 l  ps
17585 13096 m  17585 12946 l  ps
18323 13096 m  18323 12946 l  ps
18323 13096 m  18323 12946 l  ps
19060 13096 m  19060 12946 l  ps
19060 13096 m  19060 12946 l  ps
19797 13096 m  19797 12946 l  ps
19797 13096 m  19797 12946 l  ps
20535 13096 m  20535 12946 l  ps
20535 13096 m  20535 12946 l  ps
21271 13096 m  21271 12946 l  ps
21271 13096 m  21271 12946 l  ps
22008 13096 m  22008 12946 l  ps
22008 13096 m  22008 12946 l  ps
22746 13096 m  22746 12946 l  ps
22746 13096 m  22746 12946 l  ps
23483 13096 m  23483 12946 l  ps
23483 13096 m  23483 12946 l  ps
24221 13096 m  24221 12946 l  ps
24221 13096 m  24221 12946 l  ps
13899 12946 m  24221 12946 l  ps
13749 12946 m  13899 12946 l  ps
13749 12946 m  13899 12946 l  ps
13749 11971 m  13899 11971 l  ps
13749 11971 m  13899 11971 l  ps
13749 10997 m  13899 10997 l  ps
13749 10997 m  13899 10997 l  ps
13749 10023 m  13899 10023 l  ps
13749 10023 m  13899 10023 l  ps
13749 9050 m  13899 9050 l  ps
13749 9050 m  13899 9050 l  ps
13749 8076 m  13899 8076 l  ps
13749 8076 m  13899 8076 l  ps
13749 7102 m  13899 7102 l  ps
13749 7102 m  13899 7102 l  ps
13749 6128 m  13899 6128 l  ps
13749 6128 m  13899 6128 l  ps
13749 5154 m  13899 5154 l  ps
13749 5154 m  13899 5154 l  ps
13899 12946 m  13899 5154 l  ps
79.995 lw 0.003 0.273 0.527 c 13899 6322 m  14636 9681 l  15373 10759 l 
16111 11178 l  16848 11356 l  17585 11404 l  18323 11449 l  19060 11482 l 
19797 11481 l  20535 11482 l  21271 11484 l  22008 11478 l  22746 11478 l 
23483 11463 l  24221 11480 l  ps
13774 6197 m  13774 6447 l  14024 6447 l  14024 6197 l  13774 6197 l  p ef
0 lw 13774 6197 m  13774 6447 l  14024 6447 l  14024 6197 l  13774 6197 l 
pc
14511 9556 m  14511 9806 l  14761 9806 l  14761 9556 l  14511 9556 l  p ef
14511 9556 m  14511 9806 l  14761 9806 l  14761 9556 l  14511 9556 l  pc
15248 10634 m  15248 10884 l  15498 10884 l  15498 10634 l  15248 10634 l 
p ef
15248 10634 m  15248 10884 l  15498 10884 l  15498 10634 l  15248 10634 l 
pc
15986 11053 m  15986 11303 l  16236 11303 l  16236 11053 l  15986 11053 l 
p ef
15986 11053 m  15986 11303 l  16236 11303 l  16236 11053 l  15986 11053 l 
pc
16723 11231 m  16723 11481 l  16973 11481 l  16973 11231 l  16723 11231 l 
p ef
16723 11231 m  16723 11481 l  16973 11481 l  16973 11231 l  16723 11231 l 
pc
17460 11279 m  17460 11529 l  17710 11529 l  17710 11279 l  17460 11279 l 
p ef
17460 11279 m  17460 11529 l  17710 11529 l  17710 11279 l  17460 11279 l 
pc
18198 11324 m  18198 11574 l  18448 11574 l  18448 11324 l  18198 11324 l 
p ef
18198 11324 m  18198 11574 l  18448 11574 l  18448 11324 l  18198 11324 l 
pc
18935 11357 m  18935 11607 l  19185 11607 l  19185 11357 l  18935 11357 l 
p ef
18935 11357 m  18935 11607 l  19185 11607 l  19185 11357 l  18935 11357 l 
pc
19672 11356 m  19672 11606 l  19922 11606 l  19922 11356 l  19672 11356 l 
p ef
19672 11356 m  19672 11606 l  19922 11606 l  19922 11356 l  19672 11356 l 
pc
20410 11357 m  20410 11607 l  20659 11607 l  20659 11357 l  20410 11357 l 
p ef
20410 11357 m  20410 11607 l  20659 11607 l  20659 11357 l  20410 11357 l 
pc
21146 11359 m  21146 11609 l  21396 11609 l  21396 11359 l  21146 11359 l 
p ef
21146 11359 m  21146 11609 l  21396 11609 l  21396 11359 l  21146 11359 l 
pc
21883 11353 m  21883 11603 l  22133 11603 l  22133 11353 l  21883 11353 l 
p ef
21883 11353 m  21883 11603 l  22133 11603 l  22133 11353 l  21883 11353 l 
pc
22621 11353 m  22621 11603 l  22871 11603 l  22871 11353 l  22621 11353 l 
p ef
22621 11353 m  22621 11603 l  22871 11603 l  22871 11353 l  22621 11353 l 
pc
23358 11338 m  23358 11588 l  23608 11588 l  23608 11338 l  23358 11338 l 
p ef
23358 11338 m  23358 11588 l  23608 11588 l  23608 11338 l  23358 11338 l 
pc
24096 11355 m  24096 11605 l  24346 11605 l  24346 11355 l  24096 11355 l 
p ef
24096 11355 m  24096 11605 l  24346 11605 l  24346 11355 l  24096 11355 l 
pc
pum
13806 13514 t
0.003 0.003 0.003 c 27 0 m  27 -26 l  89 -26 l  89 -213 l  34 -174 l  34 -204 l 
91 -243 l  120 -243 l  120 -26 l  179 -26 l  179 0 l  27 0 l  p ef
pom
pum
14543 13514 t
18 0 m  18 -22 l  24 -35 31 -47 39 -58 ct 48 -68 57 -77 66 -85 ct 75 -94 84 -101 94 -109 ct 
103 -116 111 -123 118 -130 ct 126 -137 132 -145 136 -152 ct 141 -160 143 -169 143 -179 ct 
143 -186 142 -192 140 -197 ct 138 -202 135 -207 131 -210 ct 127 -214 122 -217 117 -218 ct 
111 -220 105 -221 99 -221 ct 92 -221 87 -220 81 -218 ct 76 -217 71 -214 67 -211 ct 
62 -207 59 -203 56 -198 ct 53 -193 52 -187 51 -180 ct 19 -183 l  20 -192 23 -200 26 -208 ct 
30 -215 35 -222 42 -228 ct 49 -234 57 -238 66 -242 ct 75 -245 86 -247 99 -247 ct 
111 -247 121 -245 131 -242 ct 140 -239 148 -235 155 -229 ct 161 -224 166 -217 170 -209 ct 
173 -200 175 -191 175 -180 ct 175 -172 173 -164 170 -157 ct 167 -149 164 -142 159 -136 ct 
154 -129 148 -123 142 -116 ct 135 -110 129 -104 122 -98 ct 115 -92 107 -86 100 -81 ct 
93 -75 87 -69 80 -63 ct 74 -57 68 -51 63 -45 ct 58 -39 55 -33 52 -26 ct 179 -26 l 
179 0 l  18 0 l  p ef
pom
pum
15280 13514 t
181 -68 m  181 -57 179 -47 175 -38 ct 172 -29 166 -22 160 -16 ct 153 -10 144 -5 134 -2 ct 
123 1 112 3 98 3 ct 83 3 71 1 60 -3 ct 50 -6 42 -11 35 -17 ct 28 -24 23 -31 20 -39 ct 
17 -46 14 -55 13 -63 ct 46 -66 l  46 -60 48 -54 51 -48 ct 53 -43 56 -38 61 -35 ct 
65 -31 70 -28 76 -26 ct 83 -24 90 -23 98 -23 ct 114 -23 126 -27 135 -34 ct 144 -42 149 -54 149 -69 ct 
149 -78 147 -85 143 -90 ct 139 -96 134 -100 128 -103 ct 122 -106 115 -108 109 -109 ct 
102 -110 95 -111 89 -111 ct 72 -111 l  72 -138 l  89 -138 l  94 -138 101 -139 107 -140 ct 
113 -141 119 -143 124 -146 ct 129 -149 134 -154 137 -159 ct 141 -164 142 -171 142 -180 ct 
142 -193 138 -203 131 -210 ct 123 -218 112 -221 97 -221 ct 83 -221 72 -218 64 -211 ct 
55 -204 50 -194 49 -182 ct 18 -184 l  19 -195 22 -204 26 -212 ct 31 -220 37 -226 44 -231 ct 
51 -237 59 -241 68 -243 ct 77 -246 87 -247 97 -247 ct 111 -247 122 -245 132 -242 ct 
142 -239 150 -234 156 -228 ct 162 -222 167 -216 170 -208 ct 173 -200 174 -192 174 -183 ct 
174 -176 173 -169 171 -163 ct 169 -157 166 -151 162 -146 ct 158 -141 153 -137 146 -134 ct 
140 -130 132 -127 123 -125 ct 123 -125 l  133 -124 142 -122 149 -118 ct 156 -115 162 -111 167 -105 ct 
171 -100 175 -95 177 -88 ct 180 -82 181 -75 181 -68 ct p ef
pom
pum
16018 13514 t
152 -55 m  152 0 l  123 0 l  123 -55 l  8 -55 l  8 -79 l  119 -243 l  152 -243 l 
152 -79 l  186 -79 l  186 -55 l  152 -55 l  p
123 -208 m  122 -207 122 -206 121 -205 ct 120 -203 119 -201 118 -199 ct 117 -197 115 -195 114 -193 ct 
113 -191 112 -189 111 -187 ct 49 -96 l  48 -95 47 -94 46 -92 ct 45 -91 44 -89 43 -88 ct 
42 -86 41 -84 39 -83 ct 38 -81 37 -80 37 -79 ct 123 -79 l  123 -208 l  p ef
pom
pum
16755 13514 t
182 -80 m  182 -67 180 -56 176 -46 ct 172 -36 167 -27 160 -20 ct 152 -13 143 -7 133 -3 ct 
122 1 109 3 95 3 ct 83 3 71 1 62 -1 ct 52 -4 44 -9 38 -14 ct 31 -19 26 -25 22 -32 ct 
18 -39 16 -47 14 -55 ct 46 -58 l  47 -54 49 -49 51 -45 ct 53 -41 56 -37 60 -33 ct 
64 -30 69 -27 75 -25 ct 81 -23 88 -22 96 -22 ct 104 -22 111 -24 118 -26 ct 124 -29 130 -32 135 -37 ct 
139 -42 143 -48 145 -55 ct 148 -62 149 -70 149 -79 ct 149 -86 148 -93 146 -99 ct 
143 -106 140 -111 135 -116 ct 131 -120 125 -124 119 -126 ct 112 -129 105 -130 97 -130 ct 
92 -130 87 -130 82 -129 ct 78 -128 74 -126 70 -125 ct 67 -123 63 -121 60 -119 ct 
57 -117 54 -115 52 -113 ct 21 -113 l  29 -243 l  167 -243 l  167 -217 l  58 -217 l 
53 -140 l  58 -144 65 -148 74 -151 ct 82 -154 92 -155 103 -155 ct 115 -155 126 -154 136 -150 ct 
145 -146 154 -141 160 -134 ct 167 -128 172 -120 176 -110 ct 180 -101 182 -91 182 -80 ct 
p ef
pom
pum
17492 13514 t
181 -80 m  181 -68 179 -57 176 -47 ct 172 -36 167 -28 161 -20 ct 154 -13 146 -7 136 -3 ct 
126 1 115 3 102 3 ct 88 3 76 0 65 -5 ct 55 -11 46 -18 39 -28 ct 32 -39 27 -51 23 -66 ct 
20 -81 18 -97 18 -116 ct 18 -138 20 -157 24 -173 ct 28 -190 34 -203 41 -214 ct 
48 -225 58 -233 68 -239 ct 79 -244 91 -247 105 -247 ct 113 -247 121 -246 128 -244 ct 
135 -243 142 -240 148 -236 ct 154 -232 159 -227 163 -221 ct 168 -215 171 -207 174 -198 ct 
144 -192 l  141 -203 136 -210 129 -215 ct 122 -220 114 -222 104 -222 ct 96 -222 88 -220 81 -216 ct 
74 -212 69 -206 64 -198 ct 59 -190 55 -180 53 -168 ct 50 -156 49 -142 49 -126 ct 
54 -136 62 -144 73 -150 ct 83 -155 95 -158 108 -158 ct 119 -158 129 -156 138 -153 ct 
147 -149 154 -144 161 -137 ct 167 -130 172 -122 176 -113 ct 179 -103 181 -92 181 -80 ct 
p
149 -79 m  149 -87 148 -95 146 -102 ct 144 -108 141 -114 137 -119 ct 133 -124 128 -128 122 -130 ct 
115 -133 108 -134 100 -134 ct 95 -134 89 -133 83 -131 ct 78 -130 72 -127 68 -123 ct 
63 -120 59 -115 56 -109 ct 53 -102 52 -95 52 -86 ct 52 -77 53 -69 55 -61 ct 58 -53 61 -46 65 -41 ct 
70 -35 75 -30 81 -27 ct 87 -24 94 -22 101 -22 ct 109 -22 116 -23 121 -26 ct 127 -29 132 -32 137 -37 ct 
141 -42 144 -48 146 -55 ct 148 -62 149 -70 149 -79 ct p ef
pom
pum
18230 13514 t
179 -218 m  166 -200 155 -182 145 -165 ct 135 -147 126 -130 119 -113 ct 111 -95 106 -77 101 -59 ct 
97 -41 95 -21 95 -1 ct 63 -1 l  63 -20 65 -39 70 -58 ct 74 -76 81 -95 88 -113 ct 
96 -131 105 -148 116 -166 ct 126 -183 137 -200 149 -217 ct 18 -217 l  18 -243 l 
179 -243 l  179 -218 l  p ef
pom
pum
18967 13514 t
181 -68 m  181 -58 179 -48 176 -40 ct 173 -31 168 -24 161 -17 ct 154 -11 146 -6 135 -2 ct 
125 1 113 3 98 3 ct 84 3 72 1 61 -2 ct 51 -6 42 -11 35 -17 ct 29 -23 24 -31 20 -40 ct 
17 -48 15 -58 15 -68 ct 15 -77 17 -85 19 -92 ct 22 -98 26 -104 30 -109 ct 35 -114 40 -118 46 -121 ct 
52 -125 58 -127 64 -128 ct 64 -128 l  57 -130 51 -132 46 -136 ct 40 -140 36 -144 32 -149 ct 
29 -154 26 -159 24 -166 ct 22 -172 21 -178 21 -185 ct 21 -193 23 -201 26 -209 ct 
29 -216 34 -223 41 -229 ct 47 -234 55 -239 64 -242 ct 74 -245 85 -247 98 -247 ct 
111 -247 122 -245 132 -242 ct 142 -239 150 -234 156 -228 ct 162 -223 167 -216 170 -209 ct 
173 -201 175 -193 175 -184 ct 175 -178 174 -171 172 -165 ct 170 -159 167 -154 164 -149 ct 
160 -144 156 -139 150 -136 ct 145 -132 139 -130 132 -129 ct 132 -128 l  139 -127 145 -125 151 -122 ct 
157 -119 162 -115 167 -110 ct 171 -105 175 -99 177 -92 ct 180 -85 181 -77 181 -68 ct 
p
143 -183 m  143 -189 142 -194 140 -199 ct 139 -204 136 -209 133 -212 ct 129 -216 125 -219 119 -221 ct 
113 -223 106 -224 98 -224 ct 89 -224 83 -223 77 -221 ct 71 -219 67 -216 63 -212 ct 
59 -209 57 -204 55 -199 ct 54 -194 53 -189 53 -183 ct 53 -178 53 -173 55 -168 ct 
56 -163 58 -158 62 -154 ct 65 -150 69 -147 75 -144 ct 81 -141 89 -140 98 -140 ct 
108 -140 116 -141 121 -144 ct 127 -147 132 -150 135 -154 ct 138 -158 140 -163 141 -168 ct 
142 -173 143 -178 143 -183 ct p
149 -71 m  149 -77 148 -83 146 -88 ct 145 -94 142 -98 138 -103 ct 134 -107 129 -110 122 -113 ct 
116 -115 107 -117 98 -117 ct 88 -117 81 -115 74 -113 ct 68 -110 63 -107 59 -103 ct 
55 -98 52 -93 50 -88 ct 48 -82 47 -76 47 -70 ct 47 -63 48 -56 50 -50 ct 52 -44 55 -39 59 -34 ct 
63 -30 68 -26 75 -24 ct 81 -21 89 -20 99 -20 ct 108 -20 116 -21 122 -24 ct 129 -26 134 -30 138 -34 ct 
142 -39 145 -44 146 -50 ct 148 -56 149 -63 149 -71 ct p ef
pom
pum
19704 13514 t
180 -127 m  180 -105 178 -86 173 -70 ct 169 -54 164 -40 156 -29 ct 148 -19 139 -11 128 -5 ct 
117 0 105 3 92 3 ct 82 3 74 2 67 0 ct 59 -2 52 -5 47 -9 ct 41 -13 36 -18 32 -24 ct 
27 -31 24 -39 22 -48 ct 51 -52 l  54 -42 59 -34 66 -29 ct 73 -24 82 -22 92 -22 ct 
101 -22 108 -24 115 -28 ct 122 -32 128 -38 133 -46 ct 138 -54 142 -64 144 -76 ct 
147 -88 149 -102 149 -118 ct 147 -112 143 -108 139 -103 ct 135 -99 130 -95 125 -93 ct 
119 -90 114 -87 107 -86 ct 101 -84 95 -84 89 -84 ct 78 -84 68 -86 59 -89 ct 50 -93 42 -99 36 -106 ct 
30 -113 25 -122 22 -132 ct 18 -142 17 -153 17 -165 ct 17 -178 18 -189 22 -199 ct 
26 -209 31 -218 38 -225 ct 45 -232 53 -238 63 -241 ct 73 -245 85 -247 97 -247 ct 
124 -247 145 -237 159 -217 ct 173 -197 180 -167 180 -127 ct p
146 -157 m  146 -166 145 -174 143 -182 ct 141 -190 137 -197 133 -203 ct 129 -209 124 -213 118 -217 ct 
112 -220 104 -222 96 -222 ct 89 -222 82 -221 76 -218 ct 70 -215 65 -211 61 -207 ct 
57 -202 54 -196 51 -189 ct 49 -182 48 -174 48 -165 ct 48 -157 49 -150 51 -143 ct 
53 -136 56 -130 60 -124 ct 64 -119 69 -115 75 -112 ct 81 -109 88 -108 96 -108 ct 
102 -108 108 -109 114 -111 ct 119 -113 125 -116 130 -120 ct 134 -124 138 -129 141 -135 ct 
144 -141 146 -149 146 -157 ct p ef
pom
pum
20350 13514 t
27 0 m  27 -26 l  89 -26 l  89 -213 l  34 -174 l  34 -204 l  91 -243 l 
120 -243 l  120 -26 l  179 -26 l  179 0 l  27 0 l  p ef
368 -122 m  368 -99 365 -79 361 -63 ct 356 -47 350 -34 343 -25 ct 335 -15 326 -8 316 -3 ct 
305 1 294 3 283 3 ct 271 3 260 1 250 -3 ct 239 -8 231 -15 223 -24 ct 215 -34 210 -47 205 -63 ct 
201 -79 199 -99 199 -122 ct 199 -146 201 -167 205 -183 ct 210 -199 216 -212 223 -221 ct 
231 -231 240 -237 250 -241 ct 260 -245 272 -247 284 -247 ct 295 -247 306 -245 316 -241 ct 
327 -237 335 -231 343 -221 ct 351 -212 357 -199 361 -183 ct 365 -167 368 -146 368 -122 ct 
p
336 -122 m  336 -141 335 -157 333 -170 ct 330 -183 327 -193 322 -201 ct 318 -209 312 -214 306 -217 ct 
299 -220 292 -222 284 -222 ct 275 -222 267 -220 261 -217 ct 254 -214 248 -208 244 -201 ct 
239 -193 236 -183 234 -170 ct 231 -157 230 -141 230 -122 ct 230 -103 231 -88 234 -75 ct 
236 -62 239 -52 244 -44 ct 249 -36 254 -31 261 -27 ct 267 -24 275 -22 283 -22 ct 
291 -22 299 -24 305 -27 ct 312 -31 317 -36 322 -44 ct 326 -52 330 -62 332 -75 ct 
335 -88 336 -103 336 -122 ct p ef
pom
pum
21087 13514 t
27 0 m  27 -26 l  89 -26 l  89 -213 l  34 -174 l  34 -204 l  91 -243 l 
120 -243 l  120 -26 l  179 -26 l  179 0 l  27 0 l  p ef
212 0 m  212 -26 l  274 -26 l  274 -213 l  219 -174 l  219 -204 l  276 -243 l 
305 -243 l  305 -26 l  364 -26 l  364 0 l  212 0 l  p ef
pom
pum
21824 13514 t
27 0 m  27 -26 l  89 -26 l  89 -213 l  34 -174 l  34 -204 l  91 -243 l 
120 -243 l  120 -26 l  179 -26 l  179 0 l  27 0 l  p ef
203 0 m  203 -22 l  209 -35 216 -47 224 -58 ct 233 -68 242 -77 251 -85 ct 260 -94 269 -101 279 -109 ct 
288 -116 296 -123 303 -130 ct 311 -137 317 -145 321 -152 ct 326 -160 328 -169 328 -179 ct 
328 -186 327 -192 325 -197 ct 323 -202 320 -207 316 -210 ct 312 -214 307 -217 302 -218 ct 
296 -220 290 -221 284 -221 ct 277 -221 272 -220 266 -218 ct 261 -217 256 -214 252 -211 ct 
247 -207 244 -203 241 -198 ct 238 -193 237 -187 236 -180 ct 204 -183 l  205 -192 208 -200 211 -208 ct 
215 -215 220 -222 227 -228 ct 234 -234 242 -238 251 -242 ct 260 -245 271 -247 284 -247 ct 
296 -247 306 -245 316 -242 ct 325 -239 333 -235 340 -229 ct 346 -224 351 -217 355 -209 ct 
358 -200 360 -191 360 -180 ct 360 -172 358 -164 355 -157 ct 352 -149 349 -142 344 -136 ct 
339 -129 333 -123 327 -116 ct 320 -110 314 -104 307 -98 ct 300 -92 292 -86 285 -81 ct 
278 -75 272 -69 265 -63 ct 259 -57 253 -51 248 -45 ct 243 -39 240 -33 237 -26 ct 
364 -26 l  364 0 l  203 0 l  p ef
pom
pum
22562 13514 t
27 0 m  27 -26 l  89 -26 l  89 -213 l  34 -174 l  34 -204 l  91 -243 l 
120 -243 l  120 -26 l  179 -26 l  179 0 l  27 0 l  p ef
366 -68 m  366 -57 364 -47 360 -38 ct 357 -29 351 -22 345 -16 ct 338 -10 329 -5 319 -2 ct 
308 1 297 3 283 3 ct 268 3 256 1 245 -3 ct 235 -6 227 -11 220 -17 ct 213 -24 208 -31 205 -39 ct 
202 -46 199 -55 198 -63 ct 231 -66 l  231 -60 233 -54 236 -48 ct 238 -43 241 -38 246 -35 ct 
250 -31 255 -28 261 -26 ct 268 -24 275 -23 283 -23 ct 299 -23 311 -27 320 -34 ct 
329 -42 334 -54 334 -69 ct 334 -78 332 -85 328 -90 ct 324 -96 319 -100 313 -103 ct 
307 -106 300 -108 294 -109 ct 287 -110 280 -111 274 -111 ct 257 -111 l  257 -138 l 
274 -138 l  279 -138 286 -139 292 -140 ct 298 -141 304 -143 309 -146 ct 314 -149 319 -154 322 -159 ct 
326 -164 327 -171 327 -180 ct 327 -193 323 -203 316 -210 ct 308 -218 297 -221 282 -221 ct 
268 -221 257 -218 249 -211 ct 240 -204 235 -194 234 -182 ct 203 -184 l  204 -195 207 -204 211 -212 ct 
216 -220 222 -226 229 -231 ct 236 -237 244 -241 253 -243 ct 262 -246 272 -247 282 -247 ct 
296 -247 307 -245 317 -242 ct 327 -239 335 -234 341 -228 ct 347 -222 352 -216 355 -208 ct 
358 -200 359 -192 359 -183 ct 359 -176 358 -169 356 -163 ct 354 -157 351 -151 347 -146 ct 
343 -141 338 -137 331 -134 ct 325 -130 317 -127 308 -125 ct 308 -125 l  318 -124 327 -122 334 -118 ct 
341 -115 347 -111 352 -105 ct 356 -100 360 -95 362 -88 ct 365 -82 366 -75 366 -68 ct 
p ef
pom
pum
23299 13514 t
27 0 m  27 -26 l  89 -26 l  89 -213 l  34 -174 l  34 -204 l  91 -243 l 
120 -243 l  120 -26 l  179 -26 l  179 0 l  27 0 l  p ef
337 -55 m  337 0 l  308 0 l  308 -55 l  193 -55 l  193 -79 l  304 -243 l 
337 -243 l  337 -79 l  371 -79 l  371 -55 l  337 -55 l  p
308 -208 m  307 -207 307 -206 306 -205 ct 305 -203 304 -201 303 -199 ct 302 -197 300 -195 299 -193 ct 
298 -191 297 -189 296 -187 ct 234 -96 l  233 -95 232 -94 231 -92 ct 230 -91 229 -89 228 -88 ct 
227 -86 226 -84 224 -83 ct 223 -81 222 -80 222 -79 ct 308 -79 l  308 -208 l 
p ef
pom
pum
24037 13514 t
27 0 m  27 -26 l  89 -26 l  89 -213 l  34 -174 l  34 -204 l  91 -243 l 
120 -243 l  120 -26 l  179 -26 l  179 0 l  27 0 l  p ef
367 -80 m  367 -67 365 -56 361 -46 ct 357 -36 352 -27 345 -20 ct 337 -13 328 -7 318 -3 ct 
307 1 294 3 280 3 ct 268 3 256 1 247 -1 ct 237 -4 229 -9 223 -14 ct 216 -19 211 -25 207 -32 ct 
203 -39 201 -47 199 -55 ct 231 -58 l  232 -54 234 -49 236 -45 ct 238 -41 241 -37 245 -33 ct 
249 -30 254 -27 260 -25 ct 266 -23 273 -22 281 -22 ct 289 -22 296 -24 303 -26 ct 
309 -29 315 -32 320 -37 ct 324 -42 328 -48 330 -55 ct 333 -62 334 -70 334 -79 ct 
334 -86 333 -93 331 -99 ct 328 -106 325 -111 320 -116 ct 316 -120 310 -124 304 -126 ct 
297 -129 290 -130 282 -130 ct 277 -130 272 -130 267 -129 ct 263 -128 259 -126 255 -125 ct 
252 -123 248 -121 245 -119 ct 242 -117 239 -115 237 -113 ct 206 -113 l  214 -243 l 
352 -243 l  352 -217 l  243 -217 l  238 -140 l  243 -144 250 -148 259 -151 ct 
267 -154 277 -155 288 -155 ct 300 -155 311 -154 321 -150 ct 330 -146 339 -141 345 -134 ct 
352 -128 357 -120 361 -110 ct 365 -101 367 -91 367 -80 ct p ef
pom
pum
13464 13067 t
183 -122 m  183 -99 180 -79 176 -63 ct 171 -47 165 -34 158 -25 ct 150 -15 141 -8 131 -3 ct 
120 1 109 3 98 3 ct 86 3 75 1 65 -3 ct 54 -8 46 -15 38 -24 ct 30 -34 25 -47 20 -63 ct 
16 -79 14 -99 14 -122 ct 14 -146 16 -167 20 -183 ct 25 -199 31 -212 38 -221 ct 
46 -231 55 -237 65 -241 ct 75 -245 87 -247 99 -247 ct 110 -247 121 -245 131 -241 ct 
142 -237 150 -231 158 -221 ct 166 -212 172 -199 176 -183 ct 180 -167 183 -146 183 -122 ct 
p
151 -122 m  151 -141 150 -157 148 -170 ct 145 -183 142 -193 137 -201 ct 133 -209 127 -214 121 -217 ct 
114 -220 107 -222 99 -222 ct 90 -222 82 -220 76 -217 ct 69 -214 63 -208 59 -201 ct 
54 -193 51 -183 49 -170 ct 46 -157 45 -141 45 -122 ct 45 -103 46 -88 49 -75 ct 
51 -62 54 -52 59 -44 ct 64 -36 69 -31 76 -27 ct 82 -24 90 -22 98 -22 ct 106 -22 114 -24 120 -27 ct 
127 -31 132 -36 137 -44 ct 141 -52 145 -62 147 -75 ct 150 -88 151 -103 151 -122 ct 
p ef
pom
pum
13093 12092 t
18 0 m  18 -22 l  24 -35 31 -47 39 -58 ct 48 -68 57 -77 66 -85 ct 75 -94 84 -101 94 -109 ct 
103 -116 111 -123 118 -130 ct 126 -137 132 -145 136 -152 ct 141 -160 143 -169 143 -179 ct 
143 -186 142 -192 140 -197 ct 138 -202 135 -207 131 -210 ct 127 -214 122 -217 117 -218 ct 
111 -220 105 -221 99 -221 ct 92 -221 87 -220 81 -218 ct 76 -217 71 -214 67 -211 ct 
62 -207 59 -203 56 -198 ct 53 -193 52 -187 51 -180 ct 19 -183 l  20 -192 23 -200 26 -208 ct 
30 -215 35 -222 42 -228 ct 49 -234 57 -238 66 -242 ct 75 -245 86 -247 99 -247 ct 
111 -247 121 -245 131 -242 ct 140 -239 148 -235 155 -229 ct 161 -224 166 -217 170 -209 ct 
173 -200 175 -191 175 -180 ct 175 -172 173 -164 170 -157 ct 167 -149 164 -142 159 -136 ct 
154 -129 148 -123 142 -116 ct 135 -110 129 -104 122 -98 ct 115 -92 107 -86 100 -81 ct 
93 -75 87 -69 80 -63 ct 74 -57 68 -51 63 -45 ct 58 -39 55 -33 52 -26 ct 179 -26 l 
179 0 l  18 0 l  p ef
368 -122 m  368 -99 365 -79 361 -63 ct 356 -47 350 -34 343 -25 ct 335 -15 326 -8 316 -3 ct 
305 1 294 3 283 3 ct 271 3 260 1 250 -3 ct 239 -8 231 -15 223 -24 ct 215 -34 210 -47 205 -63 ct 
201 -79 199 -99 199 -122 ct 199 -146 201 -167 205 -183 ct 210 -199 216 -212 223 -221 ct 
231 -231 240 -237 250 -241 ct 260 -245 272 -247 284 -247 ct 295 -247 306 -245 316 -241 ct 
327 -237 335 -231 343 -221 ct 351 -212 357 -199 361 -183 ct 365 -167 368 -146 368 -122 ct 
p
336 -122 m  336 -141 335 -157 333 -170 ct 330 -183 327 -193 322 -201 ct 318 -209 312 -214 306 -217 ct 
299 -220 292 -222 284 -222 ct 275 -222 267 -220 261 -217 ct 254 -214 248 -208 244 -201 ct 
239 -193 236 -183 234 -170 ct 231 -157 230 -141 230 -122 ct 230 -103 231 -88 234 -75 ct 
236 -62 239 -52 244 -44 ct 249 -36 254 -31 261 -27 ct 267 -24 275 -22 283 -22 ct 
291 -22 299 -24 305 -27 ct 312 -31 317 -36 322 -44 ct 326 -52 330 -62 332 -75 ct 
335 -88 336 -103 336 -122 ct p ef
553 -122 m  553 -99 550 -79 546 -63 ct 541 -47 535 -34 528 -25 ct 520 -15 511 -8 501 -3 ct 
490 1 479 3 468 3 ct 456 3 445 1 435 -3 ct 424 -8 416 -15 408 -24 ct 400 -34 395 -47 390 -63 ct 
386 -79 384 -99 384 -122 ct 384 -146 386 -167 390 -183 ct 395 -199 401 -212 408 -221 ct 
416 -231 425 -237 435 -241 ct 445 -245 457 -247 469 -247 ct 480 -247 491 -245 501 -241 ct 
512 -237 520 -231 528 -221 ct 536 -212 542 -199 546 -183 ct 550 -167 553 -146 553 -122 ct 
p
521 -122 m  521 -141 520 -157 518 -170 ct 515 -183 512 -193 507 -201 ct 503 -209 497 -214 491 -217 ct 
484 -220 477 -222 469 -222 ct 460 -222 452 -220 446 -217 ct 439 -214 433 -208 429 -201 ct 
424 -193 421 -183 419 -170 ct 416 -157 415 -141 415 -122 ct 415 -103 416 -88 419 -75 ct 
421 -62 424 -52 429 -44 ct 434 -36 439 -31 446 -27 ct 452 -24 460 -22 468 -22 ct 
476 -22 484 -24 490 -27 ct 497 -31 502 -36 507 -44 ct 511 -52 515 -62 517 -75 ct 
520 -88 521 -103 521 -122 ct p ef
pom
pum
13093 11118 t
152 -55 m  152 0 l  123 0 l  123 -55 l  8 -55 l  8 -79 l  119 -243 l  152 -243 l 
152 -79 l  186 -79 l  186 -55 l  152 -55 l  p
123 -208 m  122 -207 122 -206 121 -205 ct 120 -203 119 -201 118 -199 ct 117 -197 115 -195 114 -193 ct 
113 -191 112 -189 111 -187 ct 49 -96 l  48 -95 47 -94 46 -92 ct 45 -91 44 -89 43 -88 ct 
42 -86 41 -84 39 -83 ct 38 -81 37 -80 37 -79 ct 123 -79 l  123 -208 l  p ef
368 -122 m  368 -99 365 -79 361 -63 ct 356 -47 350 -34 343 -25 ct 335 -15 326 -8 316 -3 ct 
305 1 294 3 283 3 ct 271 3 260 1 250 -3 ct 239 -8 231 -15 223 -24 ct 215 -34 210 -47 205 -63 ct 
201 -79 199 -99 199 -122 ct 199 -146 201 -167 205 -183 ct 210 -199 216 -212 223 -221 ct 
231 -231 240 -237 250 -241 ct 260 -245 272 -247 284 -247 ct 295 -247 306 -245 316 -241 ct 
327 -237 335 -231 343 -221 ct 351 -212 357 -199 361 -183 ct 365 -167 368 -146 368 -122 ct 
p
336 -122 m  336 -141 335 -157 333 -170 ct 330 -183 327 -193 322 -201 ct 318 -209 312 -214 306 -217 ct 
299 -220 292 -222 284 -222 ct 275 -222 267 -220 261 -217 ct 254 -214 248 -208 244 -201 ct 
239 -193 236 -183 234 -170 ct 231 -157 230 -141 230 -122 ct 230 -103 231 -88 234 -75 ct 
236 -62 239 -52 244 -44 ct 249 -36 254 -31 261 -27 ct 267 -24 275 -22 283 -22 ct 
291 -22 299 -24 305 -27 ct 312 -31 317 -36 322 -44 ct 326 -52 330 -62 332 -75 ct 
335 -88 336 -103 336 -122 ct p ef
553 -122 m  553 -99 550 -79 546 -63 ct 541 -47 535 -34 528 -25 ct 520 -15 511 -8 501 -3 ct 
490 1 479 3 468 3 ct 456 3 445 1 435 -3 ct 424 -8 416 -15 408 -24 ct 400 -34 395 -47 390 -63 ct 
386 -79 384 -99 384 -122 ct 384 -146 386 -167 390 -183 ct 395 -199 401 -212 408 -221 ct 
416 -231 425 -237 435 -241 ct 445 -245 457 -247 469 -247 ct 480 -247 491 -245 501 -241 ct 
512 -237 520 -231 528 -221 ct 536 -212 542 -199 546 -183 ct 550 -167 553 -146 553 -122 ct 
p
521 -122 m  521 -141 520 -157 518 -170 ct 515 -183 512 -193 507 -201 ct 503 -209 497 -214 491 -217 ct 
484 -220 477 -222 469 -222 ct 460 -222 452 -220 446 -217 ct 439 -214 433 -208 429 -201 ct 
424 -193 421 -183 419 -170 ct 416 -157 415 -141 415 -122 ct 415 -103 416 -88 419 -75 ct 
421 -62 424 -52 429 -44 ct 434 -36 439 -31 446 -27 ct 452 -24 460 -22 468 -22 ct 
476 -22 484 -24 490 -27 ct 497 -31 502 -36 507 -44 ct 511 -52 515 -62 517 -75 ct 
520 -88 521 -103 521 -122 ct p ef
pom
pum
13093 10144 t
181 -80 m  181 -68 179 -57 176 -47 ct 172 -36 167 -28 161 -20 ct 154 -13 146 -7 136 -3 ct 
126 1 115 3 102 3 ct 88 3 76 0 65 -5 ct 55 -11 46 -18 39 -28 ct 32 -39 27 -51 23 -66 ct 
20 -81 18 -97 18 -116 ct 18 -138 20 -157 24 -173 ct 28 -190 34 -203 41 -214 ct 
48 -225 58 -233 68 -239 ct 79 -244 91 -247 105 -247 ct 113 -247 121 -246 128 -244 ct 
135 -243 142 -240 148 -236 ct 154 -232 159 -227 163 -221 ct 168 -215 171 -207 174 -198 ct 
144 -192 l  141 -203 136 -210 129 -215 ct 122 -220 114 -222 104 -222 ct 96 -222 88 -220 81 -216 ct 
74 -212 69 -206 64 -198 ct 59 -190 55 -180 53 -168 ct 50 -156 49 -142 49 -126 ct 
54 -136 62 -144 73 -150 ct 83 -155 95 -158 108 -158 ct 119 -158 129 -156 138 -153 ct 
147 -149 154 -144 161 -137 ct 167 -130 172 -122 176 -113 ct 179 -103 181 -92 181 -80 ct 
p
149 -79 m  149 -87 148 -95 146 -102 ct 144 -108 141 -114 137 -119 ct 133 -124 128 -128 122 -130 ct 
115 -133 108 -134 100 -134 ct 95 -134 89 -133 83 -131 ct 78 -130 72 -127 68 -123 ct 
63 -120 59 -115 56 -109 ct 53 -102 52 -95 52 -86 ct 52 -77 53 -69 55 -61 ct 58 -53 61 -46 65 -41 ct 
70 -35 75 -30 81 -27 ct 87 -24 94 -22 101 -22 ct 109 -22 116 -23 121 -26 ct 127 -29 132 -32 137 -37 ct 
141 -42 144 -48 146 -55 ct 148 -62 149 -70 149 -79 ct p ef
368 -122 m  368 -99 365 -79 361 -63 ct 356 -47 350 -34 343 -25 ct 335 -15 326 -8 316 -3 ct 
305 1 294 3 283 3 ct 271 3 260 1 250 -3 ct 239 -8 231 -15 223 -24 ct 215 -34 210 -47 205 -63 ct 
201 -79 199 -99 199 -122 ct 199 -146 201 -167 205 -183 ct 210 -199 216 -212 223 -221 ct 
231 -231 240 -237 250 -241 ct 260 -245 272 -247 284 -247 ct 295 -247 306 -245 316 -241 ct 
327 -237 335 -231 343 -221 ct 351 -212 357 -199 361 -183 ct 365 -167 368 -146 368 -122 ct 
p
336 -122 m  336 -141 335 -157 333 -170 ct 330 -183 327 -193 322 -201 ct 318 -209 312 -214 306 -217 ct 
299 -220 292 -222 284 -222 ct 275 -222 267 -220 261 -217 ct 254 -214 248 -208 244 -201 ct 
239 -193 236 -183 234 -170 ct 231 -157 230 -141 230 -122 ct 230 -103 231 -88 234 -75 ct 
236 -62 239 -52 244 -44 ct 249 -36 254 -31 261 -27 ct 267 -24 275 -22 283 -22 ct 
291 -22 299 -24 305 -27 ct 312 -31 317 -36 322 -44 ct 326 -52 330 -62 332 -75 ct 
335 -88 336 -103 336 -122 ct p ef
553 -122 m  553 -99 550 -79 546 -63 ct 541 -47 535 -34 528 -25 ct 520 -15 511 -8 501 -3 ct 
490 1 479 3 468 3 ct 456 3 445 1 435 -3 ct 424 -8 416 -15 408 -24 ct 400 -34 395 -47 390 -63 ct 
386 -79 384 -99 384 -122 ct 384 -146 386 -167 390 -183 ct 395 -199 401 -212 408 -221 ct 
416 -231 425 -237 435 -241 ct 445 -245 457 -247 469 -247 ct 480 -247 491 -245 501 -241 ct 
512 -237 520 -231 528 -221 ct 536 -212 542 -199 546 -183 ct 550 -167 553 -146 553 -122 ct 
p
521 -122 m  521 -141 520 -157 518 -170 ct 515 -183 512 -193 507 -201 ct 503 -209 497 -214 491 -217 ct 
484 -220 477 -222 469 -222 ct 460 -222 452 -220 446 -217 ct 439 -214 433 -208 429 -201 ct 
424 -193 421 -183 419 -170 ct 416 -157 415 -141 415 -122 ct 415 -103 416 -88 419 -75 ct 
421 -62 424 -52 429 -44 ct 434 -36 439 -31 446 -27 ct 452 -24 460 -22 468 -22 ct 
476 -22 484 -24 490 -27 ct 497 -31 502 -36 507 -44 ct 511 -52 515 -62 517 -75 ct 
520 -88 521 -103 521 -122 ct p ef
pom
pum
13093 9170 t
181 -68 m  181 -58 179 -48 176 -40 ct 173 -31 168 -24 161 -17 ct 154 -11 146 -6 135 -2 ct 
125 1 113 3 98 3 ct 84 3 72 1 61 -2 ct 51 -6 42 -11 35 -17 ct 29 -23 24 -31 20 -40 ct 
17 -48 15 -58 15 -68 ct 15 -77 17 -85 19 -92 ct 22 -98 26 -104 30 -109 ct 35 -114 40 -118 46 -121 ct 
52 -125 58 -127 64 -128 ct 64 -128 l  57 -130 51 -132 46 -136 ct 40 -140 36 -144 32 -149 ct 
29 -154 26 -159 24 -166 ct 22 -172 21 -178 21 -185 ct 21 -193 23 -201 26 -209 ct 
29 -216 34 -223 41 -229 ct 47 -234 55 -239 64 -242 ct 74 -245 85 -247 98 -247 ct 
111 -247 122 -245 132 -242 ct 142 -239 150 -234 156 -228 ct 162 -223 167 -216 170 -209 ct 
173 -201 175 -193 175 -184 ct 175 -178 174 -171 172 -165 ct 170 -159 167 -154 164 -149 ct 
160 -144 156 -139 150 -136 ct 145 -132 139 -130 132 -129 ct 132 -128 l  139 -127 145 -125 151 -122 ct 
157 -119 162 -115 167 -110 ct 171 -105 175 -99 177 -92 ct 180 -85 181 -77 181 -68 ct 
p
143 -183 m  143 -189 142 -194 140 -199 ct 139 -204 136 -209 133 -212 ct 129 -216 125 -219 119 -221 ct 
113 -223 106 -224 98 -224 ct 89 -224 83 -223 77 -221 ct 71 -219 67 -216 63 -212 ct 
59 -209 57 -204 55 -199 ct 54 -194 53 -189 53 -183 ct 53 -178 53 -173 55 -168 ct 
56 -163 58 -158 62 -154 ct 65 -150 69 -147 75 -144 ct 81 -141 89 -140 98 -140 ct 
108 -140 116 -141 121 -144 ct 127 -147 132 -150 135 -154 ct 138 -158 140 -163 141 -168 ct 
142 -173 143 -178 143 -183 ct p
149 -71 m  149 -77 148 -83 146 -88 ct 145 -94 142 -98 138 -103 ct 134 -107 129 -110 122 -113 ct 
116 -115 107 -117 98 -117 ct 88 -117 81 -115 74 -113 ct 68 -110 63 -107 59 -103 ct 
55 -98 52 -93 50 -88 ct 48 -82 47 -76 47 -70 ct 47 -63 48 -56 50 -50 ct 52 -44 55 -39 59 -34 ct 
63 -30 68 -26 75 -24 ct 81 -21 89 -20 99 -20 ct 108 -20 116 -21 122 -24 ct 129 -26 134 -30 138 -34 ct 
142 -39 145 -44 146 -50 ct 148 -56 149 -63 149 -71 ct p ef
368 -122 m  368 -99 365 -79 361 -63 ct 356 -47 350 -34 343 -25 ct 335 -15 326 -8 316 -3 ct 
305 1 294 3 283 3 ct 271 3 260 1 250 -3 ct 239 -8 231 -15 223 -24 ct 215 -34 210 -47 205 -63 ct 
201 -79 199 -99 199 -122 ct 199 -146 201 -167 205 -183 ct 210 -199 216 -212 223 -221 ct 
231 -231 240 -237 250 -241 ct 260 -245 272 -247 284 -247 ct 295 -247 306 -245 316 -241 ct 
327 -237 335 -231 343 -221 ct 351 -212 357 -199 361 -183 ct 365 -167 368 -146 368 -122 ct 
p
336 -122 m  336 -141 335 -157 333 -170 ct 330 -183 327 -193 322 -201 ct 318 -209 312 -214 306 -217 ct 
299 -220 292 -222 284 -222 ct 275 -222 267 -220 261 -217 ct 254 -214 248 -208 244 -201 ct 
239 -193 236 -183 234 -170 ct 231 -157 230 -141 230 -122 ct 230 -103 231 -88 234 -75 ct 
236 -62 239 -52 244 -44 ct 249 -36 254 -31 261 -27 ct 267 -24 275 -22 283 -22 ct 
291 -22 299 -24 305 -27 ct 312 -31 317 -36 322 -44 ct 326 -52 330 -62 332 -75 ct 
335 -88 336 -103 336 -122 ct p ef
553 -122 m  553 -99 550 -79 546 -63 ct 541 -47 535 -34 528 -25 ct 520 -15 511 -8 501 -3 ct 
490 1 479 3 468 3 ct 456 3 445 1 435 -3 ct 424 -8 416 -15 408 -24 ct 400 -34 395 -47 390 -63 ct 
386 -79 384 -99 384 -122 ct 384 -146 386 -167 390 -183 ct 395 -199 401 -212 408 -221 ct 
416 -231 425 -237 435 -241 ct 445 -245 457 -247 469 -247 ct 480 -247 491 -245 501 -241 ct 
512 -237 520 -231 528 -221 ct 536 -212 542 -199 546 -183 ct 550 -167 553 -146 553 -122 ct 
p
521 -122 m  521 -141 520 -157 518 -170 ct 515 -183 512 -193 507 -201 ct 503 -209 497 -214 491 -217 ct 
484 -220 477 -222 469 -222 ct 460 -222 452 -220 446 -217 ct 439 -214 433 -208 429 -201 ct 
424 -193 421 -183 419 -170 ct 416 -157 415 -141 415 -122 ct 415 -103 416 -88 419 -75 ct 
421 -62 424 -52 429 -44 ct 434 -36 439 -31 446 -27 ct 452 -24 460 -22 468 -22 ct 
476 -22 484 -24 490 -27 ct 497 -31 502 -36 507 -44 ct 511 -52 515 -62 517 -75 ct 
520 -88 521 -103 521 -122 ct p ef
pom
pum
12908 8196 t
27 0 m  27 -26 l  89 -26 l  89 -213 l  34 -174 l  34 -204 l  91 -243 l 
120 -243 l  120 -26 l  179 -26 l  179 0 l  27 0 l  p ef
368 -122 m  368 -99 365 -79 361 -63 ct 356 -47 350 -34 343 -25 ct 335 -15 326 -8 316 -3 ct 
305 1 294 3 283 3 ct 271 3 260 1 250 -3 ct 239 -8 231 -15 223 -24 ct 215 -34 210 -47 205 -63 ct 
201 -79 199 -99 199 -122 ct 199 -146 201 -167 205 -183 ct 210 -199 216 -212 223 -221 ct 
231 -231 240 -237 250 -241 ct 260 -245 272 -247 284 -247 ct 295 -247 306 -245 316 -241 ct 
327 -237 335 -231 343 -221 ct 351 -212 357 -199 361 -183 ct 365 -167 368 -146 368 -122 ct 
p
336 -122 m  336 -141 335 -157 333 -170 ct 330 -183 327 -193 322 -201 ct 318 -209 312 -214 306 -217 ct 
299 -220 292 -222 284 -222 ct 275 -222 267 -220 261 -217 ct 254 -214 248 -208 244 -201 ct 
239 -193 236 -183 234 -170 ct 231 -157 230 -141 230 -122 ct 230 -103 231 -88 234 -75 ct 
236 -62 239 -52 244 -44 ct 249 -36 254 -31 261 -27 ct 267 -24 275 -22 283 -22 ct 
291 -22 299 -24 305 -27 ct 312 -31 317 -36 322 -44 ct 326 -52 330 -62 332 -75 ct 
335 -88 336 -103 336 -122 ct p ef
553 -122 m  553 -99 550 -79 546 -63 ct 541 -47 535 -34 528 -25 ct 520 -15 511 -8 501 -3 ct 
490 1 479 3 468 3 ct 456 3 445 1 435 -3 ct 424 -8 416 -15 408 -24 ct 400 -34 395 -47 390 -63 ct 
386 -79 384 -99 384 -122 ct 384 -146 386 -167 390 -183 ct 395 -199 401 -212 408 -221 ct 
416 -231 425 -237 435 -241 ct 445 -245 457 -247 469 -247 ct 480 -247 491 -245 501 -241 ct 
512 -237 520 -231 528 -221 ct 536 -212 542 -199 546 -183 ct 550 -167 553 -146 553 -122 ct 
p
521 -122 m  521 -141 520 -157 518 -170 ct 515 -183 512 -193 507 -201 ct 503 -209 497 -214 491 -217 ct 
484 -220 477 -222 469 -222 ct 460 -222 452 -220 446 -217 ct 439 -214 433 -208 429 -201 ct 
424 -193 421 -183 419 -170 ct 416 -157 415 -141 415 -122 ct 415 -103 416 -88 419 -75 ct 
421 -62 424 -52 429 -44 ct 434 -36 439 -31 446 -27 ct 452 -24 460 -22 468 -22 ct 
476 -22 484 -24 490 -27 ct 497 -31 502 -36 507 -44 ct 511 -52 515 -62 517 -75 ct 
520 -88 521 -103 521 -122 ct p ef
739 -122 m  739 -99 736 -79 732 -63 ct 727 -47 721 -34 714 -25 ct 706 -15 697 -8 687 -3 ct 
676 1 665 3 654 3 ct 642 3 631 1 621 -3 ct 610 -8 602 -15 594 -24 ct 586 -34 581 -47 576 -63 ct 
572 -79 570 -99 570 -122 ct 570 -146 572 -167 576 -183 ct 581 -199 587 -212 594 -221 ct 
602 -231 611 -237 621 -241 ct 631 -245 643 -247 655 -247 ct 666 -247 677 -245 687 -241 ct 
698 -237 706 -231 714 -221 ct 722 -212 728 -199 732 -183 ct 736 -167 739 -146 739 -122 ct 
p
707 -122 m  707 -141 706 -157 704 -170 ct 701 -183 698 -193 693 -201 ct 689 -209 683 -214 677 -217 ct 
670 -220 663 -222 655 -222 ct 646 -222 638 -220 632 -217 ct 625 -214 619 -208 615 -201 ct 
610 -193 607 -183 605 -170 ct 602 -157 601 -141 601 -122 ct 601 -103 602 -88 605 -75 ct 
607 -62 610 -52 615 -44 ct 620 -36 625 -31 632 -27 ct 638 -24 646 -22 654 -22 ct 
662 -22 670 -24 676 -27 ct 683 -31 688 -36 693 -44 ct 697 -52 701 -62 703 -75 ct 
706 -88 707 -103 707 -122 ct p ef
pom
pum
12908 7222 t
27 0 m  27 -26 l  89 -26 l  89 -213 l  34 -174 l  34 -204 l  91 -243 l 
120 -243 l  120 -26 l  179 -26 l  179 0 l  27 0 l  p ef
203 0 m  203 -22 l  209 -35 216 -47 224 -58 ct 233 -68 242 -77 251 -85 ct 260 -94 269 -101 279 -109 ct 
288 -116 296 -123 303 -130 ct 311 -137 317 -145 321 -152 ct 326 -160 328 -169 328 -179 ct 
328 -186 327 -192 325 -197 ct 323 -202 320 -207 316 -210 ct 312 -214 307 -217 302 -218 ct 
296 -220 290 -221 284 -221 ct 277 -221 272 -220 266 -218 ct 261 -217 256 -214 252 -211 ct 
247 -207 244 -203 241 -198 ct 238 -193 237 -187 236 -180 ct 204 -183 l  205 -192 208 -200 211 -208 ct 
215 -215 220 -222 227 -228 ct 234 -234 242 -238 251 -242 ct 260 -245 271 -247 284 -247 ct 
296 -247 306 -245 316 -242 ct 325 -239 333 -235 340 -229 ct 346 -224 351 -217 355 -209 ct 
358 -200 360 -191 360 -180 ct 360 -172 358 -164 355 -157 ct 352 -149 349 -142 344 -136 ct 
339 -129 333 -123 327 -116 ct 320 -110 314 -104 307 -98 ct 300 -92 292 -86 285 -81 ct 
278 -75 272 -69 265 -63 ct 259 -57 253 -51 248 -45 ct 243 -39 240 -33 237 -26 ct 
364 -26 l  364 0 l  203 0 l  p ef
553 -122 m  553 -99 550 -79 546 -63 ct 541 -47 535 -34 528 -25 ct 520 -15 511 -8 501 -3 ct 
490 1 479 3 468 3 ct 456 3 445 1 435 -3 ct 424 -8 416 -15 408 -24 ct 400 -34 395 -47 390 -63 ct 
386 -79 384 -99 384 -122 ct 384 -146 386 -167 390 -183 ct 395 -199 401 -212 408 -221 ct 
416 -231 425 -237 435 -241 ct 445 -245 457 -247 469 -247 ct 480 -247 491 -245 501 -241 ct 
512 -237 520 -231 528 -221 ct 536 -212 542 -199 546 -183 ct 550 -167 553 -146 553 -122 ct 
p
521 -122 m  521 -141 520 -157 518 -170 ct 515 -183 512 -193 507 -201 ct 503 -209 497 -214 491 -217 ct 
484 -220 477 -222 469 -222 ct 460 -222 452 -220 446 -217 ct 439 -214 433 -208 429 -201 ct 
424 -193 421 -183 419 -170 ct 416 -157 415 -141 415 -122 ct 415 -103 416 -88 419 -75 ct 
421 -62 424 -52 429 -44 ct 434 -36 439 -31 446 -27 ct 452 -24 460 -22 468 -22 ct 
476 -22 484 -24 490 -27 ct 497 -31 502 -36 507 -44 ct 511 -52 515 -62 517 -75 ct 
520 -88 521 -103 521 -122 ct p ef
739 -122 m  739 -99 736 -79 732 -63 ct 727 -47 721 -34 714 -25 ct 706 -15 697 -8 687 -3 ct 
676 1 665 3 654 3 ct 642 3 631 1 621 -3 ct 610 -8 602 -15 594 -24 ct 586 -34 581 -47 576 -63 ct 
572 -79 570 -99 570 -122 ct 570 -146 572 -167 576 -183 ct 581 -199 587 -212 594 -221 ct 
602 -231 611 -237 621 -241 ct 631 -245 643 -247 655 -247 ct 666 -247 677 -245 687 -241 ct 
698 -237 706 -231 714 -221 ct 722 -212 728 -199 732 -183 ct 736 -167 739 -146 739 -122 ct 
p
707 -122 m  707 -141 706 -157 704 -170 ct 701 -183 698 -193 693 -201 ct 689 -209 683 -214 677 -217 ct 
670 -220 663 -222 655 -222 ct 646 -222 638 -220 632 -217 ct 625 -214 619 -208 615 -201 ct 
610 -193 607 -183 605 -170 ct 602 -157 601 -141 601 -122 ct 601 -103 602 -88 605 -75 ct 
607 -62 610 -52 615 -44 ct 620 -36 625 -31 632 -27 ct 638 -24 646 -22 654 -22 ct 
662 -22 670 -24 676 -27 ct 683 -31 688 -36 693 -44 ct 697 -52 701 -62 703 -75 ct 
706 -88 707 -103 707 -122 ct p ef
pom
pum
12908 6248 t
27 0 m  27 -26 l  89 -26 l  89 -213 l  34 -174 l  34 -204 l  91 -243 l 
120 -243 l  120 -26 l  179 -26 l  179 0 l  27 0 l  p ef
337 -55 m  337 0 l  308 0 l  308 -55 l  193 -55 l  193 -79 l  304 -243 l 
337 -243 l  337 -79 l  371 -79 l  371 -55 l  337 -55 l  p
308 -208 m  307 -207 307 -206 306 -205 ct 305 -203 304 -201 303 -199 ct 302 -197 300 -195 299 -193 ct 
298 -191 297 -189 296 -187 ct 234 -96 l  233 -95 232 -94 231 -92 ct 230 -91 229 -89 228 -88 ct 
227 -86 226 -84 224 -83 ct 223 -81 222 -80 222 -79 ct 308 -79 l  308 -208 l 
p ef
553 -122 m  553 -99 550 -79 546 -63 ct 541 -47 535 -34 528 -25 ct 520 -15 511 -8 501 -3 ct 
490 1 479 3 468 3 ct 456 3 445 1 435 -3 ct 424 -8 416 -15 408 -24 ct 400 -34 395 -47 390 -63 ct 
386 -79 384 -99 384 -122 ct 384 -146 386 -167 390 -183 ct 395 -199 401 -212 408 -221 ct 
416 -231 425 -237 435 -241 ct 445 -245 457 -247 469 -247 ct 480 -247 491 -245 501 -241 ct 
512 -237 520 -231 528 -221 ct 536 -212 542 -199 546 -183 ct 550 -167 553 -146 553 -122 ct 
p
521 -122 m  521 -141 520 -157 518 -170 ct 515 -183 512 -193 507 -201 ct 503 -209 497 -214 491 -217 ct 
484 -220 477 -222 469 -222 ct 460 -222 452 -220 446 -217 ct 439 -214 433 -208 429 -201 ct 
424 -193 421 -183 419 -170 ct 416 -157 415 -141 415 -122 ct 415 -103 416 -88 419 -75 ct 
421 -62 424 -52 429 -44 ct 434 -36 439 -31 446 -27 ct 452 -24 460 -22 468 -22 ct 
476 -22 484 -24 490 -27 ct 497 -31 502 -36 507 -44 ct 511 -52 515 -62 517 -75 ct 
520 -88 521 -103 521 -122 ct p ef
739 -122 m  739 -99 736 -79 732 -63 ct 727 -47 721 -34 714 -25 ct 706 -15 697 -8 687 -3 ct 
676 1 665 3 654 3 ct 642 3 631 1 621 -3 ct 610 -8 602 -15 594 -24 ct 586 -34 581 -47 576 -63 ct 
572 -79 570 -99 570 -122 ct 570 -146 572 -167 576 -183 ct 581 -199 587 -212 594 -221 ct 
602 -231 611 -237 621 -241 ct 631 -245 643 -247 655 -247 ct 666 -247 677 -245 687 -241 ct 
698 -237 706 -231 714 -221 ct 722 -212 728 -199 732 -183 ct 736 -167 739 -146 739 -122 ct 
p
707 -122 m  707 -141 706 -157 704 -170 ct 701 -183 698 -193 693 -201 ct 689 -209 683 -214 677 -217 ct 
670 -220 663 -222 655 -222 ct 646 -222 638 -220 632 -217 ct 625 -214 619 -208 615 -201 ct 
610 -193 607 -183 605 -170 ct 602 -157 601 -141 601 -122 ct 601 -103 602 -88 605 -75 ct 
607 -62 610 -52 615 -44 ct 620 -36 625 -31 632 -27 ct 638 -24 646 -22 654 -22 ct 
662 -22 670 -24 676 -27 ct 683 -31 688 -36 693 -44 ct 697 -52 701 -62 703 -75 ct 
706 -88 707 -103 707 -122 ct p ef
pom
pum
12908 5274 t
27 0 m  27 -26 l  89 -26 l  89 -213 l  34 -174 l  34 -204 l  91 -243 l 
120 -243 l  120 -26 l  179 -26 l  179 0 l  27 0 l  p ef
366 -80 m  366 -68 364 -57 361 -47 ct 357 -36 352 -28 346 -20 ct 339 -13 331 -7 321 -3 ct 
311 1 300 3 287 3 ct 273 3 261 0 250 -5 ct 240 -11 231 -18 224 -28 ct 217 -39 212 -51 208 -66 ct 
205 -81 203 -97 203 -116 ct 203 -138 205 -157 209 -173 ct 213 -190 219 -203 226 -214 ct 
233 -225 243 -233 253 -239 ct 264 -244 276 -247 290 -247 ct 298 -247 306 -246 313 -244 ct 
320 -243 327 -240 333 -236 ct 339 -232 344 -227 348 -221 ct 353 -215 356 -207 359 -198 ct 
329 -192 l  326 -203 321 -210 314 -215 ct 307 -220 299 -222 289 -222 ct 281 -222 273 -220 266 -216 ct 
259 -212 254 -206 249 -198 ct 244 -190 240 -180 238 -168 ct 235 -156 234 -142 234 -126 ct 
239 -136 247 -144 258 -150 ct 268 -155 280 -158 293 -158 ct 304 -158 314 -156 323 -153 ct 
332 -149 339 -144 346 -137 ct 352 -130 357 -122 361 -113 ct 364 -103 366 -92 366 -80 ct 
p
334 -79 m  334 -87 333 -95 331 -102 ct 329 -108 326 -114 322 -119 ct 318 -124 313 -128 307 -130 ct 
300 -133 293 -134 285 -134 ct 280 -134 274 -133 268 -131 ct 263 -130 257 -127 253 -123 ct 
248 -120 244 -115 241 -109 ct 238 -102 237 -95 237 -86 ct 237 -77 238 -69 240 -61 ct 
243 -53 246 -46 250 -41 ct 255 -35 260 -30 266 -27 ct 272 -24 279 -22 286 -22 ct 
294 -22 301 -23 306 -26 ct 312 -29 317 -32 322 -37 ct 326 -42 329 -48 331 -55 ct 
333 -62 334 -70 334 -79 ct p ef
553 -122 m  553 -99 550 -79 546 -63 ct 541 -47 535 -34 528 -25 ct 520 -15 511 -8 501 -3 ct 
490 1 479 3 468 3 ct 456 3 445 1 435 -3 ct 424 -8 416 -15 408 -24 ct 400 -34 395 -47 390 -63 ct 
386 -79 384 -99 384 -122 ct 384 -146 386 -167 390 -183 ct 395 -199 401 -212 408 -221 ct 
416 -231 425 -237 435 -241 ct 445 -245 457 -247 469 -247 ct 480 -247 491 -245 501 -241 ct 
512 -237 520 -231 528 -221 ct 536 -212 542 -199 546 -183 ct 550 -167 553 -146 553 -122 ct 
p
521 -122 m  521 -141 520 -157 518 -170 ct 515 -183 512 -193 507 -201 ct 503 -209 497 -214 491 -217 ct 
484 -220 477 -222 469 -222 ct 460 -222 452 -220 446 -217 ct 439 -214 433 -208 429 -201 ct 
424 -193 421 -183 419 -170 ct 416 -157 415 -141 415 -122 ct 415 -103 416 -88 419 -75 ct 
421 -62 424 -52 429 -44 ct 434 -36 439 -31 446 -27 ct 452 -24 460 -22 468 -22 ct 
476 -22 484 -24 490 -27 ct 497 -31 502 -36 507 -44 ct 511 -52 515 -62 517 -75 ct 
520 -88 521 -103 521 -122 ct p ef
739 -122 m  739 -99 736 -79 732 -63 ct 727 -47 721 -34 714 -25 ct 706 -15 697 -8 687 -3 ct 
676 1 665 3 654 3 ct 642 3 631 1 621 -3 ct 610 -8 602 -15 594 -24 ct 586 -34 581 -47 576 -63 ct 
572 -79 570 -99 570 -122 ct 570 -146 572 -167 576 -183 ct 581 -199 587 -212 594 -221 ct 
602 -231 611 -237 621 -241 ct 631 -245 643 -247 655 -247 ct 666 -247 677 -245 687 -241 ct 
698 -237 706 -231 714 -221 ct 722 -212 728 -199 732 -183 ct 736 -167 739 -146 739 -122 ct 
p
707 -122 m  707 -141 706 -157 704 -170 ct 701 -183 698 -193 693 -201 ct 689 -209 683 -214 677 -217 ct 
670 -220 663 -222 655 -222 ct 646 -222 638 -220 632 -217 ct 625 -214 619 -208 615 -201 ct 
610 -193 607 -183 605 -170 ct 602 -157 601 -141 601 -122 ct 601 -103 602 -88 605 -75 ct 
607 -62 610 -52 615 -44 ct 620 -36 625 -31 632 -27 ct 638 -24 646 -22 654 -22 ct 
662 -22 670 -24 676 -27 ct 683 -31 688 -36 693 -44 ct 697 -52 701 -62 703 -75 ct 
706 -88 707 -103 707 -122 ct p ef
pom
79.995 lw 0.003 0.273 0.527 c 24844 9274 m  25644 9274 l  ps
25138 9169 m  25138 9378 l  25349 9378 l  25349 9169 l  25138 9169 l  p ef
0 lw 25138 9169 m  25138 9378 l  25349 9378 l  25349 9169 l  25138 9169 l 
pc
pum
25744 9393 t
0.003 0.003 0.003 c 137 -220 m  123 -220 111 -218 100 -213 ct 89 -209 80 -202 73 -194 ct 
66 -185 61 -175 57 -163 ct 53 -151 51 -138 51 -123 ct 51 -108 53 -95 57 -83 ct 
61 -71 67 -60 74 -52 ct 82 -43 91 -36 102 -31 ct 112 -26 124 -24 138 -24 ct 147 -24 156 -25 164 -28 ct 
171 -30 178 -34 185 -38 ct 191 -43 197 -48 201 -54 ct 206 -60 211 -67 215 -75 ct 
241 -61 l  237 -52 232 -44 225 -36 ct 219 -28 211 -21 203 -15 ct 194 -10 184 -5 173 -2 ct 
162 1 150 3 136 3 ct 117 3 99 0 85 -6 ct 70 -13 58 -21 48 -33 ct 38 -44 30 -57 25 -73 ct 
20 -88 18 -105 18 -123 ct 18 -142 21 -159 26 -174 ct 31 -190 39 -203 49 -213 ct 
59 -224 71 -232 86 -238 ct 101 -244 117 -247 136 -247 ct 162 -247 184 -242 201 -232 ct 
218 -222 231 -207 239 -187 ct 208 -176 l  206 -182 203 -188 199 -193 ct 195 -198 190 -203 184 -207 ct 
178 -211 171 -214 163 -216 ct 156 -219 147 -220 137 -220 ct p ef
246 0 m  246 -24 l  360 -163 l  253 -163 l  253 -187 l  395 -187 l  395 -163 l 
281 -24 l  402 -24 l  402 0 l  246 0 l  p ef
494 3 m  476 3 462 -2 452 -12 ct 443 -22 438 -35 438 -53 ct 438 -65 440 -75 445 -83 ct 
450 -91 456 -97 463 -102 ct 471 -106 479 -109 489 -111 ct 499 -113 509 -114 518 -114 ct 
560 -114 l  560 -124 l  560 -132 560 -138 558 -144 ct 556 -149 554 -154 551 -157 ct 
547 -161 543 -163 538 -165 ct 533 -166 527 -167 520 -167 ct 514 -167 509 -167 504 -166 ct 
499 -165 495 -163 492 -161 ct 488 -159 485 -156 483 -152 ct 481 -148 479 -143 479 -137 ct 
446 -140 l  447 -148 450 -154 453 -160 ct 456 -167 461 -172 467 -176 ct 472 -181 480 -184 489 -187 ct 
498 -189 508 -191 521 -191 ct 545 -191 562 -185 574 -175 ct 586 -164 592 -148 592 -128 ct 
592 -48 l  592 -38 593 -31 595 -27 ct 598 -22 602 -20 609 -20 ct 611 -20 613 -20 614 -20 ct 
616 -20 618 -21 619 -21 ct 619 -2 l  615 -1 612 0 608 0 ct 604 1 600 1 595 1 ct 
590 1 584 0 580 -1 ct 576 -3 573 -5 570 -8 ct 567 -11 565 -15 564 -20 ct 563 -25 562 -30 561 -36 ct 
560 -36 l  557 -30 553 -25 549 -20 ct 545 -15 541 -11 536 -8 ct 530 -4 524 -2 518 0 ct 
511 2 503 3 494 3 ct p
501 -20 m  511 -20 520 -22 527 -26 ct 535 -29 541 -34 546 -39 ct 551 -45 554 -51 557 -58 ct 
559 -64 560 -71 560 -77 ct 560 -92 l  526 -92 l  519 -92 512 -92 505 -91 ct 
498 -90 492 -88 487 -85 ct 482 -82 478 -78 474 -73 ct 471 -67 470 -61 470 -52 ct 
470 -42 473 -34 478 -29 ct 484 -23 491 -20 501 -20 ct p ef
773 -52 m  773 -43 771 -36 768 -29 ct 764 -22 759 -16 753 -11 ct 746 -7 739 -3 729 -1 ct 
720 2 709 3 697 3 ct 686 3 677 2 668 1 ct 659 -1 652 -4 645 -8 ct 638 -11 633 -16 629 -22 ct 
624 -28 621 -36 619 -44 ct 646 -50 l  649 -40 654 -32 663 -28 ct 671 -23 682 -21 697 -21 ct 
704 -21 710 -21 715 -22 ct 721 -23 726 -25 730 -27 ct 734 -29 737 -32 739 -36 ct 
741 -39 743 -44 743 -50 ct 743 -55 741 -60 739 -63 ct 736 -67 732 -70 728 -73 ct 
723 -75 717 -77 710 -79 ct 704 -81 696 -83 688 -85 ct 681 -87 673 -89 666 -91 ct 
659 -94 652 -97 646 -101 ct 640 -105 635 -110 632 -116 ct 628 -122 626 -129 626 -138 ct 
626 -155 632 -168 644 -177 ct 657 -186 674 -190 697 -190 ct 718 -190 734 -186 746 -179 ct 
759 -172 766 -160 769 -144 ct 742 -141 l  741 -146 739 -150 736 -153 ct 733 -156 730 -159 726 -161 ct 
722 -163 718 -164 713 -165 ct 708 -166 703 -167 697 -167 ct 683 -167 673 -164 666 -160 ct 
660 -156 656 -149 656 -141 ct 656 -136 658 -132 660 -128 ct 663 -125 666 -122 670 -120 ct 
675 -118 680 -116 686 -114 ct 693 -113 699 -111 707 -109 ct 712 -108 717 -106 722 -105 ct 
727 -103 732 -102 737 -100 ct 742 -98 747 -95 751 -93 ct 755 -90 759 -87 762 -83 ct 
765 -79 768 -75 770 -70 ct 772 -65 773 -59 773 -52 ct p ef
1102 0 m  1066 0 l  1037 -120 l  1036 -123 1035 -127 1034 -132 ct 1033 -136 1032 -141 1031 -145 ct 
1030 -150 1029 -156 1028 -161 ct 1027 -156 1025 -151 1024 -146 ct 1023 -141 1022 -137 1021 -132 ct 
1020 -127 1019 -123 1018 -120 ct 988 0 l  952 0 l  899 -187 l  930 -187 l 
962 -60 l  963 -57 963 -54 964 -50 ct 965 -46 966 -42 967 -39 ct 967 -35 968 -30 969 -26 ct 
970 -30 971 -34 972 -38 ct 973 -42 974 -46 975 -49 ct 976 -53 977 -56 977 -58 ct 
1011 -187 l  1044 -187 l  1077 -58 l  1078 -55 1079 -52 1079 -48 ct 1080 -44 1081 -41 1082 -38 ct 
1083 -34 1084 -30 1085 -26 ct 1086 -30 1087 -34 1088 -38 ct 1088 -42 1089 -46 1090 -50 ct 
1091 -53 1092 -57 1093 -60 ct 1125 -187 l  1156 -187 l  1102 0 l  p ef
1242 0 m  1238 11 1233 21 1229 30 ct 1224 39 1219 47 1213 53 ct 1208 60 1202 65 1195 68 ct 
1188 71 1180 73 1171 73 ct 1167 73 1163 73 1160 73 ct 1157 73 1153 72 1150 71 ct 
1150 48 l  1152 49 1154 49 1157 49 ct 1160 49 1162 49 1164 49 ct 1173 49 1182 46 1189 39 ct 
1197 32 1204 21 1210 6 ct 1213 -1 l  1139 -187 l  1172 -187 l  1211 -83 l 
1212 -80 1214 -76 1216 -71 ct 1217 -66 1219 -61 1221 -55 ct 1223 -50 1224 -46 1226 -41 ct 
1227 -37 1228 -35 1228 -34 ct 1228 -35 1229 -37 1231 -41 ct 1232 -45 1233 -49 1235 -54 ct 
1237 -58 1238 -63 1240 -68 ct 1242 -72 1243 -76 1245 -80 ct 1281 -187 l  1314 -187 l 
1242 0 l  p ef
1464 0 m  1401 -85 l  1378 -67 l  1378 0 l  1347 0 l  1347 -256 l  1378 -256 l 
1378 -96 l  1460 -187 l  1496 -187 l  1420 -107 l  1500 0 l  1464 0 l 
p ef
1690 -94 m  1690 -61 1682 -37 1668 -21 ct 1654 -5 1633 3 1605 3 ct 1592 3 1581 1 1571 -3 ct 
1560 -7 1552 -13 1545 -21 ct 1538 -29 1532 -39 1528 -51 ct 1525 -63 1523 -77 1523 -94 ct 
1523 -158 1551 -190 1606 -190 ct 1621 -190 1633 -188 1644 -184 ct 1654 -180 1663 -174 1670 -166 ct 
1676 -158 1681 -148 1685 -136 ct 1688 -124 1690 -110 1690 -94 ct p
1657 -94 m  1657 -108 1656 -120 1654 -129 ct 1651 -139 1648 -146 1644 -152 ct 
1639 -158 1634 -161 1628 -164 ct 1622 -166 1615 -167 1607 -167 ct 1599 -167 1592 -166 1585 -164 ct 
1579 -161 1574 -157 1569 -152 ct 1565 -146 1561 -138 1559 -129 ct 1557 -120 1555 -108 1555 -94 ct 
1555 -79 1557 -67 1559 -58 ct 1562 -48 1565 -41 1570 -35 ct 1574 -30 1579 -26 1585 -23 ct 
1591 -21 1598 -20 1605 -20 ct 1613 -20 1620 -21 1627 -23 ct 1633 -26 1638 -29 1643 -35 ct 
1647 -41 1651 -48 1653 -58 ct 1656 -67 1657 -79 1657 -94 ct p ef
1835 0 m  1835 -118 l  1835 -127 1835 -135 1833 -141 ct 1832 -147 1830 -152 1827 -156 ct 
1824 -160 1820 -162 1815 -164 ct 1810 -165 1804 -166 1797 -166 ct 1789 -166 1783 -165 1777 -162 ct 
1771 -160 1766 -156 1762 -151 ct 1757 -146 1754 -140 1752 -133 ct 1750 -126 1749 -117 1749 -108 ct 
1749 0 l  1717 0 l  1717 -147 l  1717 -151 1717 -155 1717 -159 ct 1717 -163 1717 -167 1717 -171 ct 
1717 -175 1717 -178 1717 -181 ct 1717 -184 1717 -186 1716 -187 ct 1746 -187 l 
1746 -186 1746 -184 1746 -182 ct 1746 -179 1746 -176 1747 -173 ct 1747 -170 1747 -167 1747 -163 ct 
1747 -160 1747 -157 1747 -155 ct 1748 -155 l  1751 -160 1754 -165 1757 -169 ct 
1761 -174 1765 -177 1770 -180 ct 1775 -183 1780 -186 1786 -188 ct 1792 -189 1799 -190 1807 -190 ct 
1818 -190 1827 -189 1834 -186 ct 1841 -184 1848 -180 1852 -174 ct 1857 -169 1861 -162 1863 -154 ct 
1865 -146 1866 -136 1866 -124 ct 1866 0 l  1835 0 l  p ef
1950 3 m  1932 3 1918 -2 1908 -12 ct 1899 -22 1894 -35 1894 -53 ct 1894 -65 1896 -75 1901 -83 ct 
1906 -91 1912 -97 1919 -102 ct 1927 -106 1935 -109 1945 -111 ct 1955 -113 1965 -114 1974 -114 ct 
2016 -114 l  2016 -124 l  2016 -132 2016 -138 2014 -144 ct 2012 -149 2010 -154 2007 -157 ct 
2003 -161 1999 -163 1994 -165 ct 1989 -166 1983 -167 1976 -167 ct 1970 -167 1965 -167 1960 -166 ct 
1955 -165 1951 -163 1948 -161 ct 1944 -159 1941 -156 1939 -152 ct 1937 -148 1935 -143 1935 -137 ct 
1902 -140 l  1903 -148 1906 -154 1909 -160 ct 1912 -167 1917 -172 1923 -176 ct 
1928 -181 1936 -184 1945 -187 ct 1954 -189 1964 -191 1977 -191 ct 2001 -191 2018 -185 2030 -175 ct 
2042 -164 2048 -148 2048 -128 ct 2048 -48 l  2048 -38 2049 -31 2051 -27 ct 2054 -22 2058 -20 2065 -20 ct 
2067 -20 2069 -20 2070 -20 ct 2072 -20 2074 -21 2075 -21 ct 2075 -2 l  2071 -1 2068 0 2064 0 ct 
2060 1 2056 1 2051 1 ct 2046 1 2040 0 2036 -1 ct 2032 -3 2029 -5 2026 -8 ct 2023 -11 2021 -15 2020 -20 ct 
2019 -25 2018 -30 2017 -36 ct 2016 -36 l  2013 -30 2009 -25 2005 -20 ct 2001 -15 1997 -11 1992 -8 ct 
1986 -4 1980 -2 1974 0 ct 1967 2 1959 3 1950 3 ct p
1957 -20 m  1967 -20 1976 -22 1983 -26 ct 1991 -29 1997 -34 2002 -39 ct 2007 -45 2010 -51 2013 -58 ct 
2015 -64 2016 -71 2016 -77 ct 2016 -92 l  1982 -92 l  1975 -92 1968 -92 1961 -91 ct 
1954 -90 1948 -88 1943 -85 ct 1938 -82 1934 -78 1930 -73 ct 1927 -67 1926 -61 1926 -52 ct 
1926 -42 1929 -34 1934 -29 ct 1940 -23 1947 -20 1957 -20 ct p ef
2206 0 m  2206 -118 l  2206 -127 2206 -135 2204 -141 ct 2203 -147 2201 -152 2198 -156 ct 
2195 -160 2191 -162 2186 -164 ct 2181 -165 2175 -166 2168 -166 ct 2160 -166 2154 -165 2148 -162 ct 
2142 -160 2137 -156 2133 -151 ct 2128 -146 2125 -140 2123 -133 ct 2121 -126 2120 -117 2120 -108 ct 
2120 0 l  2088 0 l  2088 -147 l  2088 -151 2088 -155 2088 -159 ct 2088 -163 2088 -167 2088 -171 ct 
2088 -175 2088 -178 2088 -181 ct 2088 -184 2088 -186 2087 -187 ct 2117 -187 l 
2117 -186 2117 -184 2117 -182 ct 2117 -179 2117 -176 2118 -173 ct 2118 -170 2118 -167 2118 -163 ct 
2118 -160 2118 -157 2118 -155 ct 2119 -155 l  2122 -160 2125 -165 2128 -169 ct 
2132 -174 2136 -177 2141 -180 ct 2146 -183 2151 -186 2157 -188 ct 2163 -189 2170 -190 2178 -190 ct 
2189 -190 2198 -189 2205 -186 ct 2212 -184 2219 -180 2223 -174 ct 2228 -169 2232 -162 2234 -154 ct 
2236 -146 2237 -136 2237 -124 ct 2237 0 l  2206 0 l  p ef
2273 -226 m  2273 -256 l  2304 -256 l  2304 -226 l  2273 -226 l  p
2273 0 m  2273 -187 l  2304 -187 l  2304 0 l  2273 0 l  p ef
2399 3 m  2381 3 2367 -2 2357 -12 ct 2348 -22 2343 -35 2343 -53 ct 2343 -65 2345 -75 2350 -83 ct 
2355 -91 2361 -97 2368 -102 ct 2376 -106 2384 -109 2394 -111 ct 2404 -113 2414 -114 2423 -114 ct 
2465 -114 l  2465 -124 l  2465 -132 2465 -138 2463 -144 ct 2461 -149 2459 -154 2456 -157 ct 
2452 -161 2448 -163 2443 -165 ct 2438 -166 2432 -167 2425 -167 ct 2419 -167 2414 -167 2409 -166 ct 
2404 -165 2400 -163 2397 -161 ct 2393 -159 2390 -156 2388 -152 ct 2386 -148 2384 -143 2384 -137 ct 
2351 -140 l  2352 -148 2355 -154 2358 -160 ct 2361 -167 2366 -172 2372 -176 ct 
2377 -181 2385 -184 2394 -187 ct 2403 -189 2413 -191 2426 -191 ct 2450 -191 2467 -185 2479 -175 ct 
2491 -164 2497 -148 2497 -128 ct 2497 -48 l  2497 -38 2498 -31 2500 -27 ct 2503 -22 2507 -20 2514 -20 ct 
2516 -20 2518 -20 2519 -20 ct 2521 -20 2523 -21 2524 -21 ct 2524 -2 l  2520 -1 2517 0 2513 0 ct 
2509 1 2505 1 2500 1 ct 2495 1 2489 0 2485 -1 ct 2481 -3 2478 -5 2475 -8 ct 2472 -11 2470 -15 2469 -20 ct 
2468 -25 2467 -30 2466 -36 ct 2465 -36 l  2462 -30 2458 -25 2454 -20 ct 2450 -15 2446 -11 2441 -8 ct 
2435 -4 2429 -2 2423 0 ct 2416 2 2408 3 2399 3 ct p
2406 -20 m  2416 -20 2425 -22 2432 -26 ct 2440 -29 2446 -34 2451 -39 ct 2456 -45 2459 -51 2462 -58 ct 
2464 -64 2465 -71 2465 -77 ct 2465 -92 l  2431 -92 l  2424 -92 2417 -92 2410 -91 ct 
2403 -90 2397 -88 2392 -85 ct 2387 -82 2383 -78 2379 -73 ct 2376 -67 2375 -61 2375 -52 ct 
2375 -42 2378 -34 2383 -29 ct 2389 -23 2396 -20 2406 -20 ct p ef
pom
0 9000 t 
pom
count op_count sub {pop} repeat countdictstack dict_count sub {end} repeat b4_inc_state restore
%%PageTrailer
%%Trailer
%%EOF
