%!PS-Adobe-3.0 EPSF-3.0 
%%BoundingBox: 0 0 454 255
%%Pages: 0
%%Creator: LibreOffice 4.2
%%Title: none
%%CreationDate: none
%%LanguageLevel: 2
%%EndComments
%%BeginProlog
%%BeginResource: procset SDRes-Prolog 1.0 0
/b4_inc_state save def
/dict_count countdictstack def
/op_count count 1 sub def
userdict begin
0 setgray 0 setlinecap 1 setlinewidth 0 setlinejoin 10 setmiterlimit[] 0 setdash newpath
/languagelevel where {pop languagelevel 1 ne {false setstrokeadjust false setoverprint} if} if
/bdef {bind def} bind def
/c {setrgbcolor} bdef
/l {neg lineto} bdef
/rl {neg rlineto} bdef
/lc {setlinecap} bdef
/lj {setlinejoin} bdef
/lw {setlinewidth} bdef
/ml {setmiterlimit} bdef
/ld {setdash} bdef
/m {neg moveto} bdef
/ct {6 2 roll neg 6 2 roll neg 6 2 roll neg curveto} bdef
/r {rotate} bdef
/t {neg translate} bdef
/s {scale} bdef
/sw {show} bdef
/gs {gsave} bdef
/gr {grestore} bdef
/f {findfont dup length dict begin
{1 index /FID ne {def} {pop pop} ifelse} forall /Encoding ISOLatin1Encoding def
currentdict end /NFont exch definefont pop /NFont findfont} bdef
/p {closepath} bdef
/sf {scalefont setfont} bdef
/ef {eofill}bdef
/pc {closepath stroke}bdef
/ps {stroke}bdef
/pum {matrix currentmatrix}bdef
/pom {setmatrix}bdef
/bs {/aString exch def /nXOfs exch def /nWidth exch def currentpoint nXOfs 0 rmoveto pum nWidth aString stringwidth pop div 1 scale aString show pom moveto} bdef
%%EndResource
%%EndProlog
%%BeginSetup
%%EndSetup
%%Page: 1 1
%%BeginPageSetup
%%EndPageSetup
pum
0.02837 0.02833 s 
0 -9000 t
/tm matrix currentmatrix def
tm setmatrix
-10798 -14947 t 
1 1 s 
1.000 1.000 1.000 c 18798 23946 m  10798 23946 l  10798 14947 l  26797 14947 l 
26797 23946 l  18798 23946 l  p ef
0 lw 1 lj 0.703 0.703 0.703 c 17986 23119 m  11739 23119 l  11739 15326 l 
24232 15326 l  24232 23119 l  17986 23119 l  pc
24232 23118 m  11739 23118 l  ps
24232 22143 m  11739 22143 l  ps
24232 21169 m  11739 21169 l  ps
24232 20195 m  11739 20195 l  ps
24232 19222 m  11739 19222 l  ps
24232 18247 m  11739 18247 l  ps
24232 17273 m  11739 17273 l  ps
24232 16299 m  11739 16299 l  ps
24232 15325 m  11739 15325 l  ps
11739 23268 m  11739 23118 l  ps
11739 23268 m  11739 23118 l  ps
12631 23268 m  12631 23118 l  ps
12631 23268 m  12631 23118 l  ps
13523 23268 m  13523 23118 l  ps
13523 23268 m  13523 23118 l  ps
14416 23268 m  14416 23118 l  ps
14416 23268 m  14416 23118 l  ps
15308 23268 m  15308 23118 l  ps
15308 23268 m  15308 23118 l  ps
16201 23268 m  16201 23118 l  ps
16201 23268 m  16201 23118 l  ps
17093 23268 m  17093 23118 l  ps
17093 23268 m  17093 23118 l  ps
17986 23268 m  17986 23118 l  ps
17986 23268 m  17986 23118 l  ps
18877 23268 m  18877 23118 l  ps
18877 23268 m  18877 23118 l  ps
19769 23268 m  19769 23118 l  ps
19769 23268 m  19769 23118 l  ps
20662 23268 m  20662 23118 l  ps
20662 23268 m  20662 23118 l  ps
21554 23268 m  21554 23118 l  ps
21554 23268 m  21554 23118 l  ps
22447 23268 m  22447 23118 l  ps
22447 23268 m  22447 23118 l  ps
23339 23268 m  23339 23118 l  ps
23339 23268 m  23339 23118 l  ps
24232 23268 m  24232 23118 l  ps
24232 23268 m  24232 23118 l  ps
11739 23118 m  24232 23118 l  ps
11589 23118 m  11739 23118 l  ps
11589 23118 m  11739 23118 l  ps
11589 22143 m  11739 22143 l  ps
11589 22143 m  11739 22143 l  ps
11589 21169 m  11739 21169 l  ps
11589 21169 m  11739 21169 l  ps
11589 20195 m  11739 20195 l  ps
11589 20195 m  11739 20195 l  ps
11589 19222 m  11739 19222 l  ps
11589 19222 m  11739 19222 l  ps
11589 18247 m  11739 18247 l  ps
11589 18247 m  11739 18247 l  ps
11589 17273 m  11739 17273 l  ps
11589 17273 m  11739 17273 l  ps
11589 16299 m  11739 16299 l  ps
11589 16299 m  11739 16299 l  ps
11589 15325 m  11739 15325 l  ps
11589 15325 m  11739 15325 l  ps
11739 23118 m  11739 15325 l  ps
79.995 lw 0.003 0.273 0.527 c 11739 22630 m  12631 22143 l  13523 21656 l 
14416 21169 l  15308 20682 l  16201 20195 l  17093 19708 l  17986 19222 l 
18877 18734 l  19769 18247 l  20662 17760 l  21554 17273 l  22447 16786 l 
23339 16299 l  24232 15812 l  ps
11614 22505 m  11614 22755 l  11864 22755 l  11864 22505 l  11614 22505 l 
p ef
0 lw 11614 22505 m  11614 22755 l  11864 22755 l  11864 22505 l  11614 22505 l 
pc
12506 22018 m  12506 22268 l  12756 22268 l  12756 22018 l  12506 22018 l 
p ef
12506 22018 m  12506 22268 l  12756 22268 l  12756 22018 l  12506 22018 l 
pc
13398 21531 m  13398 21781 l  13648 21781 l  13648 21531 l  13398 21531 l 
p ef
13398 21531 m  13398 21781 l  13648 21781 l  13648 21531 l  13398 21531 l 
pc
14291 21044 m  14291 21294 l  14541 21294 l  14541 21044 l  14291 21044 l 
p ef
14291 21044 m  14291 21294 l  14541 21294 l  14541 21044 l  14291 21044 l 
pc
15183 20557 m  15183 20807 l  15433 20807 l  15433 20557 l  15183 20557 l 
p ef
15183 20557 m  15183 20807 l  15433 20807 l  15433 20557 l  15183 20557 l 
pc
16076 20070 m  16076 20320 l  16326 20320 l  16326 20070 l  16076 20070 l 
p ef
16076 20070 m  16076 20320 l  16326 20320 l  16326 20070 l  16076 20070 l 
pc
16968 19583 m  16968 19833 l  17218 19833 l  17218 19583 l  16968 19583 l 
p ef
16968 19583 m  16968 19833 l  17218 19833 l  17218 19583 l  16968 19583 l 
pc
17861 19097 m  17861 19347 l  18111 19347 l  18111 19097 l  17861 19097 l 
p ef
17861 19097 m  17861 19347 l  18111 19347 l  18111 19097 l  17861 19097 l 
pc
18753 18609 m  18753 18859 l  19002 18859 l  19002 18609 l  18753 18609 l 
p ef
18753 18609 m  18753 18859 l  19002 18859 l  19002 18609 l  18753 18609 l 
pc
19644 18122 m  19644 18372 l  19894 18372 l  19894 18122 l  19644 18122 l 
p ef
19644 18122 m  19644 18372 l  19894 18372 l  19894 18122 l  19644 18122 l 
pc
20537 17635 m  20537 17885 l  20787 17885 l  20787 17635 l  20537 17635 l 
p ef
20537 17635 m  20537 17885 l  20787 17885 l  20787 17635 l  20537 17635 l 
pc
21429 17148 m  21429 17398 l  21679 17398 l  21679 17148 l  21429 17148 l 
p ef
21429 17148 m  21429 17398 l  21679 17398 l  21679 17148 l  21429 17148 l 
pc
22322 16661 m  22322 16911 l  22572 16911 l  22572 16661 l  22322 16661 l 
p ef
22322 16661 m  22322 16911 l  22572 16911 l  22572 16661 l  22322 16661 l 
pc
23214 16174 m  23214 16424 l  23464 16424 l  23464 16174 l  23214 16174 l 
p ef
23214 16174 m  23214 16424 l  23464 16424 l  23464 16174 l  23214 16174 l 
pc
24107 15687 m  24107 15937 l  24357 15937 l  24357 15687 l  24107 15687 l 
p ef
24107 15687 m  24107 15937 l  24357 15937 l  24357 15687 l  24107 15687 l 
pc
79.995 lw 1.000 0.261 0.058 c 11739 22630 m  12631 22129 l  13523 21642 l 
14416 21291 l  15308 21087 l  16201 21024 l  17093 20961 l  17986 20913 l 
18877 20913 l  19769 20912 l  20662 20910 l  21554 20918 l  22447 20919 l 
23339 20941 l  24232 20915 l  ps
11614 22630 m  11739 22755 l  11864 22630 l  11739 22505 l  11614 22630 l 
p ef
0 lw 11614 22630 m  11739 22755 l  11864 22630 l  11739 22505 l  11614 22630 l 
pc
12506 22129 m  12631 22254 l  12756 22129 l  12631 22004 l  12506 22129 l 
p ef
12506 22129 m  12631 22254 l  12756 22129 l  12631 22004 l  12506 22129 l 
pc
13398 21642 m  13523 21767 l  13648 21642 l  13523 21517 l  13398 21642 l 
p ef
13398 21642 m  13523 21767 l  13648 21642 l  13523 21517 l  13398 21642 l 
pc
14291 21291 m  14416 21416 l  14541 21291 l  14416 21166 l  14291 21291 l 
p ef
14291 21291 m  14416 21416 l  14541 21291 l  14416 21166 l  14291 21291 l 
pc
15183 21087 m  15308 21212 l  15433 21087 l  15308 20962 l  15183 21087 l 
p ef
15183 21087 m  15308 21212 l  15433 21087 l  15308 20962 l  15183 21087 l 
pc
16076 21024 m  16201 21149 l  16326 21024 l  16201 20899 l  16076 21024 l 
p ef
16076 21024 m  16201 21149 l  16326 21024 l  16201 20899 l  16076 21024 l 
pc
16968 20961 m  17093 21086 l  17218 20961 l  17093 20836 l  16968 20961 l 
p ef
16968 20961 m  17093 21086 l  17218 20961 l  17093 20836 l  16968 20961 l 
pc
17861 20913 m  17986 21038 l  18111 20913 l  17986 20788 l  17861 20913 l 
p ef
17861 20913 m  17986 21038 l  18111 20913 l  17986 20788 l  17861 20913 l 
pc
18753 20913 m  18877 21038 l  19002 20913 l  18877 20788 l  18753 20913 l 
p ef
18753 20913 m  18877 21038 l  19002 20913 l  18877 20788 l  18753 20913 l 
pc
19644 20912 m  19769 21037 l  19894 20912 l  19769 20787 l  19644 20912 l 
p ef
19644 20912 m  19769 21037 l  19894 20912 l  19769 20787 l  19644 20912 l 
pc
20537 20910 m  20662 21035 l  20787 20910 l  20662 20785 l  20537 20910 l 
p ef
20537 20910 m  20662 21035 l  20787 20910 l  20662 20785 l  20537 20910 l 
pc
21429 20918 m  21554 21043 l  21679 20918 l  21554 20793 l  21429 20918 l 
p ef
21429 20918 m  21554 21043 l  21679 20918 l  21554 20793 l  21429 20918 l 
pc
22322 20919 m  22447 21044 l  22572 20919 l  22447 20794 l  22322 20919 l 
p ef
22322 20919 m  22447 21044 l  22572 20919 l  22447 20794 l  22322 20919 l 
pc
23214 20941 m  23339 21066 l  23464 20941 l  23339 20816 l  23214 20941 l 
p ef
23214 20941 m  23339 21066 l  23464 20941 l  23339 20816 l  23214 20941 l 
pc
24107 20915 m  24232 21040 l  24357 20915 l  24232 20790 l  24107 20915 l 
p ef
24107 20915 m  24232 21040 l  24357 20915 l  24232 20790 l  24107 20915 l 
pc
pum
11646 23686 t
0.003 0.003 0.003 c 27 0 m  27 -26 l  89 -26 l  89 -213 l  34 -174 l  34 -204 l 
91 -243 l  120 -243 l  120 -26 l  179 -26 l  179 0 l  27 0 l  p ef
pom
pum
12538 23686 t
18 0 m  18 -22 l  24 -35 31 -47 39 -58 ct 48 -68 57 -77 66 -85 ct 75 -94 84 -101 94 -109 ct 
103 -116 111 -123 118 -130 ct 126 -137 132 -145 136 -152 ct 141 -160 143 -169 143 -179 ct 
143 -186 142 -192 140 -197 ct 138 -202 135 -207 131 -210 ct 127 -214 122 -217 117 -218 ct 
111 -220 105 -221 99 -221 ct 92 -221 87 -220 81 -218 ct 76 -217 71 -214 67 -211 ct 
62 -207 59 -203 56 -198 ct 53 -193 52 -187 51 -180 ct 19 -183 l  20 -192 23 -200 26 -208 ct 
30 -215 35 -222 42 -228 ct 49 -234 57 -238 66 -242 ct 75 -245 86 -247 99 -247 ct 
111 -247 121 -245 131 -242 ct 140 -239 148 -235 155 -229 ct 161 -224 166 -217 170 -209 ct 
173 -200 175 -191 175 -180 ct 175 -172 173 -164 170 -157 ct 167 -149 164 -142 159 -136 ct 
154 -129 148 -123 142 -116 ct 135 -110 129 -104 122 -98 ct 115 -92 107 -86 100 -81 ct 
93 -75 87 -69 80 -63 ct 74 -57 68 -51 63 -45 ct 58 -39 55 -33 52 -26 ct 179 -26 l 
179 0 l  18 0 l  p ef
pom
pum
13430 23686 t
181 -68 m  181 -57 179 -47 175 -38 ct 172 -29 166 -22 160 -16 ct 153 -10 144 -5 134 -2 ct 
123 1 112 3 98 3 ct 83 3 71 1 60 -3 ct 50 -6 42 -11 35 -17 ct 28 -24 23 -31 20 -39 ct 
17 -46 14 -55 13 -63 ct 46 -66 l  46 -60 48 -54 51 -48 ct 53 -43 56 -38 61 -35 ct 
65 -31 70 -28 76 -26 ct 83 -24 90 -23 98 -23 ct 114 -23 126 -27 135 -34 ct 144 -42 149 -54 149 -69 ct 
149 -78 147 -85 143 -90 ct 139 -96 134 -100 128 -103 ct 122 -106 115 -108 109 -109 ct 
102 -110 95 -111 89 -111 ct 72 -111 l  72 -138 l  89 -138 l  94 -138 101 -139 107 -140 ct 
113 -141 119 -143 124 -146 ct 129 -149 134 -154 137 -159 ct 141 -164 142 -171 142 -180 ct 
142 -193 138 -203 131 -210 ct 123 -218 112 -221 97 -221 ct 83 -221 72 -218 64 -211 ct 
55 -204 50 -194 49 -182 ct 18 -184 l  19 -195 22 -204 26 -212 ct 31 -220 37 -226 44 -231 ct 
51 -237 59 -241 68 -243 ct 77 -246 87 -247 97 -247 ct 111 -247 122 -245 132 -242 ct 
142 -239 150 -234 156 -228 ct 162 -222 167 -216 170 -208 ct 173 -200 174 -192 174 -183 ct 
174 -176 173 -169 171 -163 ct 169 -157 166 -151 162 -146 ct 158 -141 153 -137 146 -134 ct 
140 -130 132 -127 123 -125 ct 123 -125 l  133 -124 142 -122 149 -118 ct 156 -115 162 -111 167 -105 ct 
171 -100 175 -95 177 -88 ct 180 -82 181 -75 181 -68 ct p ef
pom
pum
14323 23686 t
152 -55 m  152 0 l  123 0 l  123 -55 l  8 -55 l  8 -79 l  119 -243 l  152 -243 l 
152 -79 l  186 -79 l  186 -55 l  152 -55 l  p
123 -208 m  122 -207 122 -206 121 -205 ct 120 -203 119 -201 118 -199 ct 117 -197 115 -195 114 -193 ct 
113 -191 112 -189 111 -187 ct 49 -96 l  48 -95 47 -94 46 -92 ct 45 -91 44 -89 43 -88 ct 
42 -86 41 -84 39 -83 ct 38 -81 37 -80 37 -79 ct 123 -79 l  123 -208 l  p ef
pom
pum
15215 23686 t
182 -80 m  182 -67 180 -56 176 -46 ct 172 -36 167 -27 160 -20 ct 152 -13 143 -7 133 -3 ct 
122 1 109 3 95 3 ct 83 3 71 1 62 -1 ct 52 -4 44 -9 38 -14 ct 31 -19 26 -25 22 -32 ct 
18 -39 16 -47 14 -55 ct 46 -58 l  47 -54 49 -49 51 -45 ct 53 -41 56 -37 60 -33 ct 
64 -30 69 -27 75 -25 ct 81 -23 88 -22 96 -22 ct 104 -22 111 -24 118 -26 ct 124 -29 130 -32 135 -37 ct 
139 -42 143 -48 145 -55 ct 148 -62 149 -70 149 -79 ct 149 -86 148 -93 146 -99 ct 
143 -106 140 -111 135 -116 ct 131 -120 125 -124 119 -126 ct 112 -129 105 -130 97 -130 ct 
92 -130 87 -130 82 -129 ct 78 -128 74 -126 70 -125 ct 67 -123 63 -121 60 -119 ct 
57 -117 54 -115 52 -113 ct 21 -113 l  29 -243 l  167 -243 l  167 -217 l  58 -217 l 
53 -140 l  58 -144 65 -148 74 -151 ct 82 -154 92 -155 103 -155 ct 115 -155 126 -154 136 -150 ct 
145 -146 154 -141 160 -134 ct 167 -128 172 -120 176 -110 ct 180 -101 182 -91 182 -80 ct 
p ef
pom
pum
16108 23686 t
181 -80 m  181 -68 179 -57 176 -47 ct 172 -36 167 -28 161 -20 ct 154 -13 146 -7 136 -3 ct 
126 1 115 3 102 3 ct 88 3 76 0 65 -5 ct 55 -11 46 -18 39 -28 ct 32 -39 27 -51 23 -66 ct 
20 -81 18 -97 18 -116 ct 18 -138 20 -157 24 -173 ct 28 -190 34 -203 41 -214 ct 
48 -225 58 -233 68 -239 ct 79 -244 91 -247 105 -247 ct 113 -247 121 -246 128 -244 ct 
135 -243 142 -240 148 -236 ct 154 -232 159 -227 163 -221 ct 168 -215 171 -207 174 -198 ct 
144 -192 l  141 -203 136 -210 129 -215 ct 122 -220 114 -222 104 -222 ct 96 -222 88 -220 81 -216 ct 
74 -212 69 -206 64 -198 ct 59 -190 55 -180 53 -168 ct 50 -156 49 -142 49 -126 ct 
54 -136 62 -144 73 -150 ct 83 -155 95 -158 108 -158 ct 119 -158 129 -156 138 -153 ct 
147 -149 154 -144 161 -137 ct 167 -130 172 -122 176 -113 ct 179 -103 181 -92 181 -80 ct 
p
149 -79 m  149 -87 148 -95 146 -102 ct 144 -108 141 -114 137 -119 ct 133 -124 128 -128 122 -130 ct 
115 -133 108 -134 100 -134 ct 95 -134 89 -133 83 -131 ct 78 -130 72 -127 68 -123 ct 
63 -120 59 -115 56 -109 ct 53 -102 52 -95 52 -86 ct 52 -77 53 -69 55 -61 ct 58 -53 61 -46 65 -41 ct 
70 -35 75 -30 81 -27 ct 87 -24 94 -22 101 -22 ct 109 -22 116 -23 121 -26 ct 127 -29 132 -32 137 -37 ct 
141 -42 144 -48 146 -55 ct 148 -62 149 -70 149 -79 ct p ef
pom
pum
17000 23686 t
179 -218 m  166 -200 155 -182 145 -165 ct 135 -147 126 -130 119 -113 ct 111 -95 106 -77 101 -59 ct 
97 -41 95 -21 95 -1 ct 63 -1 l  63 -20 65 -39 70 -58 ct 74 -76 81 -95 88 -113 ct 
96 -131 105 -148 116 -166 ct 126 -183 137 -200 149 -217 ct 18 -217 l  18 -243 l 
179 -243 l  179 -218 l  p ef
pom
pum
17893 23686 t
181 -68 m  181 -58 179 -48 176 -40 ct 173 -31 168 -24 161 -17 ct 154 -11 146 -6 135 -2 ct 
125 1 113 3 98 3 ct 84 3 72 1 61 -2 ct 51 -6 42 -11 35 -17 ct 29 -23 24 -31 20 -40 ct 
17 -48 15 -58 15 -68 ct 15 -77 17 -85 19 -92 ct 22 -98 26 -104 30 -109 ct 35 -114 40 -118 46 -121 ct 
52 -125 58 -127 64 -128 ct 64 -128 l  57 -130 51 -132 46 -136 ct 40 -140 36 -144 32 -149 ct 
29 -154 26 -159 24 -166 ct 22 -172 21 -178 21 -185 ct 21 -193 23 -201 26 -209 ct 
29 -216 34 -223 41 -229 ct 47 -234 55 -239 64 -242 ct 74 -245 85 -247 98 -247 ct 
111 -247 122 -245 132 -242 ct 142 -239 150 -234 156 -228 ct 162 -223 167 -216 170 -209 ct 
173 -201 175 -193 175 -184 ct 175 -178 174 -171 172 -165 ct 170 -159 167 -154 164 -149 ct 
160 -144 156 -139 150 -136 ct 145 -132 139 -130 132 -129 ct 132 -128 l  139 -127 145 -125 151 -122 ct 
157 -119 162 -115 167 -110 ct 171 -105 175 -99 177 -92 ct 180 -85 181 -77 181 -68 ct 
p
143 -183 m  143 -189 142 -194 140 -199 ct 139 -204 136 -209 133 -212 ct 129 -216 125 -219 119 -221 ct 
113 -223 106 -224 98 -224 ct 89 -224 83 -223 77 -221 ct 71 -219 67 -216 63 -212 ct 
59 -209 57 -204 55 -199 ct 54 -194 53 -189 53 -183 ct 53 -178 53 -173 55 -168 ct 
56 -163 58 -158 62 -154 ct 65 -150 69 -147 75 -144 ct 81 -141 89 -140 98 -140 ct 
108 -140 116 -141 121 -144 ct 127 -147 132 -150 135 -154 ct 138 -158 140 -163 141 -168 ct 
142 -173 143 -178 143 -183 ct p
149 -71 m  149 -77 148 -83 146 -88 ct 145 -94 142 -98 138 -103 ct 134 -107 129 -110 122 -113 ct 
116 -115 107 -117 98 -117 ct 88 -117 81 -115 74 -113 ct 68 -110 63 -107 59 -103 ct 
55 -98 52 -93 50 -88 ct 48 -82 47 -76 47 -70 ct 47 -63 48 -56 50 -50 ct 52 -44 55 -39 59 -34 ct 
63 -30 68 -26 75 -24 ct 81 -21 89 -20 99 -20 ct 108 -20 116 -21 122 -24 ct 129 -26 134 -30 138 -34 ct 
142 -39 145 -44 146 -50 ct 148 -56 149 -63 149 -71 ct p ef
pom
pum
18785 23686 t
180 -127 m  180 -105 178 -86 173 -70 ct 169 -54 164 -40 156 -29 ct 148 -19 139 -11 128 -5 ct 
117 0 105 3 92 3 ct 82 3 74 2 67 0 ct 59 -2 52 -5 47 -9 ct 41 -13 36 -18 32 -24 ct 
27 -31 24 -39 22 -48 ct 51 -52 l  54 -42 59 -34 66 -29 ct 73 -24 82 -22 92 -22 ct 
101 -22 108 -24 115 -28 ct 122 -32 128 -38 133 -46 ct 138 -54 142 -64 144 -76 ct 
147 -88 149 -102 149 -118 ct 147 -112 143 -108 139 -103 ct 135 -99 130 -95 125 -93 ct 
119 -90 114 -87 107 -86 ct 101 -84 95 -84 89 -84 ct 78 -84 68 -86 59 -89 ct 50 -93 42 -99 36 -106 ct 
30 -113 25 -122 22 -132 ct 18 -142 17 -153 17 -165 ct 17 -178 18 -189 22 -199 ct 
26 -209 31 -218 38 -225 ct 45 -232 53 -238 63 -241 ct 73 -245 85 -247 97 -247 ct 
124 -247 145 -237 159 -217 ct 173 -197 180 -167 180 -127 ct p
146 -157 m  146 -166 145 -174 143 -182 ct 141 -190 137 -197 133 -203 ct 129 -209 124 -213 118 -217 ct 
112 -220 104 -222 96 -222 ct 89 -222 82 -221 76 -218 ct 70 -215 65 -211 61 -207 ct 
57 -202 54 -196 51 -189 ct 49 -182 48 -174 48 -165 ct 48 -157 49 -150 51 -143 ct 
53 -136 56 -130 60 -124 ct 64 -119 69 -115 75 -112 ct 81 -109 88 -108 96 -108 ct 
102 -108 108 -109 114 -111 ct 119 -113 125 -116 130 -120 ct 134 -124 138 -129 141 -135 ct 
144 -141 146 -149 146 -157 ct p ef
pom
pum
19585 23686 t
27 0 m  27 -26 l  89 -26 l  89 -213 l  34 -174 l  34 -204 l  91 -243 l 
120 -243 l  120 -26 l  179 -26 l  179 0 l  27 0 l  p ef
368 -122 m  368 -99 365 -79 361 -63 ct 356 -47 350 -34 343 -25 ct 335 -15 326 -8 316 -3 ct 
305 1 294 3 283 3 ct 271 3 260 1 250 -3 ct 239 -8 231 -15 223 -24 ct 215 -34 210 -47 205 -63 ct 
201 -79 199 -99 199 -122 ct 199 -146 201 -167 205 -183 ct 210 -199 216 -212 223 -221 ct 
231 -231 240 -237 250 -241 ct 260 -245 272 -247 284 -247 ct 295 -247 306 -245 316 -241 ct 
327 -237 335 -231 343 -221 ct 351 -212 357 -199 361 -183 ct 365 -167 368 -146 368 -122 ct 
p
336 -122 m  336 -141 335 -157 333 -170 ct 330 -183 327 -193 322 -201 ct 318 -209 312 -214 306 -217 ct 
299 -220 292 -222 284 -222 ct 275 -222 267 -220 261 -217 ct 254 -214 248 -208 244 -201 ct 
239 -193 236 -183 234 -170 ct 231 -157 230 -141 230 -122 ct 230 -103 231 -88 234 -75 ct 
236 -62 239 -52 244 -44 ct 249 -36 254 -31 261 -27 ct 267 -24 275 -22 283 -22 ct 
291 -22 299 -24 305 -27 ct 312 -31 317 -36 322 -44 ct 326 -52 330 -62 332 -75 ct 
335 -88 336 -103 336 -122 ct p ef
pom
pum
20478 23686 t
27 0 m  27 -26 l  89 -26 l  89 -213 l  34 -174 l  34 -204 l  91 -243 l 
120 -243 l  120 -26 l  179 -26 l  179 0 l  27 0 l  p ef
212 0 m  212 -26 l  274 -26 l  274 -213 l  219 -174 l  219 -204 l  276 -243 l 
305 -243 l  305 -26 l  364 -26 l  364 0 l  212 0 l  p ef
pom
pum
21370 23686 t
27 0 m  27 -26 l  89 -26 l  89 -213 l  34 -174 l  34 -204 l  91 -243 l 
120 -243 l  120 -26 l  179 -26 l  179 0 l  27 0 l  p ef
203 0 m  203 -22 l  209 -35 216 -47 224 -58 ct 233 -68 242 -77 251 -85 ct 260 -94 269 -101 279 -109 ct 
288 -116 296 -123 303 -130 ct 311 -137 317 -145 321 -152 ct 326 -160 328 -169 328 -179 ct 
328 -186 327 -192 325 -197 ct 323 -202 320 -207 316 -210 ct 312 -214 307 -217 302 -218 ct 
296 -220 290 -221 284 -221 ct 277 -221 272 -220 266 -218 ct 261 -217 256 -214 252 -211 ct 
247 -207 244 -203 241 -198 ct 238 -193 237 -187 236 -180 ct 204 -183 l  205 -192 208 -200 211 -208 ct 
215 -215 220 -222 227 -228 ct 234 -234 242 -238 251 -242 ct 260 -245 271 -247 284 -247 ct 
296 -247 306 -245 316 -242 ct 325 -239 333 -235 340 -229 ct 346 -224 351 -217 355 -209 ct 
358 -200 360 -191 360 -180 ct 360 -172 358 -164 355 -157 ct 352 -149 349 -142 344 -136 ct 
339 -129 333 -123 327 -116 ct 320 -110 314 -104 307 -98 ct 300 -92 292 -86 285 -81 ct 
278 -75 272 -69 265 -63 ct 259 -57 253 -51 248 -45 ct 243 -39 240 -33 237 -26 ct 
364 -26 l  364 0 l  203 0 l  p ef
pom
pum
22263 23686 t
27 0 m  27 -26 l  89 -26 l  89 -213 l  34 -174 l  34 -204 l  91 -243 l 
120 -243 l  120 -26 l  179 -26 l  179 0 l  27 0 l  p ef
366 -68 m  366 -57 364 -47 360 -38 ct 357 -29 351 -22 345 -16 ct 338 -10 329 -5 319 -2 ct 
308 1 297 3 283 3 ct 268 3 256 1 245 -3 ct 235 -6 227 -11 220 -17 ct 213 -24 208 -31 205 -39 ct 
202 -46 199 -55 198 -63 ct 231 -66 l  231 -60 233 -54 236 -48 ct 238 -43 241 -38 246 -35 ct 
250 -31 255 -28 261 -26 ct 268 -24 275 -23 283 -23 ct 299 -23 311 -27 320 -34 ct 
329 -42 334 -54 334 -69 ct 334 -78 332 -85 328 -90 ct 324 -96 319 -100 313 -103 ct 
307 -106 300 -108 294 -109 ct 287 -110 280 -111 274 -111 ct 257 -111 l  257 -138 l 
274 -138 l  279 -138 286 -139 292 -140 ct 298 -141 304 -143 309 -146 ct 314 -149 319 -154 322 -159 ct 
326 -164 327 -171 327 -180 ct 327 -193 323 -203 316 -210 ct 308 -218 297 -221 282 -221 ct 
268 -221 257 -218 249 -211 ct 240 -204 235 -194 234 -182 ct 203 -184 l  204 -195 207 -204 211 -212 ct 
216 -220 222 -226 229 -231 ct 236 -237 244 -241 253 -243 ct 262 -246 272 -247 282 -247 ct 
296 -247 307 -245 317 -242 ct 327 -239 335 -234 341 -228 ct 347 -222 352 -216 355 -208 ct 
358 -200 359 -192 359 -183 ct 359 -176 358 -169 356 -163 ct 354 -157 351 -151 347 -146 ct 
343 -141 338 -137 331 -134 ct 325 -130 317 -127 308 -125 ct 308 -125 l  318 -124 327 -122 334 -118 ct 
341 -115 347 -111 352 -105 ct 356 -100 360 -95 362 -88 ct 365 -82 366 -75 366 -68 ct 
p ef
pom
pum
23155 23686 t
27 0 m  27 -26 l  89 -26 l  89 -213 l  34 -174 l  34 -204 l  91 -243 l 
120 -243 l  120 -26 l  179 -26 l  179 0 l  27 0 l  p ef
337 -55 m  337 0 l  308 0 l  308 -55 l  193 -55 l  193 -79 l  304 -243 l 
337 -243 l  337 -79 l  371 -79 l  371 -55 l  337 -55 l  p
308 -208 m  307 -207 307 -206 306 -205 ct 305 -203 304 -201 303 -199 ct 302 -197 300 -195 299 -193 ct 
298 -191 297 -189 296 -187 ct 234 -96 l  233 -95 232 -94 231 -92 ct 230 -91 229 -89 228 -88 ct 
227 -86 226 -84 224 -83 ct 223 -81 222 -80 222 -79 ct 308 -79 l  308 -208 l 
p ef
pom
pum
24048 23686 t
27 0 m  27 -26 l  89 -26 l  89 -213 l  34 -174 l  34 -204 l  91 -243 l 
120 -243 l  120 -26 l  179 -26 l  179 0 l  27 0 l  p ef
367 -80 m  367 -67 365 -56 361 -46 ct 357 -36 352 -27 345 -20 ct 337 -13 328 -7 318 -3 ct 
307 1 294 3 280 3 ct 268 3 256 1 247 -1 ct 237 -4 229 -9 223 -14 ct 216 -19 211 -25 207 -32 ct 
203 -39 201 -47 199 -55 ct 231 -58 l  232 -54 234 -49 236 -45 ct 238 -41 241 -37 245 -33 ct 
249 -30 254 -27 260 -25 ct 266 -23 273 -22 281 -22 ct 289 -22 296 -24 303 -26 ct 
309 -29 315 -32 320 -37 ct 324 -42 328 -48 330 -55 ct 333 -62 334 -70 334 -79 ct 
334 -86 333 -93 331 -99 ct 328 -106 325 -111 320 -116 ct 316 -120 310 -124 304 -126 ct 
297 -129 290 -130 282 -130 ct 277 -130 272 -130 267 -129 ct 263 -128 259 -126 255 -125 ct 
252 -123 248 -121 245 -119 ct 242 -117 239 -115 237 -113 ct 206 -113 l  214 -243 l 
352 -243 l  352 -217 l  243 -217 l  238 -140 l  243 -144 250 -148 259 -151 ct 
267 -154 277 -155 288 -155 ct 300 -155 311 -154 321 -150 ct 330 -146 339 -141 345 -134 ct 
352 -128 357 -120 361 -110 ct 365 -101 367 -91 367 -80 ct p ef
pom
pum
11304 23239 t
183 -122 m  183 -99 180 -79 176 -63 ct 171 -47 165 -34 158 -25 ct 150 -15 141 -8 131 -3 ct 
120 1 109 3 98 3 ct 86 3 75 1 65 -3 ct 54 -8 46 -15 38 -24 ct 30 -34 25 -47 20 -63 ct 
16 -79 14 -99 14 -122 ct 14 -146 16 -167 20 -183 ct 25 -199 31 -212 38 -221 ct 
46 -231 55 -237 65 -241 ct 75 -245 87 -247 99 -247 ct 110 -247 121 -245 131 -241 ct 
142 -237 150 -231 158 -221 ct 166 -212 172 -199 176 -183 ct 180 -167 183 -146 183 -122 ct 
p
151 -122 m  151 -141 150 -157 148 -170 ct 145 -183 142 -193 137 -201 ct 133 -209 127 -214 121 -217 ct 
114 -220 107 -222 99 -222 ct 90 -222 82 -220 76 -217 ct 69 -214 63 -208 59 -201 ct 
54 -193 51 -183 49 -170 ct 46 -157 45 -141 45 -122 ct 45 -103 46 -88 49 -75 ct 
51 -62 54 -52 59 -44 ct 64 -36 69 -31 76 -27 ct 82 -24 90 -22 98 -22 ct 106 -22 114 -24 120 -27 ct 
127 -31 132 -36 137 -44 ct 141 -52 145 -62 147 -75 ct 150 -88 151 -103 151 -122 ct 
p ef
pom
pum
11304 22264 t
18 0 m  18 -22 l  24 -35 31 -47 39 -58 ct 48 -68 57 -77 66 -85 ct 75 -94 84 -101 94 -109 ct 
103 -116 111 -123 118 -130 ct 126 -137 132 -145 136 -152 ct 141 -160 143 -169 143 -179 ct 
143 -186 142 -192 140 -197 ct 138 -202 135 -207 131 -210 ct 127 -214 122 -217 117 -218 ct 
111 -220 105 -221 99 -221 ct 92 -221 87 -220 81 -218 ct 76 -217 71 -214 67 -211 ct 
62 -207 59 -203 56 -198 ct 53 -193 52 -187 51 -180 ct 19 -183 l  20 -192 23 -200 26 -208 ct 
30 -215 35 -222 42 -228 ct 49 -234 57 -238 66 -242 ct 75 -245 86 -247 99 -247 ct 
111 -247 121 -245 131 -242 ct 140 -239 148 -235 155 -229 ct 161 -224 166 -217 170 -209 ct 
173 -200 175 -191 175 -180 ct 175 -172 173 -164 170 -157 ct 167 -149 164 -142 159 -136 ct 
154 -129 148 -123 142 -116 ct 135 -110 129 -104 122 -98 ct 115 -92 107 -86 100 -81 ct 
93 -75 87 -69 80 -63 ct 74 -57 68 -51 63 -45 ct 58 -39 55 -33 52 -26 ct 179 -26 l 
179 0 l  18 0 l  p ef
pom
pum
11304 21290 t
152 -55 m  152 0 l  123 0 l  123 -55 l  8 -55 l  8 -79 l  119 -243 l  152 -243 l 
152 -79 l  186 -79 l  186 -55 l  152 -55 l  p
123 -208 m  122 -207 122 -206 121 -205 ct 120 -203 119 -201 118 -199 ct 117 -197 115 -195 114 -193 ct 
113 -191 112 -189 111 -187 ct 49 -96 l  48 -95 47 -94 46 -92 ct 45 -91 44 -89 43 -88 ct 
42 -86 41 -84 39 -83 ct 38 -81 37 -80 37 -79 ct 123 -79 l  123 -208 l  p ef
pom
pum
11304 20316 t
181 -80 m  181 -68 179 -57 176 -47 ct 172 -36 167 -28 161 -20 ct 154 -13 146 -7 136 -3 ct 
126 1 115 3 102 3 ct 88 3 76 0 65 -5 ct 55 -11 46 -18 39 -28 ct 32 -39 27 -51 23 -66 ct 
20 -81 18 -97 18 -116 ct 18 -138 20 -157 24 -173 ct 28 -190 34 -203 41 -214 ct 
48 -225 58 -233 68 -239 ct 79 -244 91 -247 105 -247 ct 113 -247 121 -246 128 -244 ct 
135 -243 142 -240 148 -236 ct 154 -232 159 -227 163 -221 ct 168 -215 171 -207 174 -198 ct 
144 -192 l  141 -203 136 -210 129 -215 ct 122 -220 114 -222 104 -222 ct 96 -222 88 -220 81 -216 ct 
74 -212 69 -206 64 -198 ct 59 -190 55 -180 53 -168 ct 50 -156 49 -142 49 -126 ct 
54 -136 62 -144 73 -150 ct 83 -155 95 -158 108 -158 ct 119 -158 129 -156 138 -153 ct 
147 -149 154 -144 161 -137 ct 167 -130 172 -122 176 -113 ct 179 -103 181 -92 181 -80 ct 
p
149 -79 m  149 -87 148 -95 146 -102 ct 144 -108 141 -114 137 -119 ct 133 -124 128 -128 122 -130 ct 
115 -133 108 -134 100 -134 ct 95 -134 89 -133 83 -131 ct 78 -130 72 -127 68 -123 ct 
63 -120 59 -115 56 -109 ct 53 -102 52 -95 52 -86 ct 52 -77 53 -69 55 -61 ct 58 -53 61 -46 65 -41 ct 
70 -35 75 -30 81 -27 ct 87 -24 94 -22 101 -22 ct 109 -22 116 -23 121 -26 ct 127 -29 132 -32 137 -37 ct 
141 -42 144 -48 146 -55 ct 148 -62 149 -70 149 -79 ct p ef
pom
pum
11304 19342 t
181 -68 m  181 -58 179 -48 176 -40 ct 173 -31 168 -24 161 -17 ct 154 -11 146 -6 135 -2 ct 
125 1 113 3 98 3 ct 84 3 72 1 61 -2 ct 51 -6 42 -11 35 -17 ct 29 -23 24 -31 20 -40 ct 
17 -48 15 -58 15 -68 ct 15 -77 17 -85 19 -92 ct 22 -98 26 -104 30 -109 ct 35 -114 40 -118 46 -121 ct 
52 -125 58 -127 64 -128 ct 64 -128 l  57 -130 51 -132 46 -136 ct 40 -140 36 -144 32 -149 ct 
29 -154 26 -159 24 -166 ct 22 -172 21 -178 21 -185 ct 21 -193 23 -201 26 -209 ct 
29 -216 34 -223 41 -229 ct 47 -234 55 -239 64 -242 ct 74 -245 85 -247 98 -247 ct 
111 -247 122 -245 132 -242 ct 142 -239 150 -234 156 -228 ct 162 -223 167 -216 170 -209 ct 
173 -201 175 -193 175 -184 ct 175 -178 174 -171 172 -165 ct 170 -159 167 -154 164 -149 ct 
160 -144 156 -139 150 -136 ct 145 -132 139 -130 132 -129 ct 132 -128 l  139 -127 145 -125 151 -122 ct 
157 -119 162 -115 167 -110 ct 171 -105 175 -99 177 -92 ct 180 -85 181 -77 181 -68 ct 
p
143 -183 m  143 -189 142 -194 140 -199 ct 139 -204 136 -209 133 -212 ct 129 -216 125 -219 119 -221 ct 
113 -223 106 -224 98 -224 ct 89 -224 83 -223 77 -221 ct 71 -219 67 -216 63 -212 ct 
59 -209 57 -204 55 -199 ct 54 -194 53 -189 53 -183 ct 53 -178 53 -173 55 -168 ct 
56 -163 58 -158 62 -154 ct 65 -150 69 -147 75 -144 ct 81 -141 89 -140 98 -140 ct 
108 -140 116 -141 121 -144 ct 127 -147 132 -150 135 -154 ct 138 -158 140 -163 141 -168 ct 
142 -173 143 -178 143 -183 ct p
149 -71 m  149 -77 148 -83 146 -88 ct 145 -94 142 -98 138 -103 ct 134 -107 129 -110 122 -113 ct 
116 -115 107 -117 98 -117 ct 88 -117 81 -115 74 -113 ct 68 -110 63 -107 59 -103 ct 
55 -98 52 -93 50 -88 ct 48 -82 47 -76 47 -70 ct 47 -63 48 -56 50 -50 ct 52 -44 55 -39 59 -34 ct 
63 -30 68 -26 75 -24 ct 81 -21 89 -20 99 -20 ct 108 -20 116 -21 122 -24 ct 129 -26 134 -30 138 -34 ct 
142 -39 145 -44 146 -50 ct 148 -56 149 -63 149 -71 ct p ef
pom
pum
11119 18367 t
27 0 m  27 -26 l  89 -26 l  89 -213 l  34 -174 l  34 -204 l  91 -243 l 
120 -243 l  120 -26 l  179 -26 l  179 0 l  27 0 l  p ef
368 -122 m  368 -99 365 -79 361 -63 ct 356 -47 350 -34 343 -25 ct 335 -15 326 -8 316 -3 ct 
305 1 294 3 283 3 ct 271 3 260 1 250 -3 ct 239 -8 231 -15 223 -24 ct 215 -34 210 -47 205 -63 ct 
201 -79 199 -99 199 -122 ct 199 -146 201 -167 205 -183 ct 210 -199 216 -212 223 -221 ct 
231 -231 240 -237 250 -241 ct 260 -245 272 -247 284 -247 ct 295 -247 306 -245 316 -241 ct 
327 -237 335 -231 343 -221 ct 351 -212 357 -199 361 -183 ct 365 -167 368 -146 368 -122 ct 
p
336 -122 m  336 -141 335 -157 333 -170 ct 330 -183 327 -193 322 -201 ct 318 -209 312 -214 306 -217 ct 
299 -220 292 -222 284 -222 ct 275 -222 267 -220 261 -217 ct 254 -214 248 -208 244 -201 ct 
239 -193 236 -183 234 -170 ct 231 -157 230 -141 230 -122 ct 230 -103 231 -88 234 -75 ct 
236 -62 239 -52 244 -44 ct 249 -36 254 -31 261 -27 ct 267 -24 275 -22 283 -22 ct 
291 -22 299 -24 305 -27 ct 312 -31 317 -36 322 -44 ct 326 -52 330 -62 332 -75 ct 
335 -88 336 -103 336 -122 ct p ef
pom
pum
11119 17393 t
27 0 m  27 -26 l  89 -26 l  89 -213 l  34 -174 l  34 -204 l  91 -243 l 
120 -243 l  120 -26 l  179 -26 l  179 0 l  27 0 l  p ef
203 0 m  203 -22 l  209 -35 216 -47 224 -58 ct 233 -68 242 -77 251 -85 ct 260 -94 269 -101 279 -109 ct 
288 -116 296 -123 303 -130 ct 311 -137 317 -145 321 -152 ct 326 -160 328 -169 328 -179 ct 
328 -186 327 -192 325 -197 ct 323 -202 320 -207 316 -210 ct 312 -214 307 -217 302 -218 ct 
296 -220 290 -221 284 -221 ct 277 -221 272 -220 266 -218 ct 261 -217 256 -214 252 -211 ct 
247 -207 244 -203 241 -198 ct 238 -193 237 -187 236 -180 ct 204 -183 l  205 -192 208 -200 211 -208 ct 
215 -215 220 -222 227 -228 ct 234 -234 242 -238 251 -242 ct 260 -245 271 -247 284 -247 ct 
296 -247 306 -245 316 -242 ct 325 -239 333 -235 340 -229 ct 346 -224 351 -217 355 -209 ct 
358 -200 360 -191 360 -180 ct 360 -172 358 -164 355 -157 ct 352 -149 349 -142 344 -136 ct 
339 -129 333 -123 327 -116 ct 320 -110 314 -104 307 -98 ct 300 -92 292 -86 285 -81 ct 
278 -75 272 -69 265 -63 ct 259 -57 253 -51 248 -45 ct 243 -39 240 -33 237 -26 ct 
364 -26 l  364 0 l  203 0 l  p ef
pom
pum
11119 16419 t
27 0 m  27 -26 l  89 -26 l  89 -213 l  34 -174 l  34 -204 l  91 -243 l 
120 -243 l  120 -26 l  179 -26 l  179 0 l  27 0 l  p ef
337 -55 m  337 0 l  308 0 l  308 -55 l  193 -55 l  193 -79 l  304 -243 l 
337 -243 l  337 -79 l  371 -79 l  371 -55 l  337 -55 l  p
308 -208 m  307 -207 307 -206 306 -205 ct 305 -203 304 -201 303 -199 ct 302 -197 300 -195 299 -193 ct 
298 -191 297 -189 296 -187 ct 234 -96 l  233 -95 232 -94 231 -92 ct 230 -91 229 -89 228 -88 ct 
227 -86 226 -84 224 -83 ct 223 -81 222 -80 222 -79 ct 308 -79 l  308 -208 l 
p ef
pom
pum
11119 15445 t
27 0 m  27 -26 l  89 -26 l  89 -213 l  34 -174 l  34 -204 l  91 -243 l 
120 -243 l  120 -26 l  179 -26 l  179 0 l  27 0 l  p ef
366 -80 m  366 -68 364 -57 361 -47 ct 357 -36 352 -28 346 -20 ct 339 -13 331 -7 321 -3 ct 
311 1 300 3 287 3 ct 273 3 261 0 250 -5 ct 240 -11 231 -18 224 -28 ct 217 -39 212 -51 208 -66 ct 
205 -81 203 -97 203 -116 ct 203 -138 205 -157 209 -173 ct 213 -190 219 -203 226 -214 ct 
233 -225 243 -233 253 -239 ct 264 -244 276 -247 290 -247 ct 298 -247 306 -246 313 -244 ct 
320 -243 327 -240 333 -236 ct 339 -232 344 -227 348 -221 ct 353 -215 356 -207 359 -198 ct 
329 -192 l  326 -203 321 -210 314 -215 ct 307 -220 299 -222 289 -222 ct 281 -222 273 -220 266 -216 ct 
259 -212 254 -206 249 -198 ct 244 -190 240 -180 238 -168 ct 235 -156 234 -142 234 -126 ct 
239 -136 247 -144 258 -150 ct 268 -155 280 -158 293 -158 ct 304 -158 314 -156 323 -153 ct 
332 -149 339 -144 346 -137 ct 352 -130 357 -122 361 -113 ct 364 -103 366 -92 366 -80 ct 
p
334 -79 m  334 -87 333 -95 331 -102 ct 329 -108 326 -114 322 -119 ct 318 -124 313 -128 307 -130 ct 
300 -133 293 -134 285 -134 ct 280 -134 274 -133 268 -131 ct 263 -130 257 -127 253 -123 ct 
248 -120 244 -115 241 -109 ct 238 -102 237 -95 237 -86 ct 237 -77 238 -69 240 -61 ct 
243 -53 246 -46 250 -41 ct 255 -35 260 -30 266 -27 ct 272 -24 279 -22 286 -22 ct 
294 -22 301 -23 306 -26 ct 312 -29 317 -32 322 -37 ct 326 -42 329 -48 331 -55 ct 
333 -62 334 -70 334 -79 ct p ef
pom
79.995 lw 0.003 0.273 0.527 c 24855 19197 m  25655 19197 l  ps
25149 19092 m  25149 19302 l  25360 19302 l  25360 19092 l  25149 19092 l 
p ef
0 lw 25149 19092 m  25149 19302 l  25360 19302 l  25360 19092 l  25149 19092 l 
pc
79.995 lw 1.000 0.261 0.058 c 24855 19694 m  25655 19694 l  ps
25149 19694 m  25255 19799 l  25360 19694 l  25255 19589 l  25149 19694 l 
p ef
0 lw 25149 19694 m  25255 19799 l  25360 19694 l  25255 19589 l  25149 19694 l 
pc
pum
25755 19317 t
0.003 0.003 0.003 c 24 -226 m  24 -256 l  55 -256 l  55 -226 l  24 -226 l 
p
24 0 m  24 -187 l  55 -187 l  55 0 l  24 0 l  p ef
221 -30 m  215 -18 207 -10 198 -5 ct 188 0 176 3 162 3 ct 139 3 122 -5 110 -21 ct 
99 -37 94 -61 94 -93 ct 94 -158 117 -190 162 -190 ct 177 -190 188 -187 198 -182 ct 
207 -177 215 -169 221 -158 ct 221 -158 l  221 -159 221 -161 221 -163 ct 221 -166 221 -168 221 -171 ct 
221 -174 221 -176 221 -179 ct 221 -181 221 -183 221 -184 ct 221 -256 l  252 -256 l 
252 -39 l  252 -34 252 -30 252 -26 ct 252 -22 252 -18 252 -14 ct 252 -11 252 -8 252 -5 ct 
252 -3 252 -1 253 0 ct 223 0 l  223 -1 222 -3 222 -5 ct 222 -7 222 -10 222 -12 ct 
222 -15 221 -18 221 -21 ct 221 -24 221 -27 221 -30 ct 221 -30 l  p
126 -94 m  126 -81 127 -70 129 -61 ct 130 -52 133 -44 137 -38 ct 140 -32 145 -28 150 -25 ct 
156 -22 162 -21 170 -21 ct 179 -21 186 -22 192 -25 ct 198 -28 203 -32 208 -38 ct 
212 -44 215 -51 217 -61 ct 219 -70 221 -82 221 -96 ct 221 -109 219 -120 217 -129 ct 
215 -138 212 -146 208 -151 ct 203 -157 198 -161 192 -163 ct 186 -166 179 -167 171 -167 ct 
163 -167 157 -166 151 -163 ct 146 -160 141 -156 137 -150 ct 134 -145 131 -137 129 -128 ct 
127 -118 126 -107 126 -94 ct p ef
313 -87 m  313 -77 314 -68 316 -60 ct 318 -52 321 -45 325 -39 ct 329 -33 334 -28 341 -25 ct 
348 -22 355 -20 365 -20 ct 378 -20 389 -23 397 -28 ct 405 -34 411 -41 413 -49 ct 
441 -41 l  439 -36 436 -31 432 -26 ct 429 -20 424 -16 418 -11 ct 413 -7 405 -4 396 -1 ct 
388 2 377 3 365 3 ct 337 3 316 -5 302 -22 ct 287 -38 280 -62 280 -95 ct 280 -112 282 -127 287 -139 ct 
291 -151 297 -161 304 -169 ct 312 -176 321 -182 331 -185 ct 341 -188 352 -190 363 -190 ct 
379 -190 392 -187 403 -182 ct 413 -177 422 -170 428 -162 ct 434 -153 439 -142 442 -130 ct 
444 -118 446 -105 446 -91 ct 446 -87 l  313 -87 l  p
414 -111 m  412 -130 407 -145 399 -154 ct 390 -163 378 -167 363 -167 ct 358 -167 352 -166 347 -165 ct 
341 -163 336 -160 331 -156 ct 326 -152 322 -146 319 -139 ct 315 -131 313 -122 313 -111 ct 
414 -111 l  p ef
521 3 m  503 3 489 -2 479 -12 ct 470 -22 465 -35 465 -53 ct 465 -65 467 -75 472 -83 ct 
477 -91 483 -97 490 -102 ct 498 -106 506 -109 516 -111 ct 526 -113 536 -114 545 -114 ct 
587 -114 l  587 -124 l  587 -132 587 -138 585 -144 ct 583 -149 581 -154 578 -157 ct 
574 -161 570 -163 565 -165 ct 560 -166 554 -167 547 -167 ct 541 -167 536 -167 531 -166 ct 
526 -165 522 -163 519 -161 ct 515 -159 512 -156 510 -152 ct 508 -148 506 -143 506 -137 ct 
473 -140 l  474 -148 477 -154 480 -160 ct 483 -167 488 -172 494 -176 ct 499 -181 507 -184 516 -187 ct 
525 -189 535 -191 548 -191 ct 572 -191 589 -185 601 -175 ct 613 -164 619 -148 619 -128 ct 
619 -48 l  619 -38 620 -31 622 -27 ct 625 -22 629 -20 636 -20 ct 638 -20 640 -20 641 -20 ct 
643 -20 645 -21 646 -21 ct 646 -2 l  642 -1 639 0 635 0 ct 631 1 627 1 622 1 ct 
617 1 611 0 607 -1 ct 603 -3 600 -5 597 -8 ct 594 -11 592 -15 591 -20 ct 590 -25 589 -30 588 -36 ct 
587 -36 l  584 -30 580 -25 576 -20 ct 572 -15 568 -11 563 -8 ct 557 -4 551 -2 545 0 ct 
538 2 530 3 521 3 ct p
528 -20 m  538 -20 547 -22 554 -26 ct 562 -29 568 -34 573 -39 ct 578 -45 581 -51 584 -58 ct 
586 -64 587 -71 587 -77 ct 587 -92 l  553 -92 l  546 -92 539 -92 532 -91 ct 
525 -90 519 -88 514 -85 ct 509 -82 505 -78 501 -73 ct 498 -67 497 -61 497 -52 ct 
497 -42 500 -34 505 -29 ct 511 -23 518 -20 528 -20 ct p ef
659 0 m  659 -256 l  690 -256 l  690 0 l  659 0 l  p ef
pom
pum
25755 19814 t
24 0 m  24 -143 l  24 -147 24 -151 24 -155 ct 24 -159 24 -163 24 -167 ct 24 -171 24 -174 24 -178 ct 
24 -181 24 -184 23 -187 ct 53 -187 l  53 -184 53 -181 53 -178 ct 53 -174 54 -171 54 -167 ct 
54 -164 54 -160 54 -157 ct 54 -154 54 -151 54 -148 ct 55 -148 l  57 -156 59 -162 62 -167 ct 
64 -172 67 -177 71 -180 ct 74 -183 78 -186 82 -188 ct 87 -189 93 -190 99 -190 ct 
102 -190 104 -190 106 -189 ct 109 -189 110 -189 112 -188 ct 112 -160 l  110 -160 107 -161 104 -161 ct 
102 -161 99 -162 95 -162 ct 88 -162 82 -160 77 -157 ct 72 -154 68 -149 65 -143 ct 
62 -138 59 -131 58 -123 ct 56 -115 56 -107 56 -97 ct 56 0 l  24 0 l  p ef
154 -87 m  154 -77 155 -68 157 -60 ct 159 -52 162 -45 166 -39 ct 170 -33 175 -28 182 -25 ct 
189 -22 196 -20 206 -20 ct 219 -20 230 -23 238 -28 ct 246 -34 252 -41 254 -49 ct 
282 -41 l  280 -36 277 -31 273 -26 ct 270 -20 265 -16 259 -11 ct 254 -7 246 -4 237 -1 ct 
229 2 218 3 206 3 ct 178 3 157 -5 143 -22 ct 128 -38 121 -62 121 -95 ct 121 -112 123 -127 128 -139 ct 
132 -151 138 -161 145 -169 ct 153 -176 162 -182 172 -185 ct 182 -188 193 -190 204 -190 ct 
220 -190 233 -187 244 -182 ct 254 -177 263 -170 269 -162 ct 275 -153 280 -142 283 -130 ct 
285 -118 287 -105 287 -91 ct 287 -87 l  154 -87 l  p
255 -111 m  253 -130 248 -145 240 -154 ct 231 -163 219 -167 204 -167 ct 199 -167 193 -166 188 -165 ct 
182 -163 177 -160 172 -156 ct 167 -152 163 -146 160 -139 ct 156 -131 154 -122 154 -111 ct 
255 -111 l  p ef
362 3 m  344 3 330 -2 320 -12 ct 311 -22 306 -35 306 -53 ct 306 -65 308 -75 313 -83 ct 
318 -91 324 -97 331 -102 ct 339 -106 347 -109 357 -111 ct 367 -113 377 -114 386 -114 ct 
428 -114 l  428 -124 l  428 -132 428 -138 426 -144 ct 424 -149 422 -154 419 -157 ct 
415 -161 411 -163 406 -165 ct 401 -166 395 -167 388 -167 ct 382 -167 377 -167 372 -166 ct 
367 -165 363 -163 360 -161 ct 356 -159 353 -156 351 -152 ct 349 -148 347 -143 347 -137 ct 
314 -140 l  315 -148 318 -154 321 -160 ct 324 -167 329 -172 335 -176 ct 340 -181 348 -184 357 -187 ct 
366 -189 376 -191 389 -191 ct 413 -191 430 -185 442 -175 ct 454 -164 460 -148 460 -128 ct 
460 -48 l  460 -38 461 -31 463 -27 ct 466 -22 470 -20 477 -20 ct 479 -20 481 -20 482 -20 ct 
484 -20 486 -21 487 -21 ct 487 -2 l  483 -1 480 0 476 0 ct 472 1 468 1 463 1 ct 
458 1 452 0 448 -1 ct 444 -3 441 -5 438 -8 ct 435 -11 433 -15 432 -20 ct 431 -25 430 -30 429 -36 ct 
428 -36 l  425 -30 421 -25 417 -20 ct 413 -15 409 -11 404 -8 ct 398 -4 392 -2 386 0 ct 
379 2 371 3 362 3 ct p
369 -20 m  379 -20 388 -22 395 -26 ct 403 -29 409 -34 414 -39 ct 419 -45 422 -51 425 -58 ct 
427 -64 428 -71 428 -77 ct 428 -92 l  394 -92 l  387 -92 380 -92 373 -91 ct 
366 -90 360 -88 355 -85 ct 350 -82 346 -78 342 -73 ct 339 -67 338 -61 338 -52 ct 
338 -42 341 -34 346 -29 ct 352 -23 359 -20 369 -20 ct p ef
500 0 m  500 -256 l  531 -256 l  531 0 l  500 0 l  p ef
pom
0 9000 t 
pom
count op_count sub {pop} repeat countdictstack dict_count sub {end} repeat b4_inc_state restore
%%PageTrailer
%%Trailer
%%EOF
