%!PS-Adobe-3.0 EPSF-3.0 
%%BoundingBox: 0 0 454 255
%%Pages: 0
%%Creator: LibreOffice 4.2
%%Title: none
%%CreationDate: none
%%LanguageLevel: 2
%%EndComments
%%BeginProlog
%%BeginResource: procset SDRes-Prolog 1.0 0
/b4_inc_state save def
/dict_count countdictstack def
/op_count count 1 sub def
userdict begin
0 setgray 0 setlinecap 1 setlinewidth 0 setlinejoin 10 setmiterlimit[] 0 setdash newpath
/languagelevel where {pop languagelevel 1 ne {false setstrokeadjust false setoverprint} if} if
/bdef {bind def} bind def
/c {setrgbcolor} bdef
/l {neg lineto} bdef
/rl {neg rlineto} bdef
/lc {setlinecap} bdef
/lj {setlinejoin} bdef
/lw {setlinewidth} bdef
/ml {setmiterlimit} bdef
/ld {setdash} bdef
/m {neg moveto} bdef
/ct {6 2 roll neg 6 2 roll neg 6 2 roll neg curveto} bdef
/r {rotate} bdef
/t {neg translate} bdef
/s {scale} bdef
/sw {show} bdef
/gs {gsave} bdef
/gr {grestore} bdef
/f {findfont dup length dict begin
{1 index /FID ne {def} {pop pop} ifelse} forall /Encoding ISOLatin1Encoding def
currentdict end /NFont exch definefont pop /NFont findfont} bdef
/p {closepath} bdef
/sf {scalefont setfont} bdef
/ef {eofill}bdef
/pc {closepath stroke}bdef
/ps {stroke}bdef
/pum {matrix currentmatrix}bdef
/pom {setmatrix}bdef
/bs {/aString exch def /nXOfs exch def /nWidth exch def currentpoint nXOfs 0 rmoveto pum nWidth aString stringwidth pop div 1 scale aString show pom moveto} bdef
%%EndResource
%%EndProlog
%%BeginSetup
%%EndSetup
%%Page: 1 1
%%BeginPageSetup
%%EndPageSetup
pum
0.02837 0.02833 s 
0 -9000 t
/tm matrix currentmatrix def
tm setmatrix
-10682 -2198 t 
1 1 s 
1.000 1.000 1.000 c 18682 11197 m  10682 11197 l  10682 2198 l  26681 2198 l 
26681 11197 l  18682 11197 l  p ef
0 lw 1 lj 0.703 0.703 0.703 c 17978 9389 m  13296 9389 l  13296 2578 l 
22660 2578 l  22660 9389 l  17978 9389 l  pc
22660 9388 m  13296 9388 l  ps
22660 8414 m  13296 8414 l  ps
22660 7441 m  13296 7441 l  ps
22660 6469 m  13296 6469 l  ps
22660 5496 m  13296 5496 l  ps
22660 4523 m  13296 4523 l  ps
22660 3550 m  13296 3550 l  ps
22660 2576 m  13296 2576 l  ps
13296 9538 m  13296 9388 l  ps
13296 9538 m  13296 9388 l  ps
13964 9538 m  13964 9388 l  ps
13964 9538 m  13964 9388 l  ps
14633 9538 m  14633 9388 l  ps
14633 9538 m  14633 9388 l  ps
15302 9538 m  15302 9388 l  ps
15302 9538 m  15302 9388 l  ps
15971 9538 m  15971 9388 l  ps
15971 9538 m  15971 9388 l  ps
16640 9538 m  16640 9388 l  ps
16640 9538 m  16640 9388 l  ps
17309 9538 m  17309 9388 l  ps
17309 9538 m  17309 9388 l  ps
17978 9538 m  17978 9388 l  ps
17978 9538 m  17978 9388 l  ps
18647 9538 m  18647 9388 l  ps
18647 9538 m  18647 9388 l  ps
19315 9538 m  19315 9388 l  ps
19315 9538 m  19315 9388 l  ps
19984 9538 m  19984 9388 l  ps
19984 9538 m  19984 9388 l  ps
20653 9538 m  20653 9388 l  ps
20653 9538 m  20653 9388 l  ps
21322 9538 m  21322 9388 l  ps
21322 9538 m  21322 9388 l  ps
21991 9538 m  21991 9388 l  ps
21991 9538 m  21991 9388 l  ps
22660 9538 m  22660 9388 l  ps
22660 9538 m  22660 9388 l  ps
13296 9388 m  22660 9388 l  ps
13146 9388 m  13296 9388 l  ps
13146 9388 m  13296 9388 l  ps
13146 8414 m  13296 8414 l  ps
13146 8414 m  13296 8414 l  ps
13146 7441 m  13296 7441 l  ps
13146 7441 m  13296 7441 l  ps
13146 6469 m  13296 6469 l  ps
13146 6469 m  13296 6469 l  ps
13146 5496 m  13296 5496 l  ps
13146 5496 m  13296 5496 l  ps
13146 4523 m  13296 4523 l  ps
13146 4523 m  13296 4523 l  ps
13146 3550 m  13296 3550 l  ps
13146 3550 m  13296 3550 l  ps
13146 2576 m  13296 2576 l  ps
13146 2576 m  13296 2576 l  ps
13296 9388 m  13296 2576 l  ps
79.995 lw 0.003 0.273 0.527 c 13964 3011 m  14633 6096 l  15302 7110 l 
15971 6375 l  16640 6631 l  17309 6343 l  17978 6291 l  18647 6300 l  19315 6867 l 
19984 6330 l  20653 6825 l  21322 6420 l  21991 6589 l  22660 6180 l  ps
pum
13203 9956 t
0.003 0.003 0.003 c 27 0 m  27 -26 l  89 -26 l  89 -213 l  34 -174 l  34 -204 l 
91 -243 l  120 -243 l  120 -26 l  179 -26 l  179 0 l  27 0 l  p ef
pom
pum
13871 9956 t
18 0 m  18 -22 l  24 -35 31 -47 39 -58 ct 48 -68 57 -77 66 -85 ct 75 -94 84 -101 94 -109 ct 
103 -116 111 -123 118 -130 ct 126 -137 132 -145 136 -152 ct 141 -160 143 -169 143 -179 ct 
143 -186 142 -192 140 -197 ct 138 -202 135 -207 131 -210 ct 127 -214 122 -217 117 -218 ct 
111 -220 105 -221 99 -221 ct 92 -221 87 -220 81 -218 ct 76 -217 71 -214 67 -211 ct 
62 -207 59 -203 56 -198 ct 53 -193 52 -187 51 -180 ct 19 -183 l  20 -192 23 -200 26 -208 ct 
30 -215 35 -222 42 -228 ct 49 -234 57 -238 66 -242 ct 75 -245 86 -247 99 -247 ct 
111 -247 121 -245 131 -242 ct 140 -239 148 -235 155 -229 ct 161 -224 166 -217 170 -209 ct 
173 -200 175 -191 175 -180 ct 175 -172 173 -164 170 -157 ct 167 -149 164 -142 159 -136 ct 
154 -129 148 -123 142 -116 ct 135 -110 129 -104 122 -98 ct 115 -92 107 -86 100 -81 ct 
93 -75 87 -69 80 -63 ct 74 -57 68 -51 63 -45 ct 58 -39 55 -33 52 -26 ct 179 -26 l 
179 0 l  18 0 l  p ef
pom
pum
14540 9956 t
181 -68 m  181 -57 179 -47 175 -38 ct 172 -29 166 -22 160 -16 ct 153 -10 144 -5 134 -2 ct 
123 1 112 3 98 3 ct 83 3 71 1 60 -3 ct 50 -6 42 -11 35 -17 ct 28 -24 23 -31 20 -39 ct 
17 -46 14 -55 13 -63 ct 46 -66 l  46 -60 48 -54 51 -48 ct 53 -43 56 -38 61 -35 ct 
65 -31 70 -28 76 -26 ct 83 -24 90 -23 98 -23 ct 114 -23 126 -27 135 -34 ct 144 -42 149 -54 149 -69 ct 
149 -78 147 -85 143 -90 ct 139 -96 134 -100 128 -103 ct 122 -106 115 -108 109 -109 ct 
102 -110 95 -111 89 -111 ct 72 -111 l  72 -138 l  89 -138 l  94 -138 101 -139 107 -140 ct 
113 -141 119 -143 124 -146 ct 129 -149 134 -154 137 -159 ct 141 -164 142 -171 142 -180 ct 
142 -193 138 -203 131 -210 ct 123 -218 112 -221 97 -221 ct 83 -221 72 -218 64 -211 ct 
55 -204 50 -194 49 -182 ct 18 -184 l  19 -195 22 -204 26 -212 ct 31 -220 37 -226 44 -231 ct 
51 -237 59 -241 68 -243 ct 77 -246 87 -247 97 -247 ct 111 -247 122 -245 132 -242 ct 
142 -239 150 -234 156 -228 ct 162 -222 167 -216 170 -208 ct 173 -200 174 -192 174 -183 ct 
174 -176 173 -169 171 -163 ct 169 -157 166 -151 162 -146 ct 158 -141 153 -137 146 -134 ct 
140 -130 132 -127 123 -125 ct 123 -125 l  133 -124 142 -122 149 -118 ct 156 -115 162 -111 167 -105 ct 
171 -100 175 -95 177 -88 ct 180 -82 181 -75 181 -68 ct p ef
pom
pum
15209 9956 t
152 -55 m  152 0 l  123 0 l  123 -55 l  8 -55 l  8 -79 l  119 -243 l  152 -243 l 
152 -79 l  186 -79 l  186 -55 l  152 -55 l  p
123 -208 m  122 -207 122 -206 121 -205 ct 120 -203 119 -201 118 -199 ct 117 -197 115 -195 114 -193 ct 
113 -191 112 -189 111 -187 ct 49 -96 l  48 -95 47 -94 46 -92 ct 45 -91 44 -89 43 -88 ct 
42 -86 41 -84 39 -83 ct 38 -81 37 -80 37 -79 ct 123 -79 l  123 -208 l  p ef
pom
pum
15878 9956 t
182 -80 m  182 -67 180 -56 176 -46 ct 172 -36 167 -27 160 -20 ct 152 -13 143 -7 133 -3 ct 
122 1 109 3 95 3 ct 83 3 71 1 62 -1 ct 52 -4 44 -9 38 -14 ct 31 -19 26 -25 22 -32 ct 
18 -39 16 -47 14 -55 ct 46 -58 l  47 -54 49 -49 51 -45 ct 53 -41 56 -37 60 -33 ct 
64 -30 69 -27 75 -25 ct 81 -23 88 -22 96 -22 ct 104 -22 111 -24 118 -26 ct 124 -29 130 -32 135 -37 ct 
139 -42 143 -48 145 -55 ct 148 -62 149 -70 149 -79 ct 149 -86 148 -93 146 -99 ct 
143 -106 140 -111 135 -116 ct 131 -120 125 -124 119 -126 ct 112 -129 105 -130 97 -130 ct 
92 -130 87 -130 82 -129 ct 78 -128 74 -126 70 -125 ct 67 -123 63 -121 60 -119 ct 
57 -117 54 -115 52 -113 ct 21 -113 l  29 -243 l  167 -243 l  167 -217 l  58 -217 l 
53 -140 l  58 -144 65 -148 74 -151 ct 82 -154 92 -155 103 -155 ct 115 -155 126 -154 136 -150 ct 
145 -146 154 -141 160 -134 ct 167 -128 172 -120 176 -110 ct 180 -101 182 -91 182 -80 ct 
p ef
pom
pum
16547 9956 t
181 -80 m  181 -68 179 -57 176 -47 ct 172 -36 167 -28 161 -20 ct 154 -13 146 -7 136 -3 ct 
126 1 115 3 102 3 ct 88 3 76 0 65 -5 ct 55 -11 46 -18 39 -28 ct 32 -39 27 -51 23 -66 ct 
20 -81 18 -97 18 -116 ct 18 -138 20 -157 24 -173 ct 28 -190 34 -203 41 -214 ct 
48 -225 58 -233 68 -239 ct 79 -244 91 -247 105 -247 ct 113 -247 121 -246 128 -244 ct 
135 -243 142 -240 148 -236 ct 154 -232 159 -227 163 -221 ct 168 -215 171 -207 174 -198 ct 
144 -192 l  141 -203 136 -210 129 -215 ct 122 -220 114 -222 104 -222 ct 96 -222 88 -220 81 -216 ct 
74 -212 69 -206 64 -198 ct 59 -190 55 -180 53 -168 ct 50 -156 49 -142 49 -126 ct 
54 -136 62 -144 73 -150 ct 83 -155 95 -158 108 -158 ct 119 -158 129 -156 138 -153 ct 
147 -149 154 -144 161 -137 ct 167 -130 172 -122 176 -113 ct 179 -103 181 -92 181 -80 ct 
p
149 -79 m  149 -87 148 -95 146 -102 ct 144 -108 141 -114 137 -119 ct 133 -124 128 -128 122 -130 ct 
115 -133 108 -134 100 -134 ct 95 -134 89 -133 83 -131 ct 78 -130 72 -127 68 -123 ct 
63 -120 59 -115 56 -109 ct 53 -102 52 -95 52 -86 ct 52 -77 53 -69 55 -61 ct 58 -53 61 -46 65 -41 ct 
70 -35 75 -30 81 -27 ct 87 -24 94 -22 101 -22 ct 109 -22 116 -23 121 -26 ct 127 -29 132 -32 137 -37 ct 
141 -42 144 -48 146 -55 ct 148 -62 149 -70 149 -79 ct p ef
pom
pum
17216 9956 t
179 -218 m  166 -200 155 -182 145 -165 ct 135 -147 126 -130 119 -113 ct 111 -95 106 -77 101 -59 ct 
97 -41 95 -21 95 -1 ct 63 -1 l  63 -20 65 -39 70 -58 ct 74 -76 81 -95 88 -113 ct 
96 -131 105 -148 116 -166 ct 126 -183 137 -200 149 -217 ct 18 -217 l  18 -243 l 
179 -243 l  179 -218 l  p ef
pom
pum
17885 9956 t
181 -68 m  181 -58 179 -48 176 -40 ct 173 -31 168 -24 161 -17 ct 154 -11 146 -6 135 -2 ct 
125 1 113 3 98 3 ct 84 3 72 1 61 -2 ct 51 -6 42 -11 35 -17 ct 29 -23 24 -31 20 -40 ct 
17 -48 15 -58 15 -68 ct 15 -77 17 -85 19 -92 ct 22 -98 26 -104 30 -109 ct 35 -114 40 -118 46 -121 ct 
52 -125 58 -127 64 -128 ct 64 -128 l  57 -130 51 -132 46 -136 ct 40 -140 36 -144 32 -149 ct 
29 -154 26 -159 24 -166 ct 22 -172 21 -178 21 -185 ct 21 -193 23 -201 26 -209 ct 
29 -216 34 -223 41 -229 ct 47 -234 55 -239 64 -242 ct 74 -245 85 -247 98 -247 ct 
111 -247 122 -245 132 -242 ct 142 -239 150 -234 156 -228 ct 162 -223 167 -216 170 -209 ct 
173 -201 175 -193 175 -184 ct 175 -178 174 -171 172 -165 ct 170 -159 167 -154 164 -149 ct 
160 -144 156 -139 150 -136 ct 145 -132 139 -130 132 -129 ct 132 -128 l  139 -127 145 -125 151 -122 ct 
157 -119 162 -115 167 -110 ct 171 -105 175 -99 177 -92 ct 180 -85 181 -77 181 -68 ct 
p
143 -183 m  143 -189 142 -194 140 -199 ct 139 -204 136 -209 133 -212 ct 129 -216 125 -219 119 -221 ct 
113 -223 106 -224 98 -224 ct 89 -224 83 -223 77 -221 ct 71 -219 67 -216 63 -212 ct 
59 -209 57 -204 55 -199 ct 54 -194 53 -189 53 -183 ct 53 -178 53 -173 55 -168 ct 
56 -163 58 -158 62 -154 ct 65 -150 69 -147 75 -144 ct 81 -141 89 -140 98 -140 ct 
108 -140 116 -141 121 -144 ct 127 -147 132 -150 135 -154 ct 138 -158 140 -163 141 -168 ct 
142 -173 143 -178 143 -183 ct p
149 -71 m  149 -77 148 -83 146 -88 ct 145 -94 142 -98 138 -103 ct 134 -107 129 -110 122 -113 ct 
116 -115 107 -117 98 -117 ct 88 -117 81 -115 74 -113 ct 68 -110 63 -107 59 -103 ct 
55 -98 52 -93 50 -88 ct 48 -82 47 -76 47 -70 ct 47 -63 48 -56 50 -50 ct 52 -44 55 -39 59 -34 ct 
63 -30 68 -26 75 -24 ct 81 -21 89 -20 99 -20 ct 108 -20 116 -21 122 -24 ct 129 -26 134 -30 138 -34 ct 
142 -39 145 -44 146 -50 ct 148 -56 149 -63 149 -71 ct p ef
pom
pum
18554 9956 t
180 -127 m  180 -105 178 -86 173 -70 ct 169 -54 164 -40 156 -29 ct 148 -19 139 -11 128 -5 ct 
117 0 105 3 92 3 ct 82 3 74 2 67 0 ct 59 -2 52 -5 47 -9 ct 41 -13 36 -18 32 -24 ct 
27 -31 24 -39 22 -48 ct 51 -52 l  54 -42 59 -34 66 -29 ct 73 -24 82 -22 92 -22 ct 
101 -22 108 -24 115 -28 ct 122 -32 128 -38 133 -46 ct 138 -54 142 -64 144 -76 ct 
147 -88 149 -102 149 -118 ct 147 -112 143 -108 139 -103 ct 135 -99 130 -95 125 -93 ct 
119 -90 114 -87 107 -86 ct 101 -84 95 -84 89 -84 ct 78 -84 68 -86 59 -89 ct 50 -93 42 -99 36 -106 ct 
30 -113 25 -122 22 -132 ct 18 -142 17 -153 17 -165 ct 17 -178 18 -189 22 -199 ct 
26 -209 31 -218 38 -225 ct 45 -232 53 -238 63 -241 ct 73 -245 85 -247 97 -247 ct 
124 -247 145 -237 159 -217 ct 173 -197 180 -167 180 -127 ct p
146 -157 m  146 -166 145 -174 143 -182 ct 141 -190 137 -197 133 -203 ct 129 -209 124 -213 118 -217 ct 
112 -220 104 -222 96 -222 ct 89 -222 82 -221 76 -218 ct 70 -215 65 -211 61 -207 ct 
57 -202 54 -196 51 -189 ct 49 -182 48 -174 48 -165 ct 48 -157 49 -150 51 -143 ct 
53 -136 56 -130 60 -124 ct 64 -119 69 -115 75 -112 ct 81 -109 88 -108 96 -108 ct 
102 -108 108 -109 114 -111 ct 119 -113 125 -116 130 -120 ct 134 -124 138 -129 141 -135 ct 
144 -141 146 -149 146 -157 ct p ef
pom
pum
19131 9956 t
27 0 m  27 -26 l  89 -26 l  89 -213 l  34 -174 l  34 -204 l  91 -243 l 
120 -243 l  120 -26 l  179 -26 l  179 0 l  27 0 l  p ef
368 -122 m  368 -99 365 -79 361 -63 ct 356 -47 350 -34 343 -25 ct 335 -15 326 -8 316 -3 ct 
305 1 294 3 283 3 ct 271 3 260 1 250 -3 ct 239 -8 231 -15 223 -24 ct 215 -34 210 -47 205 -63 ct 
201 -79 199 -99 199 -122 ct 199 -146 201 -167 205 -183 ct 210 -199 216 -212 223 -221 ct 
231 -231 240 -237 250 -241 ct 260 -245 272 -247 284 -247 ct 295 -247 306 -245 316 -241 ct 
327 -237 335 -231 343 -221 ct 351 -212 357 -199 361 -183 ct 365 -167 368 -146 368 -122 ct 
p
336 -122 m  336 -141 335 -157 333 -170 ct 330 -183 327 -193 322 -201 ct 318 -209 312 -214 306 -217 ct 
299 -220 292 -222 284 -222 ct 275 -222 267 -220 261 -217 ct 254 -214 248 -208 244 -201 ct 
239 -193 236 -183 234 -170 ct 231 -157 230 -141 230 -122 ct 230 -103 231 -88 234 -75 ct 
236 -62 239 -52 244 -44 ct 249 -36 254 -31 261 -27 ct 267 -24 275 -22 283 -22 ct 
291 -22 299 -24 305 -27 ct 312 -31 317 -36 322 -44 ct 326 -52 330 -62 332 -75 ct 
335 -88 336 -103 336 -122 ct p ef
pom
pum
19800 9956 t
27 0 m  27 -26 l  89 -26 l  89 -213 l  34 -174 l  34 -204 l  91 -243 l 
120 -243 l  120 -26 l  179 -26 l  179 0 l  27 0 l  p ef
212 0 m  212 -26 l  274 -26 l  274 -213 l  219 -174 l  219 -204 l  276 -243 l 
305 -243 l  305 -26 l  364 -26 l  364 0 l  212 0 l  p ef
pom
pum
20469 9956 t
27 0 m  27 -26 l  89 -26 l  89 -213 l  34 -174 l  34 -204 l  91 -243 l 
120 -243 l  120 -26 l  179 -26 l  179 0 l  27 0 l  p ef
203 0 m  203 -22 l  209 -35 216 -47 224 -58 ct 233 -68 242 -77 251 -85 ct 260 -94 269 -101 279 -109 ct 
288 -116 296 -123 303 -130 ct 311 -137 317 -145 321 -152 ct 326 -160 328 -169 328 -179 ct 
328 -186 327 -192 325 -197 ct 323 -202 320 -207 316 -210 ct 312 -214 307 -217 302 -218 ct 
296 -220 290 -221 284 -221 ct 277 -221 272 -220 266 -218 ct 261 -217 256 -214 252 -211 ct 
247 -207 244 -203 241 -198 ct 238 -193 237 -187 236 -180 ct 204 -183 l  205 -192 208 -200 211 -208 ct 
215 -215 220 -222 227 -228 ct 234 -234 242 -238 251 -242 ct 260 -245 271 -247 284 -247 ct 
296 -247 306 -245 316 -242 ct 325 -239 333 -235 340 -229 ct 346 -224 351 -217 355 -209 ct 
358 -200 360 -191 360 -180 ct 360 -172 358 -164 355 -157 ct 352 -149 349 -142 344 -136 ct 
339 -129 333 -123 327 -116 ct 320 -110 314 -104 307 -98 ct 300 -92 292 -86 285 -81 ct 
278 -75 272 -69 265 -63 ct 259 -57 253 -51 248 -45 ct 243 -39 240 -33 237 -26 ct 
364 -26 l  364 0 l  203 0 l  p ef
pom
pum
21138 9956 t
27 0 m  27 -26 l  89 -26 l  89 -213 l  34 -174 l  34 -204 l  91 -243 l 
120 -243 l  120 -26 l  179 -26 l  179 0 l  27 0 l  p ef
366 -68 m  366 -57 364 -47 360 -38 ct 357 -29 351 -22 345 -16 ct 338 -10 329 -5 319 -2 ct 
308 1 297 3 283 3 ct 268 3 256 1 245 -3 ct 235 -6 227 -11 220 -17 ct 213 -24 208 -31 205 -39 ct 
202 -46 199 -55 198 -63 ct 231 -66 l  231 -60 233 -54 236 -48 ct 238 -43 241 -38 246 -35 ct 
250 -31 255 -28 261 -26 ct 268 -24 275 -23 283 -23 ct 299 -23 311 -27 320 -34 ct 
329 -42 334 -54 334 -69 ct 334 -78 332 -85 328 -90 ct 324 -96 319 -100 313 -103 ct 
307 -106 300 -108 294 -109 ct 287 -110 280 -111 274 -111 ct 257 -111 l  257 -138 l 
274 -138 l  279 -138 286 -139 292 -140 ct 298 -141 304 -143 309 -146 ct 314 -149 319 -154 322 -159 ct 
326 -164 327 -171 327 -180 ct 327 -193 323 -203 316 -210 ct 308 -218 297 -221 282 -221 ct 
268 -221 257 -218 249 -211 ct 240 -204 235 -194 234 -182 ct 203 -184 l  204 -195 207 -204 211 -212 ct 
216 -220 222 -226 229 -231 ct 236 -237 244 -241 253 -243 ct 262 -246 272 -247 282 -247 ct 
296 -247 307 -245 317 -242 ct 327 -239 335 -234 341 -228 ct 347 -222 352 -216 355 -208 ct 
358 -200 359 -192 359 -183 ct 359 -176 358 -169 356 -163 ct 354 -157 351 -151 347 -146 ct 
343 -141 338 -137 331 -134 ct 325 -130 317 -127 308 -125 ct 308 -125 l  318 -124 327 -122 334 -118 ct 
341 -115 347 -111 352 -105 ct 356 -100 360 -95 362 -88 ct 365 -82 366 -75 366 -68 ct 
p ef
pom
pum
21807 9956 t
27 0 m  27 -26 l  89 -26 l  89 -213 l  34 -174 l  34 -204 l  91 -243 l 
120 -243 l  120 -26 l  179 -26 l  179 0 l  27 0 l  p ef
337 -55 m  337 0 l  308 0 l  308 -55 l  193 -55 l  193 -79 l  304 -243 l 
337 -243 l  337 -79 l  371 -79 l  371 -55 l  337 -55 l  p
308 -208 m  307 -207 307 -206 306 -205 ct 305 -203 304 -201 303 -199 ct 302 -197 300 -195 299 -193 ct 
298 -191 297 -189 296 -187 ct 234 -96 l  233 -95 232 -94 231 -92 ct 230 -91 229 -89 228 -88 ct 
227 -86 226 -84 224 -83 ct 223 -81 222 -80 222 -79 ct 308 -79 l  308 -208 l 
p ef
pom
pum
22476 9956 t
27 0 m  27 -26 l  89 -26 l  89 -213 l  34 -174 l  34 -204 l  91 -243 l 
120 -243 l  120 -26 l  179 -26 l  179 0 l  27 0 l  p ef
367 -80 m  367 -67 365 -56 361 -46 ct 357 -36 352 -27 345 -20 ct 337 -13 328 -7 318 -3 ct 
307 1 294 3 280 3 ct 268 3 256 1 247 -1 ct 237 -4 229 -9 223 -14 ct 216 -19 211 -25 207 -32 ct 
203 -39 201 -47 199 -55 ct 231 -58 l  232 -54 234 -49 236 -45 ct 238 -41 241 -37 245 -33 ct 
249 -30 254 -27 260 -25 ct 266 -23 273 -22 281 -22 ct 289 -22 296 -24 303 -26 ct 
309 -29 315 -32 320 -37 ct 324 -42 328 -48 330 -55 ct 333 -62 334 -70 334 -79 ct 
334 -86 333 -93 331 -99 ct 328 -106 325 -111 320 -116 ct 316 -120 310 -124 304 -126 ct 
297 -129 290 -130 282 -130 ct 277 -130 272 -130 267 -129 ct 263 -128 259 -126 255 -125 ct 
252 -123 248 -121 245 -119 ct 242 -117 239 -115 237 -113 ct 206 -113 l  214 -243 l 
352 -243 l  352 -217 l  243 -217 l  238 -140 l  243 -144 250 -148 259 -151 ct 
267 -154 277 -155 288 -155 ct 300 -155 311 -154 321 -150 ct 330 -146 339 -141 345 -134 ct 
352 -128 357 -120 361 -110 ct 365 -101 367 -91 367 -80 ct p ef
pom
pum
12385 9509 t
183 -122 m  183 -99 180 -79 176 -63 ct 171 -47 165 -34 158 -25 ct 150 -15 141 -8 131 -3 ct 
120 1 109 3 98 3 ct 86 3 75 1 65 -3 ct 54 -8 46 -15 38 -24 ct 30 -34 25 -47 20 -63 ct 
16 -79 14 -99 14 -122 ct 14 -146 16 -167 20 -183 ct 25 -199 31 -212 38 -221 ct 
46 -231 55 -237 65 -241 ct 75 -245 87 -247 99 -247 ct 110 -247 121 -245 131 -241 ct 
142 -237 150 -231 158 -221 ct 166 -212 172 -199 176 -183 ct 180 -167 183 -146 183 -122 ct 
p
151 -122 m  151 -141 150 -157 148 -170 ct 145 -183 142 -193 137 -201 ct 133 -209 127 -214 121 -217 ct 
114 -220 107 -222 99 -222 ct 90 -222 82 -220 76 -217 ct 69 -214 63 -208 59 -201 ct 
54 -193 51 -183 49 -170 ct 46 -157 45 -141 45 -122 ct 45 -103 46 -88 49 -75 ct 
51 -62 54 -52 59 -44 ct 64 -36 69 -31 76 -27 ct 82 -24 90 -22 98 -22 ct 106 -22 114 -24 120 -27 ct 
127 -31 132 -36 137 -44 ct 141 -52 145 -62 147 -75 ct 150 -88 151 -103 151 -122 ct 
p ef
251 -38 m  251 -9 l  251 -3 251 3 251 8 ct 250 13 249 17 248 22 ct 247 26 246 30 244 34 ct 
242 38 240 41 238 45 ct 217 45 l  222 38 226 30 229 23 ct 232 15 233 7 233 0 ct 
218 0 l  218 -38 l  251 -38 l  p ef
474 -122 m  474 -99 471 -79 467 -63 ct 462 -47 456 -34 449 -25 ct 441 -15 432 -8 422 -3 ct 
411 1 400 3 389 3 ct 377 3 366 1 356 -3 ct 345 -8 337 -15 329 -24 ct 321 -34 316 -47 311 -63 ct 
307 -79 305 -99 305 -122 ct 305 -146 307 -167 311 -183 ct 316 -199 322 -212 329 -221 ct 
337 -231 346 -237 356 -241 ct 366 -245 378 -247 390 -247 ct 401 -247 412 -245 422 -241 ct 
433 -237 441 -231 449 -221 ct 457 -212 463 -199 467 -183 ct 471 -167 474 -146 474 -122 ct 
p
442 -122 m  442 -141 441 -157 439 -170 ct 436 -183 433 -193 428 -201 ct 424 -209 418 -214 412 -217 ct 
405 -220 398 -222 390 -222 ct 381 -222 373 -220 367 -217 ct 360 -214 354 -208 350 -201 ct 
345 -193 342 -183 340 -170 ct 337 -157 336 -141 336 -122 ct 336 -103 337 -88 340 -75 ct 
342 -62 345 -52 350 -44 ct 355 -36 360 -31 367 -27 ct 373 -24 381 -22 389 -22 ct 
397 -22 405 -24 411 -27 ct 418 -31 423 -36 428 -44 ct 432 -52 436 -62 438 -75 ct 
441 -88 442 -103 442 -122 ct p ef
659 -122 m  659 -99 656 -79 652 -63 ct 647 -47 641 -34 634 -25 ct 626 -15 617 -8 607 -3 ct 
596 1 585 3 574 3 ct 562 3 551 1 541 -3 ct 530 -8 522 -15 514 -24 ct 506 -34 501 -47 496 -63 ct 
492 -79 490 -99 490 -122 ct 490 -146 492 -167 496 -183 ct 501 -199 507 -212 514 -221 ct 
522 -231 531 -237 541 -241 ct 551 -245 563 -247 575 -247 ct 586 -247 597 -245 607 -241 ct 
618 -237 626 -231 634 -221 ct 642 -212 648 -199 652 -183 ct 656 -167 659 -146 659 -122 ct 
p
627 -122 m  627 -141 626 -157 624 -170 ct 621 -183 618 -193 613 -201 ct 609 -209 603 -214 597 -217 ct 
590 -220 583 -222 575 -222 ct 566 -222 558 -220 552 -217 ct 545 -214 539 -208 535 -201 ct 
530 -193 527 -183 525 -170 ct 522 -157 521 -141 521 -122 ct 521 -103 522 -88 525 -75 ct 
527 -62 530 -52 535 -44 ct 540 -36 545 -31 552 -27 ct 558 -24 566 -22 574 -22 ct 
582 -22 590 -24 596 -27 ct 603 -31 608 -36 613 -44 ct 617 -52 621 -62 623 -75 ct 
626 -88 627 -103 627 -122 ct p ef
pom
pum
12014 8535 t
27 0 m  27 -26 l  89 -26 l  89 -213 l  34 -174 l  34 -204 l  91 -243 l 
120 -243 l  120 -26 l  179 -26 l  179 0 l  27 0 l  p ef
368 -122 m  368 -99 365 -79 361 -63 ct 356 -47 350 -34 343 -25 ct 335 -15 326 -8 316 -3 ct 
305 1 294 3 283 3 ct 271 3 260 1 250 -3 ct 239 -8 231 -15 223 -24 ct 215 -34 210 -47 205 -63 ct 
201 -79 199 -99 199 -122 ct 199 -146 201 -167 205 -183 ct 210 -199 216 -212 223 -221 ct 
231 -231 240 -237 250 -241 ct 260 -245 272 -247 284 -247 ct 295 -247 306 -245 316 -241 ct 
327 -237 335 -231 343 -221 ct 351 -212 357 -199 361 -183 ct 365 -167 368 -146 368 -122 ct 
p
336 -122 m  336 -141 335 -157 333 -170 ct 330 -183 327 -193 322 -201 ct 318 -209 312 -214 306 -217 ct 
299 -220 292 -222 284 -222 ct 275 -222 267 -220 261 -217 ct 254 -214 248 -208 244 -201 ct 
239 -193 236 -183 234 -170 ct 231 -157 230 -141 230 -122 ct 230 -103 231 -88 234 -75 ct 
236 -62 239 -52 244 -44 ct 249 -36 254 -31 261 -27 ct 267 -24 275 -22 283 -22 ct 
291 -22 299 -24 305 -27 ct 312 -31 317 -36 322 -44 ct 326 -52 330 -62 332 -75 ct 
335 -88 336 -103 336 -122 ct p ef
553 -122 m  553 -99 550 -79 546 -63 ct 541 -47 535 -34 528 -25 ct 520 -15 511 -8 501 -3 ct 
490 1 479 3 468 3 ct 456 3 445 1 435 -3 ct 424 -8 416 -15 408 -24 ct 400 -34 395 -47 390 -63 ct 
386 -79 384 -99 384 -122 ct 384 -146 386 -167 390 -183 ct 395 -199 401 -212 408 -221 ct 
416 -231 425 -237 435 -241 ct 445 -245 457 -247 469 -247 ct 480 -247 491 -245 501 -241 ct 
512 -237 520 -231 528 -221 ct 536 -212 542 -199 546 -183 ct 550 -167 553 -146 553 -122 ct 
p
521 -122 m  521 -141 520 -157 518 -170 ct 515 -183 512 -193 507 -201 ct 503 -209 497 -214 491 -217 ct 
484 -220 477 -222 469 -222 ct 460 -222 452 -220 446 -217 ct 439 -214 433 -208 429 -201 ct 
424 -193 421 -183 419 -170 ct 416 -157 415 -141 415 -122 ct 415 -103 416 -88 419 -75 ct 
421 -62 424 -52 429 -44 ct 434 -36 439 -31 446 -27 ct 452 -24 460 -22 468 -22 ct 
476 -22 484 -24 490 -27 ct 497 -31 502 -36 507 -44 ct 511 -52 515 -62 517 -75 ct 
520 -88 521 -103 521 -122 ct p ef
622 -38 m  622 -9 l  622 -3 622 3 622 8 ct 621 13 620 17 619 22 ct 618 26 617 30 615 34 ct 
613 38 611 41 609 45 ct 588 45 l  593 38 597 30 600 23 ct 603 15 604 7 604 0 ct 
589 0 l  589 -38 l  622 -38 l  p ef
844 -122 m  844 -99 841 -79 837 -63 ct 832 -47 826 -34 819 -25 ct 811 -15 802 -8 792 -3 ct 
781 1 770 3 759 3 ct 747 3 736 1 726 -3 ct 715 -8 707 -15 699 -24 ct 691 -34 686 -47 681 -63 ct 
677 -79 675 -99 675 -122 ct 675 -146 677 -167 681 -183 ct 686 -199 692 -212 699 -221 ct 
707 -231 716 -237 726 -241 ct 736 -245 748 -247 760 -247 ct 771 -247 782 -245 792 -241 ct 
803 -237 811 -231 819 -221 ct 827 -212 833 -199 837 -183 ct 841 -167 844 -146 844 -122 ct 
p
812 -122 m  812 -141 811 -157 809 -170 ct 806 -183 803 -193 798 -201 ct 794 -209 788 -214 782 -217 ct 
775 -220 768 -222 760 -222 ct 751 -222 743 -220 737 -217 ct 730 -214 724 -208 720 -201 ct 
715 -193 712 -183 710 -170 ct 707 -157 706 -141 706 -122 ct 706 -103 707 -88 710 -75 ct 
712 -62 715 -52 720 -44 ct 725 -36 730 -31 737 -27 ct 743 -24 751 -22 759 -22 ct 
767 -22 775 -24 781 -27 ct 788 -31 793 -36 798 -44 ct 802 -52 806 -62 808 -75 ct 
811 -88 812 -103 812 -122 ct p ef
1030 -122 m  1030 -99 1027 -79 1023 -63 ct 1018 -47 1012 -34 1005 -25 ct 997 -15 988 -8 978 -3 ct 
967 1 956 3 945 3 ct 933 3 922 1 912 -3 ct 901 -8 893 -15 885 -24 ct 877 -34 872 -47 867 -63 ct 
863 -79 861 -99 861 -122 ct 861 -146 863 -167 867 -183 ct 872 -199 878 -212 885 -221 ct 
893 -231 902 -237 912 -241 ct 922 -245 934 -247 946 -247 ct 957 -247 968 -245 978 -241 ct 
989 -237 997 -231 1005 -221 ct 1013 -212 1019 -199 1023 -183 ct 1027 -167 1030 -146 1030 -122 ct 
p
998 -122 m  998 -141 997 -157 995 -170 ct 992 -183 989 -193 984 -201 ct 980 -209 974 -214 968 -217 ct 
961 -220 954 -222 946 -222 ct 937 -222 929 -220 923 -217 ct 916 -214 910 -208 906 -201 ct 
901 -193 898 -183 896 -170 ct 893 -157 892 -141 892 -122 ct 892 -103 893 -88 896 -75 ct 
898 -62 901 -52 906 -44 ct 911 -36 916 -31 923 -27 ct 929 -24 937 -22 945 -22 ct 
953 -22 961 -24 967 -27 ct 974 -31 979 -36 984 -44 ct 988 -52 992 -62 994 -75 ct 
997 -88 998 -103 998 -122 ct p ef
pom
pum
12014 7562 t
18 0 m  18 -22 l  24 -35 31 -47 39 -58 ct 48 -68 57 -77 66 -85 ct 75 -94 84 -101 94 -109 ct 
103 -116 111 -123 118 -130 ct 126 -137 132 -145 136 -152 ct 141 -160 143 -169 143 -179 ct 
143 -186 142 -192 140 -197 ct 138 -202 135 -207 131 -210 ct 127 -214 122 -217 117 -218 ct 
111 -220 105 -221 99 -221 ct 92 -221 87 -220 81 -218 ct 76 -217 71 -214 67 -211 ct 
62 -207 59 -203 56 -198 ct 53 -193 52 -187 51 -180 ct 19 -183 l  20 -192 23 -200 26 -208 ct 
30 -215 35 -222 42 -228 ct 49 -234 57 -238 66 -242 ct 75 -245 86 -247 99 -247 ct 
111 -247 121 -245 131 -242 ct 140 -239 148 -235 155 -229 ct 161 -224 166 -217 170 -209 ct 
173 -200 175 -191 175 -180 ct 175 -172 173 -164 170 -157 ct 167 -149 164 -142 159 -136 ct 
154 -129 148 -123 142 -116 ct 135 -110 129 -104 122 -98 ct 115 -92 107 -86 100 -81 ct 
93 -75 87 -69 80 -63 ct 74 -57 68 -51 63 -45 ct 58 -39 55 -33 52 -26 ct 179 -26 l 
179 0 l  18 0 l  p ef
368 -122 m  368 -99 365 -79 361 -63 ct 356 -47 350 -34 343 -25 ct 335 -15 326 -8 316 -3 ct 
305 1 294 3 283 3 ct 271 3 260 1 250 -3 ct 239 -8 231 -15 223 -24 ct 215 -34 210 -47 205 -63 ct 
201 -79 199 -99 199 -122 ct 199 -146 201 -167 205 -183 ct 210 -199 216 -212 223 -221 ct 
231 -231 240 -237 250 -241 ct 260 -245 272 -247 284 -247 ct 295 -247 306 -245 316 -241 ct 
327 -237 335 -231 343 -221 ct 351 -212 357 -199 361 -183 ct 365 -167 368 -146 368 -122 ct 
p
336 -122 m  336 -141 335 -157 333 -170 ct 330 -183 327 -193 322 -201 ct 318 -209 312 -214 306 -217 ct 
299 -220 292 -222 284 -222 ct 275 -222 267 -220 261 -217 ct 254 -214 248 -208 244 -201 ct 
239 -193 236 -183 234 -170 ct 231 -157 230 -141 230 -122 ct 230 -103 231 -88 234 -75 ct 
236 -62 239 -52 244 -44 ct 249 -36 254 -31 261 -27 ct 267 -24 275 -22 283 -22 ct 
291 -22 299 -24 305 -27 ct 312 -31 317 -36 322 -44 ct 326 -52 330 -62 332 -75 ct 
335 -88 336 -103 336 -122 ct p ef
553 -122 m  553 -99 550 -79 546 -63 ct 541 -47 535 -34 528 -25 ct 520 -15 511 -8 501 -3 ct 
490 1 479 3 468 3 ct 456 3 445 1 435 -3 ct 424 -8 416 -15 408 -24 ct 400 -34 395 -47 390 -63 ct 
386 -79 384 -99 384 -122 ct 384 -146 386 -167 390 -183 ct 395 -199 401 -212 408 -221 ct 
416 -231 425 -237 435 -241 ct 445 -245 457 -247 469 -247 ct 480 -247 491 -245 501 -241 ct 
512 -237 520 -231 528 -221 ct 536 -212 542 -199 546 -183 ct 550 -167 553 -146 553 -122 ct 
p
521 -122 m  521 -141 520 -157 518 -170 ct 515 -183 512 -193 507 -201 ct 503 -209 497 -214 491 -217 ct 
484 -220 477 -222 469 -222 ct 460 -222 452 -220 446 -217 ct 439 -214 433 -208 429 -201 ct 
424 -193 421 -183 419 -170 ct 416 -157 415 -141 415 -122 ct 415 -103 416 -88 419 -75 ct 
421 -62 424 -52 429 -44 ct 434 -36 439 -31 446 -27 ct 452 -24 460 -22 468 -22 ct 
476 -22 484 -24 490 -27 ct 497 -31 502 -36 507 -44 ct 511 -52 515 -62 517 -75 ct 
520 -88 521 -103 521 -122 ct p ef
622 -38 m  622 -9 l  622 -3 622 3 622 8 ct 621 13 620 17 619 22 ct 618 26 617 30 615 34 ct 
613 38 611 41 609 45 ct 588 45 l  593 38 597 30 600 23 ct 603 15 604 7 604 0 ct 
589 0 l  589 -38 l  622 -38 l  p ef
844 -122 m  844 -99 841 -79 837 -63 ct 832 -47 826 -34 819 -25 ct 811 -15 802 -8 792 -3 ct 
781 1 770 3 759 3 ct 747 3 736 1 726 -3 ct 715 -8 707 -15 699 -24 ct 691 -34 686 -47 681 -63 ct 
677 -79 675 -99 675 -122 ct 675 -146 677 -167 681 -183 ct 686 -199 692 -212 699 -221 ct 
707 -231 716 -237 726 -241 ct 736 -245 748 -247 760 -247 ct 771 -247 782 -245 792 -241 ct 
803 -237 811 -231 819 -221 ct 827 -212 833 -199 837 -183 ct 841 -167 844 -146 844 -122 ct 
p
812 -122 m  812 -141 811 -157 809 -170 ct 806 -183 803 -193 798 -201 ct 794 -209 788 -214 782 -217 ct 
775 -220 768 -222 760 -222 ct 751 -222 743 -220 737 -217 ct 730 -214 724 -208 720 -201 ct 
715 -193 712 -183 710 -170 ct 707 -157 706 -141 706 -122 ct 706 -103 707 -88 710 -75 ct 
712 -62 715 -52 720 -44 ct 725 -36 730 -31 737 -27 ct 743 -24 751 -22 759 -22 ct 
767 -22 775 -24 781 -27 ct 788 -31 793 -36 798 -44 ct 802 -52 806 -62 808 -75 ct 
811 -88 812 -103 812 -122 ct p ef
1030 -122 m  1030 -99 1027 -79 1023 -63 ct 1018 -47 1012 -34 1005 -25 ct 997 -15 988 -8 978 -3 ct 
967 1 956 3 945 3 ct 933 3 922 1 912 -3 ct 901 -8 893 -15 885 -24 ct 877 -34 872 -47 867 -63 ct 
863 -79 861 -99 861 -122 ct 861 -146 863 -167 867 -183 ct 872 -199 878 -212 885 -221 ct 
893 -231 902 -237 912 -241 ct 922 -245 934 -247 946 -247 ct 957 -247 968 -245 978 -241 ct 
989 -237 997 -231 1005 -221 ct 1013 -212 1019 -199 1023 -183 ct 1027 -167 1030 -146 1030 -122 ct 
p
998 -122 m  998 -141 997 -157 995 -170 ct 992 -183 989 -193 984 -201 ct 980 -209 974 -214 968 -217 ct 
961 -220 954 -222 946 -222 ct 937 -222 929 -220 923 -217 ct 916 -214 910 -208 906 -201 ct 
901 -193 898 -183 896 -170 ct 893 -157 892 -141 892 -122 ct 892 -103 893 -88 896 -75 ct 
898 -62 901 -52 906 -44 ct 911 -36 916 -31 923 -27 ct 929 -24 937 -22 945 -22 ct 
953 -22 961 -24 967 -27 ct 974 -31 979 -36 984 -44 ct 988 -52 992 -62 994 -75 ct 
997 -88 998 -103 998 -122 ct p ef
pom
pum
12014 6589 t
181 -68 m  181 -57 179 -47 175 -38 ct 172 -29 166 -22 160 -16 ct 153 -10 144 -5 134 -2 ct 
123 1 112 3 98 3 ct 83 3 71 1 60 -3 ct 50 -6 42 -11 35 -17 ct 28 -24 23 -31 20 -39 ct 
17 -46 14 -55 13 -63 ct 46 -66 l  46 -60 48 -54 51 -48 ct 53 -43 56 -38 61 -35 ct 
65 -31 70 -28 76 -26 ct 83 -24 90 -23 98 -23 ct 114 -23 126 -27 135 -34 ct 144 -42 149 -54 149 -69 ct 
149 -78 147 -85 143 -90 ct 139 -96 134 -100 128 -103 ct 122 -106 115 -108 109 -109 ct 
102 -110 95 -111 89 -111 ct 72 -111 l  72 -138 l  89 -138 l  94 -138 101 -139 107 -140 ct 
113 -141 119 -143 124 -146 ct 129 -149 134 -154 137 -159 ct 141 -164 142 -171 142 -180 ct 
142 -193 138 -203 131 -210 ct 123 -218 112 -221 97 -221 ct 83 -221 72 -218 64 -211 ct 
55 -204 50 -194 49 -182 ct 18 -184 l  19 -195 22 -204 26 -212 ct 31 -220 37 -226 44 -231 ct 
51 -237 59 -241 68 -243 ct 77 -246 87 -247 97 -247 ct 111 -247 122 -245 132 -242 ct 
142 -239 150 -234 156 -228 ct 162 -222 167 -216 170 -208 ct 173 -200 174 -192 174 -183 ct 
174 -176 173 -169 171 -163 ct 169 -157 166 -151 162 -146 ct 158 -141 153 -137 146 -134 ct 
140 -130 132 -127 123 -125 ct 123 -125 l  133 -124 142 -122 149 -118 ct 156 -115 162 -111 167 -105 ct 
171 -100 175 -95 177 -88 ct 180 -82 181 -75 181 -68 ct p ef
368 -122 m  368 -99 365 -79 361 -63 ct 356 -47 350 -34 343 -25 ct 335 -15 326 -8 316 -3 ct 
305 1 294 3 283 3 ct 271 3 260 1 250 -3 ct 239 -8 231 -15 223 -24 ct 215 -34 210 -47 205 -63 ct 
201 -79 199 -99 199 -122 ct 199 -146 201 -167 205 -183 ct 210 -199 216 -212 223 -221 ct 
231 -231 240 -237 250 -241 ct 260 -245 272 -247 284 -247 ct 295 -247 306 -245 316 -241 ct 
327 -237 335 -231 343 -221 ct 351 -212 357 -199 361 -183 ct 365 -167 368 -146 368 -122 ct 
p
336 -122 m  336 -141 335 -157 333 -170 ct 330 -183 327 -193 322 -201 ct 318 -209 312 -214 306 -217 ct 
299 -220 292 -222 284 -222 ct 275 -222 267 -220 261 -217 ct 254 -214 248 -208 244 -201 ct 
239 -193 236 -183 234 -170 ct 231 -157 230 -141 230 -122 ct 230 -103 231 -88 234 -75 ct 
236 -62 239 -52 244 -44 ct 249 -36 254 -31 261 -27 ct 267 -24 275 -22 283 -22 ct 
291 -22 299 -24 305 -27 ct 312 -31 317 -36 322 -44 ct 326 -52 330 -62 332 -75 ct 
335 -88 336 -103 336 -122 ct p ef
553 -122 m  553 -99 550 -79 546 -63 ct 541 -47 535 -34 528 -25 ct 520 -15 511 -8 501 -3 ct 
490 1 479 3 468 3 ct 456 3 445 1 435 -3 ct 424 -8 416 -15 408 -24 ct 400 -34 395 -47 390 -63 ct 
386 -79 384 -99 384 -122 ct 384 -146 386 -167 390 -183 ct 395 -199 401 -212 408 -221 ct 
416 -231 425 -237 435 -241 ct 445 -245 457 -247 469 -247 ct 480 -247 491 -245 501 -241 ct 
512 -237 520 -231 528 -221 ct 536 -212 542 -199 546 -183 ct 550 -167 553 -146 553 -122 ct 
p
521 -122 m  521 -141 520 -157 518 -170 ct 515 -183 512 -193 507 -201 ct 503 -209 497 -214 491 -217 ct 
484 -220 477 -222 469 -222 ct 460 -222 452 -220 446 -217 ct 439 -214 433 -208 429 -201 ct 
424 -193 421 -183 419 -170 ct 416 -157 415 -141 415 -122 ct 415 -103 416 -88 419 -75 ct 
421 -62 424 -52 429 -44 ct 434 -36 439 -31 446 -27 ct 452 -24 460 -22 468 -22 ct 
476 -22 484 -24 490 -27 ct 497 -31 502 -36 507 -44 ct 511 -52 515 -62 517 -75 ct 
520 -88 521 -103 521 -122 ct p ef
622 -38 m  622 -9 l  622 -3 622 3 622 8 ct 621 13 620 17 619 22 ct 618 26 617 30 615 34 ct 
613 38 611 41 609 45 ct 588 45 l  593 38 597 30 600 23 ct 603 15 604 7 604 0 ct 
589 0 l  589 -38 l  622 -38 l  p ef
844 -122 m  844 -99 841 -79 837 -63 ct 832 -47 826 -34 819 -25 ct 811 -15 802 -8 792 -3 ct 
781 1 770 3 759 3 ct 747 3 736 1 726 -3 ct 715 -8 707 -15 699 -24 ct 691 -34 686 -47 681 -63 ct 
677 -79 675 -99 675 -122 ct 675 -146 677 -167 681 -183 ct 686 -199 692 -212 699 -221 ct 
707 -231 716 -237 726 -241 ct 736 -245 748 -247 760 -247 ct 771 -247 782 -245 792 -241 ct 
803 -237 811 -231 819 -221 ct 827 -212 833 -199 837 -183 ct 841 -167 844 -146 844 -122 ct 
p
812 -122 m  812 -141 811 -157 809 -170 ct 806 -183 803 -193 798 -201 ct 794 -209 788 -214 782 -217 ct 
775 -220 768 -222 760 -222 ct 751 -222 743 -220 737 -217 ct 730 -214 724 -208 720 -201 ct 
715 -193 712 -183 710 -170 ct 707 -157 706 -141 706 -122 ct 706 -103 707 -88 710 -75 ct 
712 -62 715 -52 720 -44 ct 725 -36 730 -31 737 -27 ct 743 -24 751 -22 759 -22 ct 
767 -22 775 -24 781 -27 ct 788 -31 793 -36 798 -44 ct 802 -52 806 -62 808 -75 ct 
811 -88 812 -103 812 -122 ct p ef
1030 -122 m  1030 -99 1027 -79 1023 -63 ct 1018 -47 1012 -34 1005 -25 ct 997 -15 988 -8 978 -3 ct 
967 1 956 3 945 3 ct 933 3 922 1 912 -3 ct 901 -8 893 -15 885 -24 ct 877 -34 872 -47 867 -63 ct 
863 -79 861 -99 861 -122 ct 861 -146 863 -167 867 -183 ct 872 -199 878 -212 885 -221 ct 
893 -231 902 -237 912 -241 ct 922 -245 934 -247 946 -247 ct 957 -247 968 -245 978 -241 ct 
989 -237 997 -231 1005 -221 ct 1013 -212 1019 -199 1023 -183 ct 1027 -167 1030 -146 1030 -122 ct 
p
998 -122 m  998 -141 997 -157 995 -170 ct 992 -183 989 -193 984 -201 ct 980 -209 974 -214 968 -217 ct 
961 -220 954 -222 946 -222 ct 937 -222 929 -220 923 -217 ct 916 -214 910 -208 906 -201 ct 
901 -193 898 -183 896 -170 ct 893 -157 892 -141 892 -122 ct 892 -103 893 -88 896 -75 ct 
898 -62 901 -52 906 -44 ct 911 -36 916 -31 923 -27 ct 929 -24 937 -22 945 -22 ct 
953 -22 961 -24 967 -27 ct 974 -31 979 -36 984 -44 ct 988 -52 992 -62 994 -75 ct 
997 -88 998 -103 998 -122 ct p ef
pom
pum
12014 5616 t
152 -55 m  152 0 l  123 0 l  123 -55 l  8 -55 l  8 -79 l  119 -243 l  152 -243 l 
152 -79 l  186 -79 l  186 -55 l  152 -55 l  p
123 -208 m  122 -207 122 -206 121 -205 ct 120 -203 119 -201 118 -199 ct 117 -197 115 -195 114 -193 ct 
113 -191 112 -189 111 -187 ct 49 -96 l  48 -95 47 -94 46 -92 ct 45 -91 44 -89 43 -88 ct 
42 -86 41 -84 39 -83 ct 38 -81 37 -80 37 -79 ct 123 -79 l  123 -208 l  p ef
368 -122 m  368 -99 365 -79 361 -63 ct 356 -47 350 -34 343 -25 ct 335 -15 326 -8 316 -3 ct 
305 1 294 3 283 3 ct 271 3 260 1 250 -3 ct 239 -8 231 -15 223 -24 ct 215 -34 210 -47 205 -63 ct 
201 -79 199 -99 199 -122 ct 199 -146 201 -167 205 -183 ct 210 -199 216 -212 223 -221 ct 
231 -231 240 -237 250 -241 ct 260 -245 272 -247 284 -247 ct 295 -247 306 -245 316 -241 ct 
327 -237 335 -231 343 -221 ct 351 -212 357 -199 361 -183 ct 365 -167 368 -146 368 -122 ct 
p
336 -122 m  336 -141 335 -157 333 -170 ct 330 -183 327 -193 322 -201 ct 318 -209 312 -214 306 -217 ct 
299 -220 292 -222 284 -222 ct 275 -222 267 -220 261 -217 ct 254 -214 248 -208 244 -201 ct 
239 -193 236 -183 234 -170 ct 231 -157 230 -141 230 -122 ct 230 -103 231 -88 234 -75 ct 
236 -62 239 -52 244 -44 ct 249 -36 254 -31 261 -27 ct 267 -24 275 -22 283 -22 ct 
291 -22 299 -24 305 -27 ct 312 -31 317 -36 322 -44 ct 326 -52 330 -62 332 -75 ct 
335 -88 336 -103 336 -122 ct p ef
553 -122 m  553 -99 550 -79 546 -63 ct 541 -47 535 -34 528 -25 ct 520 -15 511 -8 501 -3 ct 
490 1 479 3 468 3 ct 456 3 445 1 435 -3 ct 424 -8 416 -15 408 -24 ct 400 -34 395 -47 390 -63 ct 
386 -79 384 -99 384 -122 ct 384 -146 386 -167 390 -183 ct 395 -199 401 -212 408 -221 ct 
416 -231 425 -237 435 -241 ct 445 -245 457 -247 469 -247 ct 480 -247 491 -245 501 -241 ct 
512 -237 520 -231 528 -221 ct 536 -212 542 -199 546 -183 ct 550 -167 553 -146 553 -122 ct 
p
521 -122 m  521 -141 520 -157 518 -170 ct 515 -183 512 -193 507 -201 ct 503 -209 497 -214 491 -217 ct 
484 -220 477 -222 469 -222 ct 460 -222 452 -220 446 -217 ct 439 -214 433 -208 429 -201 ct 
424 -193 421 -183 419 -170 ct 416 -157 415 -141 415 -122 ct 415 -103 416 -88 419 -75 ct 
421 -62 424 -52 429 -44 ct 434 -36 439 -31 446 -27 ct 452 -24 460 -22 468 -22 ct 
476 -22 484 -24 490 -27 ct 497 -31 502 -36 507 -44 ct 511 -52 515 -62 517 -75 ct 
520 -88 521 -103 521 -122 ct p ef
622 -38 m  622 -9 l  622 -3 622 3 622 8 ct 621 13 620 17 619 22 ct 618 26 617 30 615 34 ct 
613 38 611 41 609 45 ct 588 45 l  593 38 597 30 600 23 ct 603 15 604 7 604 0 ct 
589 0 l  589 -38 l  622 -38 l  p ef
844 -122 m  844 -99 841 -79 837 -63 ct 832 -47 826 -34 819 -25 ct 811 -15 802 -8 792 -3 ct 
781 1 770 3 759 3 ct 747 3 736 1 726 -3 ct 715 -8 707 -15 699 -24 ct 691 -34 686 -47 681 -63 ct 
677 -79 675 -99 675 -122 ct 675 -146 677 -167 681 -183 ct 686 -199 692 -212 699 -221 ct 
707 -231 716 -237 726 -241 ct 736 -245 748 -247 760 -247 ct 771 -247 782 -245 792 -241 ct 
803 -237 811 -231 819 -221 ct 827 -212 833 -199 837 -183 ct 841 -167 844 -146 844 -122 ct 
p
812 -122 m  812 -141 811 -157 809 -170 ct 806 -183 803 -193 798 -201 ct 794 -209 788 -214 782 -217 ct 
775 -220 768 -222 760 -222 ct 751 -222 743 -220 737 -217 ct 730 -214 724 -208 720 -201 ct 
715 -193 712 -183 710 -170 ct 707 -157 706 -141 706 -122 ct 706 -103 707 -88 710 -75 ct 
712 -62 715 -52 720 -44 ct 725 -36 730 -31 737 -27 ct 743 -24 751 -22 759 -22 ct 
767 -22 775 -24 781 -27 ct 788 -31 793 -36 798 -44 ct 802 -52 806 -62 808 -75 ct 
811 -88 812 -103 812 -122 ct p ef
1030 -122 m  1030 -99 1027 -79 1023 -63 ct 1018 -47 1012 -34 1005 -25 ct 997 -15 988 -8 978 -3 ct 
967 1 956 3 945 3 ct 933 3 922 1 912 -3 ct 901 -8 893 -15 885 -24 ct 877 -34 872 -47 867 -63 ct 
863 -79 861 -99 861 -122 ct 861 -146 863 -167 867 -183 ct 872 -199 878 -212 885 -221 ct 
893 -231 902 -237 912 -241 ct 922 -245 934 -247 946 -247 ct 957 -247 968 -245 978 -241 ct 
989 -237 997 -231 1005 -221 ct 1013 -212 1019 -199 1023 -183 ct 1027 -167 1030 -146 1030 -122 ct 
p
998 -122 m  998 -141 997 -157 995 -170 ct 992 -183 989 -193 984 -201 ct 980 -209 974 -214 968 -217 ct 
961 -220 954 -222 946 -222 ct 937 -222 929 -220 923 -217 ct 916 -214 910 -208 906 -201 ct 
901 -193 898 -183 896 -170 ct 893 -157 892 -141 892 -122 ct 892 -103 893 -88 896 -75 ct 
898 -62 901 -52 906 -44 ct 911 -36 916 -31 923 -27 ct 929 -24 937 -22 945 -22 ct 
953 -22 961 -24 967 -27 ct 974 -31 979 -36 984 -44 ct 988 -52 992 -62 994 -75 ct 
997 -88 998 -103 998 -122 ct p ef
pom
pum
12014 4643 t
182 -80 m  182 -67 180 -56 176 -46 ct 172 -36 167 -27 160 -20 ct 152 -13 143 -7 133 -3 ct 
122 1 109 3 95 3 ct 83 3 71 1 62 -1 ct 52 -4 44 -9 38 -14 ct 31 -19 26 -25 22 -32 ct 
18 -39 16 -47 14 -55 ct 46 -58 l  47 -54 49 -49 51 -45 ct 53 -41 56 -37 60 -33 ct 
64 -30 69 -27 75 -25 ct 81 -23 88 -22 96 -22 ct 104 -22 111 -24 118 -26 ct 124 -29 130 -32 135 -37 ct 
139 -42 143 -48 145 -55 ct 148 -62 149 -70 149 -79 ct 149 -86 148 -93 146 -99 ct 
143 -106 140 -111 135 -116 ct 131 -120 125 -124 119 -126 ct 112 -129 105 -130 97 -130 ct 
92 -130 87 -130 82 -129 ct 78 -128 74 -126 70 -125 ct 67 -123 63 -121 60 -119 ct 
57 -117 54 -115 52 -113 ct 21 -113 l  29 -243 l  167 -243 l  167 -217 l  58 -217 l 
53 -140 l  58 -144 65 -148 74 -151 ct 82 -154 92 -155 103 -155 ct 115 -155 126 -154 136 -150 ct 
145 -146 154 -141 160 -134 ct 167 -128 172 -120 176 -110 ct 180 -101 182 -91 182 -80 ct 
p ef
368 -122 m  368 -99 365 -79 361 -63 ct 356 -47 350 -34 343 -25 ct 335 -15 326 -8 316 -3 ct 
305 1 294 3 283 3 ct 271 3 260 1 250 -3 ct 239 -8 231 -15 223 -24 ct 215 -34 210 -47 205 -63 ct 
201 -79 199 -99 199 -122 ct 199 -146 201 -167 205 -183 ct 210 -199 216 -212 223 -221 ct 
231 -231 240 -237 250 -241 ct 260 -245 272 -247 284 -247 ct 295 -247 306 -245 316 -241 ct 
327 -237 335 -231 343 -221 ct 351 -212 357 -199 361 -183 ct 365 -167 368 -146 368 -122 ct 
p
336 -122 m  336 -141 335 -157 333 -170 ct 330 -183 327 -193 322 -201 ct 318 -209 312 -214 306 -217 ct 
299 -220 292 -222 284 -222 ct 275 -222 267 -220 261 -217 ct 254 -214 248 -208 244 -201 ct 
239 -193 236 -183 234 -170 ct 231 -157 230 -141 230 -122 ct 230 -103 231 -88 234 -75 ct 
236 -62 239 -52 244 -44 ct 249 -36 254 -31 261 -27 ct 267 -24 275 -22 283 -22 ct 
291 -22 299 -24 305 -27 ct 312 -31 317 -36 322 -44 ct 326 -52 330 -62 332 -75 ct 
335 -88 336 -103 336 -122 ct p ef
553 -122 m  553 -99 550 -79 546 -63 ct 541 -47 535 -34 528 -25 ct 520 -15 511 -8 501 -3 ct 
490 1 479 3 468 3 ct 456 3 445 1 435 -3 ct 424 -8 416 -15 408 -24 ct 400 -34 395 -47 390 -63 ct 
386 -79 384 -99 384 -122 ct 384 -146 386 -167 390 -183 ct 395 -199 401 -212 408 -221 ct 
416 -231 425 -237 435 -241 ct 445 -245 457 -247 469 -247 ct 480 -247 491 -245 501 -241 ct 
512 -237 520 -231 528 -221 ct 536 -212 542 -199 546 -183 ct 550 -167 553 -146 553 -122 ct 
p
521 -122 m  521 -141 520 -157 518 -170 ct 515 -183 512 -193 507 -201 ct 503 -209 497 -214 491 -217 ct 
484 -220 477 -222 469 -222 ct 460 -222 452 -220 446 -217 ct 439 -214 433 -208 429 -201 ct 
424 -193 421 -183 419 -170 ct 416 -157 415 -141 415 -122 ct 415 -103 416 -88 419 -75 ct 
421 -62 424 -52 429 -44 ct 434 -36 439 -31 446 -27 ct 452 -24 460 -22 468 -22 ct 
476 -22 484 -24 490 -27 ct 497 -31 502 -36 507 -44 ct 511 -52 515 -62 517 -75 ct 
520 -88 521 -103 521 -122 ct p ef
622 -38 m  622 -9 l  622 -3 622 3 622 8 ct 621 13 620 17 619 22 ct 618 26 617 30 615 34 ct 
613 38 611 41 609 45 ct 588 45 l  593 38 597 30 600 23 ct 603 15 604 7 604 0 ct 
589 0 l  589 -38 l  622 -38 l  p ef
844 -122 m  844 -99 841 -79 837 -63 ct 832 -47 826 -34 819 -25 ct 811 -15 802 -8 792 -3 ct 
781 1 770 3 759 3 ct 747 3 736 1 726 -3 ct 715 -8 707 -15 699 -24 ct 691 -34 686 -47 681 -63 ct 
677 -79 675 -99 675 -122 ct 675 -146 677 -167 681 -183 ct 686 -199 692 -212 699 -221 ct 
707 -231 716 -237 726 -241 ct 736 -245 748 -247 760 -247 ct 771 -247 782 -245 792 -241 ct 
803 -237 811 -231 819 -221 ct 827 -212 833 -199 837 -183 ct 841 -167 844 -146 844 -122 ct 
p
812 -122 m  812 -141 811 -157 809 -170 ct 806 -183 803 -193 798 -201 ct 794 -209 788 -214 782 -217 ct 
775 -220 768 -222 760 -222 ct 751 -222 743 -220 737 -217 ct 730 -214 724 -208 720 -201 ct 
715 -193 712 -183 710 -170 ct 707 -157 706 -141 706 -122 ct 706 -103 707 -88 710 -75 ct 
712 -62 715 -52 720 -44 ct 725 -36 730 -31 737 -27 ct 743 -24 751 -22 759 -22 ct 
767 -22 775 -24 781 -27 ct 788 -31 793 -36 798 -44 ct 802 -52 806 -62 808 -75 ct 
811 -88 812 -103 812 -122 ct p ef
1030 -122 m  1030 -99 1027 -79 1023 -63 ct 1018 -47 1012 -34 1005 -25 ct 997 -15 988 -8 978 -3 ct 
967 1 956 3 945 3 ct 933 3 922 1 912 -3 ct 901 -8 893 -15 885 -24 ct 877 -34 872 -47 867 -63 ct 
863 -79 861 -99 861 -122 ct 861 -146 863 -167 867 -183 ct 872 -199 878 -212 885 -221 ct 
893 -231 902 -237 912 -241 ct 922 -245 934 -247 946 -247 ct 957 -247 968 -245 978 -241 ct 
989 -237 997 -231 1005 -221 ct 1013 -212 1019 -199 1023 -183 ct 1027 -167 1030 -146 1030 -122 ct 
p
998 -122 m  998 -141 997 -157 995 -170 ct 992 -183 989 -193 984 -201 ct 980 -209 974 -214 968 -217 ct 
961 -220 954 -222 946 -222 ct 937 -222 929 -220 923 -217 ct 916 -214 910 -208 906 -201 ct 
901 -193 898 -183 896 -170 ct 893 -157 892 -141 892 -122 ct 892 -103 893 -88 896 -75 ct 
898 -62 901 -52 906 -44 ct 911 -36 916 -31 923 -27 ct 929 -24 937 -22 945 -22 ct 
953 -22 961 -24 967 -27 ct 974 -31 979 -36 984 -44 ct 988 -52 992 -62 994 -75 ct 
997 -88 998 -103 998 -122 ct p ef
pom
pum
12014 3670 t
181 -80 m  181 -68 179 -57 176 -47 ct 172 -36 167 -28 161 -20 ct 154 -13 146 -7 136 -3 ct 
126 1 115 3 102 3 ct 88 3 76 0 65 -5 ct 55 -11 46 -18 39 -28 ct 32 -39 27 -51 23 -66 ct 
20 -81 18 -97 18 -116 ct 18 -138 20 -157 24 -173 ct 28 -190 34 -203 41 -214 ct 
48 -225 58 -233 68 -239 ct 79 -244 91 -247 105 -247 ct 113 -247 121 -246 128 -244 ct 
135 -243 142 -240 148 -236 ct 154 -232 159 -227 163 -221 ct 168 -215 171 -207 174 -198 ct 
144 -192 l  141 -203 136 -210 129 -215 ct 122 -220 114 -222 104 -222 ct 96 -222 88 -220 81 -216 ct 
74 -212 69 -206 64 -198 ct 59 -190 55 -180 53 -168 ct 50 -156 49 -142 49 -126 ct 
54 -136 62 -144 73 -150 ct 83 -155 95 -158 108 -158 ct 119 -158 129 -156 138 -153 ct 
147 -149 154 -144 161 -137 ct 167 -130 172 -122 176 -113 ct 179 -103 181 -92 181 -80 ct 
p
149 -79 m  149 -87 148 -95 146 -102 ct 144 -108 141 -114 137 -119 ct 133 -124 128 -128 122 -130 ct 
115 -133 108 -134 100 -134 ct 95 -134 89 -133 83 -131 ct 78 -130 72 -127 68 -123 ct 
63 -120 59 -115 56 -109 ct 53 -102 52 -95 52 -86 ct 52 -77 53 -69 55 -61 ct 58 -53 61 -46 65 -41 ct 
70 -35 75 -30 81 -27 ct 87 -24 94 -22 101 -22 ct 109 -22 116 -23 121 -26 ct 127 -29 132 -32 137 -37 ct 
141 -42 144 -48 146 -55 ct 148 -62 149 -70 149 -79 ct p ef
368 -122 m  368 -99 365 -79 361 -63 ct 356 -47 350 -34 343 -25 ct 335 -15 326 -8 316 -3 ct 
305 1 294 3 283 3 ct 271 3 260 1 250 -3 ct 239 -8 231 -15 223 -24 ct 215 -34 210 -47 205 -63 ct 
201 -79 199 -99 199 -122 ct 199 -146 201 -167 205 -183 ct 210 -199 216 -212 223 -221 ct 
231 -231 240 -237 250 -241 ct 260 -245 272 -247 284 -247 ct 295 -247 306 -245 316 -241 ct 
327 -237 335 -231 343 -221 ct 351 -212 357 -199 361 -183 ct 365 -167 368 -146 368 -122 ct 
p
336 -122 m  336 -141 335 -157 333 -170 ct 330 -183 327 -193 322 -201 ct 318 -209 312 -214 306 -217 ct 
299 -220 292 -222 284 -222 ct 275 -222 267 -220 261 -217 ct 254 -214 248 -208 244 -201 ct 
239 -193 236 -183 234 -170 ct 231 -157 230 -141 230 -122 ct 230 -103 231 -88 234 -75 ct 
236 -62 239 -52 244 -44 ct 249 -36 254 -31 261 -27 ct 267 -24 275 -22 283 -22 ct 
291 -22 299 -24 305 -27 ct 312 -31 317 -36 322 -44 ct 326 -52 330 -62 332 -75 ct 
335 -88 336 -103 336 -122 ct p ef
553 -122 m  553 -99 550 -79 546 -63 ct 541 -47 535 -34 528 -25 ct 520 -15 511 -8 501 -3 ct 
490 1 479 3 468 3 ct 456 3 445 1 435 -3 ct 424 -8 416 -15 408 -24 ct 400 -34 395 -47 390 -63 ct 
386 -79 384 -99 384 -122 ct 384 -146 386 -167 390 -183 ct 395 -199 401 -212 408 -221 ct 
416 -231 425 -237 435 -241 ct 445 -245 457 -247 469 -247 ct 480 -247 491 -245 501 -241 ct 
512 -237 520 -231 528 -221 ct 536 -212 542 -199 546 -183 ct 550 -167 553 -146 553 -122 ct 
p
521 -122 m  521 -141 520 -157 518 -170 ct 515 -183 512 -193 507 -201 ct 503 -209 497 -214 491 -217 ct 
484 -220 477 -222 469 -222 ct 460 -222 452 -220 446 -217 ct 439 -214 433 -208 429 -201 ct 
424 -193 421 -183 419 -170 ct 416 -157 415 -141 415 -122 ct 415 -103 416 -88 419 -75 ct 
421 -62 424 -52 429 -44 ct 434 -36 439 -31 446 -27 ct 452 -24 460 -22 468 -22 ct 
476 -22 484 -24 490 -27 ct 497 -31 502 -36 507 -44 ct 511 -52 515 -62 517 -75 ct 
520 -88 521 -103 521 -122 ct p ef
622 -38 m  622 -9 l  622 -3 622 3 622 8 ct 621 13 620 17 619 22 ct 618 26 617 30 615 34 ct 
613 38 611 41 609 45 ct 588 45 l  593 38 597 30 600 23 ct 603 15 604 7 604 0 ct 
589 0 l  589 -38 l  622 -38 l  p ef
844 -122 m  844 -99 841 -79 837 -63 ct 832 -47 826 -34 819 -25 ct 811 -15 802 -8 792 -3 ct 
781 1 770 3 759 3 ct 747 3 736 1 726 -3 ct 715 -8 707 -15 699 -24 ct 691 -34 686 -47 681 -63 ct 
677 -79 675 -99 675 -122 ct 675 -146 677 -167 681 -183 ct 686 -199 692 -212 699 -221 ct 
707 -231 716 -237 726 -241 ct 736 -245 748 -247 760 -247 ct 771 -247 782 -245 792 -241 ct 
803 -237 811 -231 819 -221 ct 827 -212 833 -199 837 -183 ct 841 -167 844 -146 844 -122 ct 
p
812 -122 m  812 -141 811 -157 809 -170 ct 806 -183 803 -193 798 -201 ct 794 -209 788 -214 782 -217 ct 
775 -220 768 -222 760 -222 ct 751 -222 743 -220 737 -217 ct 730 -214 724 -208 720 -201 ct 
715 -193 712 -183 710 -170 ct 707 -157 706 -141 706 -122 ct 706 -103 707 -88 710 -75 ct 
712 -62 715 -52 720 -44 ct 725 -36 730 -31 737 -27 ct 743 -24 751 -22 759 -22 ct 
767 -22 775 -24 781 -27 ct 788 -31 793 -36 798 -44 ct 802 -52 806 -62 808 -75 ct 
811 -88 812 -103 812 -122 ct p ef
1030 -122 m  1030 -99 1027 -79 1023 -63 ct 1018 -47 1012 -34 1005 -25 ct 997 -15 988 -8 978 -3 ct 
967 1 956 3 945 3 ct 933 3 922 1 912 -3 ct 901 -8 893 -15 885 -24 ct 877 -34 872 -47 867 -63 ct 
863 -79 861 -99 861 -122 ct 861 -146 863 -167 867 -183 ct 872 -199 878 -212 885 -221 ct 
893 -231 902 -237 912 -241 ct 922 -245 934 -247 946 -247 ct 957 -247 968 -245 978 -241 ct 
989 -237 997 -231 1005 -221 ct 1013 -212 1019 -199 1023 -183 ct 1027 -167 1030 -146 1030 -122 ct 
p
998 -122 m  998 -141 997 -157 995 -170 ct 992 -183 989 -193 984 -201 ct 980 -209 974 -214 968 -217 ct 
961 -220 954 -222 946 -222 ct 937 -222 929 -220 923 -217 ct 916 -214 910 -208 906 -201 ct 
901 -193 898 -183 896 -170 ct 893 -157 892 -141 892 -122 ct 892 -103 893 -88 896 -75 ct 
898 -62 901 -52 906 -44 ct 911 -36 916 -31 923 -27 ct 929 -24 937 -22 945 -22 ct 
953 -22 961 -24 967 -27 ct 974 -31 979 -36 984 -44 ct 988 -52 992 -62 994 -75 ct 
997 -88 998 -103 998 -122 ct p ef
pom
pum
12014 2696 t
179 -218 m  166 -200 155 -182 145 -165 ct 135 -147 126 -130 119 -113 ct 111 -95 106 -77 101 -59 ct 
97 -41 95 -21 95 -1 ct 63 -1 l  63 -20 65 -39 70 -58 ct 74 -76 81 -95 88 -113 ct 
96 -131 105 -148 116 -166 ct 126 -183 137 -200 149 -217 ct 18 -217 l  18 -243 l 
179 -243 l  179 -218 l  p ef
368 -122 m  368 -99 365 -79 361 -63 ct 356 -47 350 -34 343 -25 ct 335 -15 326 -8 316 -3 ct 
305 1 294 3 283 3 ct 271 3 260 1 250 -3 ct 239 -8 231 -15 223 -24 ct 215 -34 210 -47 205 -63 ct 
201 -79 199 -99 199 -122 ct 199 -146 201 -167 205 -183 ct 210 -199 216 -212 223 -221 ct 
231 -231 240 -237 250 -241 ct 260 -245 272 -247 284 -247 ct 295 -247 306 -245 316 -241 ct 
327 -237 335 -231 343 -221 ct 351 -212 357 -199 361 -183 ct 365 -167 368 -146 368 -122 ct 
p
336 -122 m  336 -141 335 -157 333 -170 ct 330 -183 327 -193 322 -201 ct 318 -209 312 -214 306 -217 ct 
299 -220 292 -222 284 -222 ct 275 -222 267 -220 261 -217 ct 254 -214 248 -208 244 -201 ct 
239 -193 236 -183 234 -170 ct 231 -157 230 -141 230 -122 ct 230 -103 231 -88 234 -75 ct 
236 -62 239 -52 244 -44 ct 249 -36 254 -31 261 -27 ct 267 -24 275 -22 283 -22 ct 
291 -22 299 -24 305 -27 ct 312 -31 317 -36 322 -44 ct 326 -52 330 -62 332 -75 ct 
335 -88 336 -103 336 -122 ct p ef
553 -122 m  553 -99 550 -79 546 -63 ct 541 -47 535 -34 528 -25 ct 520 -15 511 -8 501 -3 ct 
490 1 479 3 468 3 ct 456 3 445 1 435 -3 ct 424 -8 416 -15 408 -24 ct 400 -34 395 -47 390 -63 ct 
386 -79 384 -99 384 -122 ct 384 -146 386 -167 390 -183 ct 395 -199 401 -212 408 -221 ct 
416 -231 425 -237 435 -241 ct 445 -245 457 -247 469 -247 ct 480 -247 491 -245 501 -241 ct 
512 -237 520 -231 528 -221 ct 536 -212 542 -199 546 -183 ct 550 -167 553 -146 553 -122 ct 
p
521 -122 m  521 -141 520 -157 518 -170 ct 515 -183 512 -193 507 -201 ct 503 -209 497 -214 491 -217 ct 
484 -220 477 -222 469 -222 ct 460 -222 452 -220 446 -217 ct 439 -214 433 -208 429 -201 ct 
424 -193 421 -183 419 -170 ct 416 -157 415 -141 415 -122 ct 415 -103 416 -88 419 -75 ct 
421 -62 424 -52 429 -44 ct 434 -36 439 -31 446 -27 ct 452 -24 460 -22 468 -22 ct 
476 -22 484 -24 490 -27 ct 497 -31 502 -36 507 -44 ct 511 -52 515 -62 517 -75 ct 
520 -88 521 -103 521 -122 ct p ef
622 -38 m  622 -9 l  622 -3 622 3 622 8 ct 621 13 620 17 619 22 ct 618 26 617 30 615 34 ct 
613 38 611 41 609 45 ct 588 45 l  593 38 597 30 600 23 ct 603 15 604 7 604 0 ct 
589 0 l  589 -38 l  622 -38 l  p ef
844 -122 m  844 -99 841 -79 837 -63 ct 832 -47 826 -34 819 -25 ct 811 -15 802 -8 792 -3 ct 
781 1 770 3 759 3 ct 747 3 736 1 726 -3 ct 715 -8 707 -15 699 -24 ct 691 -34 686 -47 681 -63 ct 
677 -79 675 -99 675 -122 ct 675 -146 677 -167 681 -183 ct 686 -199 692 -212 699 -221 ct 
707 -231 716 -237 726 -241 ct 736 -245 748 -247 760 -247 ct 771 -247 782 -245 792 -241 ct 
803 -237 811 -231 819 -221 ct 827 -212 833 -199 837 -183 ct 841 -167 844 -146 844 -122 ct 
p
812 -122 m  812 -141 811 -157 809 -170 ct 806 -183 803 -193 798 -201 ct 794 -209 788 -214 782 -217 ct 
775 -220 768 -222 760 -222 ct 751 -222 743 -220 737 -217 ct 730 -214 724 -208 720 -201 ct 
715 -193 712 -183 710 -170 ct 707 -157 706 -141 706 -122 ct 706 -103 707 -88 710 -75 ct 
712 -62 715 -52 720 -44 ct 725 -36 730 -31 737 -27 ct 743 -24 751 -22 759 -22 ct 
767 -22 775 -24 781 -27 ct 788 -31 793 -36 798 -44 ct 802 -52 806 -62 808 -75 ct 
811 -88 812 -103 812 -122 ct p ef
1030 -122 m  1030 -99 1027 -79 1023 -63 ct 1018 -47 1012 -34 1005 -25 ct 997 -15 988 -8 978 -3 ct 
967 1 956 3 945 3 ct 933 3 922 1 912 -3 ct 901 -8 893 -15 885 -24 ct 877 -34 872 -47 867 -63 ct 
863 -79 861 -99 861 -122 ct 861 -146 863 -167 867 -183 ct 872 -199 878 -212 885 -221 ct 
893 -231 902 -237 912 -241 ct 922 -245 934 -247 946 -247 ct 957 -247 968 -245 978 -241 ct 
989 -237 997 -231 1005 -221 ct 1013 -212 1019 -199 1023 -183 ct 1027 -167 1030 -146 1030 -122 ct 
p
998 -122 m  998 -141 997 -157 995 -170 ct 992 -183 989 -193 984 -201 ct 980 -209 974 -214 968 -217 ct 
961 -220 954 -222 946 -222 ct 937 -222 929 -220 923 -217 ct 916 -214 910 -208 906 -201 ct 
901 -193 898 -183 896 -170 ct 893 -157 892 -141 892 -122 ct 892 -103 893 -88 896 -75 ct 
898 -62 901 -52 906 -44 ct 911 -36 916 -31 923 -27 ct 929 -24 937 -22 945 -22 ct 
953 -22 961 -24 967 -27 ct 974 -31 979 -36 984 -44 ct 988 -52 992 -62 994 -75 ct 
997 -88 998 -103 998 -122 ct p ef
pom
0.003 0.273 0.527 c 23283 6697 m  24083 6697 l  ps
pum
24183 6816 t
0.003 0.003 0.003 c 137 -220 m  123 -220 111 -218 100 -213 ct 89 -209 80 -202 73 -194 ct 
66 -185 61 -175 57 -163 ct 53 -151 51 -138 51 -123 ct 51 -108 53 -95 57 -83 ct 
61 -71 67 -60 74 -52 ct 82 -43 91 -36 102 -31 ct 112 -26 124 -24 138 -24 ct 147 -24 156 -25 164 -28 ct 
171 -30 178 -34 185 -38 ct 191 -43 197 -48 201 -54 ct 206 -60 211 -67 215 -75 ct 
241 -61 l  237 -52 232 -44 225 -36 ct 219 -28 211 -21 203 -15 ct 194 -10 184 -5 173 -2 ct 
162 1 150 3 136 3 ct 117 3 99 0 85 -6 ct 70 -13 58 -21 48 -33 ct 38 -44 30 -57 25 -73 ct 
20 -88 18 -105 18 -123 ct 18 -142 21 -159 26 -174 ct 31 -190 39 -203 49 -213 ct 
59 -224 71 -232 86 -238 ct 101 -244 117 -247 136 -247 ct 162 -247 184 -242 201 -232 ct 
218 -222 231 -207 239 -187 ct 208 -176 l  206 -182 203 -188 199 -193 ct 195 -198 190 -203 184 -207 ct 
178 -211 171 -214 163 -216 ct 156 -219 147 -220 137 -220 ct p ef
246 0 m  246 -24 l  360 -163 l  253 -163 l  253 -187 l  395 -187 l  395 -163 l 
281 -24 l  402 -24 l  402 0 l  246 0 l  p ef
494 3 m  476 3 462 -2 452 -12 ct 443 -22 438 -35 438 -53 ct 438 -65 440 -75 445 -83 ct 
450 -91 456 -97 463 -102 ct 471 -106 479 -109 489 -111 ct 499 -113 509 -114 518 -114 ct 
560 -114 l  560 -124 l  560 -132 560 -138 558 -144 ct 556 -149 554 -154 551 -157 ct 
547 -161 543 -163 538 -165 ct 533 -166 527 -167 520 -167 ct 514 -167 509 -167 504 -166 ct 
499 -165 495 -163 492 -161 ct 488 -159 485 -156 483 -152 ct 481 -148 479 -143 479 -137 ct 
446 -140 l  447 -148 450 -154 453 -160 ct 456 -167 461 -172 467 -176 ct 472 -181 480 -184 489 -187 ct 
498 -189 508 -191 521 -191 ct 545 -191 562 -185 574 -175 ct 586 -164 592 -148 592 -128 ct 
592 -48 l  592 -38 593 -31 595 -27 ct 598 -22 602 -20 609 -20 ct 611 -20 613 -20 614 -20 ct 
616 -20 618 -21 619 -21 ct 619 -2 l  615 -1 612 0 608 0 ct 604 1 600 1 595 1 ct 
590 1 584 0 580 -1 ct 576 -3 573 -5 570 -8 ct 567 -11 565 -15 564 -20 ct 563 -25 562 -30 561 -36 ct 
560 -36 l  557 -30 553 -25 549 -20 ct 545 -15 541 -11 536 -8 ct 530 -4 524 -2 518 0 ct 
511 2 503 3 494 3 ct p
501 -20 m  511 -20 520 -22 527 -26 ct 535 -29 541 -34 546 -39 ct 551 -45 554 -51 557 -58 ct 
559 -64 560 -71 560 -77 ct 560 -92 l  526 -92 l  519 -92 512 -92 505 -91 ct 
498 -90 492 -88 487 -85 ct 482 -82 478 -78 474 -73 ct 471 -67 470 -61 470 -52 ct 
470 -42 473 -34 478 -29 ct 484 -23 491 -20 501 -20 ct p ef
773 -52 m  773 -43 771 -36 768 -29 ct 764 -22 759 -16 753 -11 ct 746 -7 739 -3 729 -1 ct 
720 2 709 3 697 3 ct 686 3 677 2 668 1 ct 659 -1 652 -4 645 -8 ct 638 -11 633 -16 629 -22 ct 
624 -28 621 -36 619 -44 ct 646 -50 l  649 -40 654 -32 663 -28 ct 671 -23 682 -21 697 -21 ct 
704 -21 710 -21 715 -22 ct 721 -23 726 -25 730 -27 ct 734 -29 737 -32 739 -36 ct 
741 -39 743 -44 743 -50 ct 743 -55 741 -60 739 -63 ct 736 -67 732 -70 728 -73 ct 
723 -75 717 -77 710 -79 ct 704 -81 696 -83 688 -85 ct 681 -87 673 -89 666 -91 ct 
659 -94 652 -97 646 -101 ct 640 -105 635 -110 632 -116 ct 628 -122 626 -129 626 -138 ct 
626 -155 632 -168 644 -177 ct 657 -186 674 -190 697 -190 ct 718 -190 734 -186 746 -179 ct 
759 -172 766 -160 769 -144 ct 742 -141 l  741 -146 739 -150 736 -153 ct 733 -156 730 -159 726 -161 ct 
722 -163 718 -164 713 -165 ct 708 -166 703 -167 697 -167 ct 683 -167 673 -164 666 -160 ct 
660 -156 656 -149 656 -141 ct 656 -136 658 -132 660 -128 ct 663 -125 666 -122 670 -120 ct 
675 -118 680 -116 686 -114 ct 693 -113 699 -111 707 -109 ct 712 -108 717 -106 722 -105 ct 
727 -103 732 -102 737 -100 ct 742 -98 747 -95 751 -93 ct 755 -90 759 -87 762 -83 ct 
765 -79 768 -75 770 -70 ct 772 -65 773 -59 773 -52 ct p ef
1082 -94 m  1082 -61 1074 -37 1060 -21 ct 1046 -5 1025 3 997 3 ct 984 3 973 1 963 -3 ct 
952 -7 944 -13 937 -21 ct 930 -29 924 -39 920 -51 ct 917 -63 915 -77 915 -94 ct 
915 -158 943 -190 998 -190 ct 1013 -190 1025 -188 1036 -184 ct 1046 -180 1055 -174 1062 -166 ct 
1068 -158 1073 -148 1077 -136 ct 1080 -124 1082 -110 1082 -94 ct p
1049 -94 m  1049 -108 1048 -120 1046 -129 ct 1043 -139 1040 -146 1036 -152 ct 
1031 -158 1026 -161 1020 -164 ct 1014 -166 1007 -167 999 -167 ct 991 -167 984 -166 977 -164 ct 
971 -161 966 -157 961 -152 ct 957 -146 953 -138 951 -129 ct 949 -120 947 -108 947 -94 ct 
947 -79 949 -67 951 -58 ct 954 -48 957 -41 962 -35 ct 966 -30 971 -26 977 -23 ct 
983 -21 990 -20 997 -20 ct 1005 -20 1012 -21 1019 -23 ct 1025 -26 1030 -29 1035 -35 ct 
1039 -41 1043 -48 1045 -58 ct 1048 -67 1049 -79 1049 -94 ct p ef
1267 -94 m  1267 -29 1244 3 1198 3 ct 1184 3 1172 0 1163 -5 ct 1153 -10 1146 -18 1140 -29 ct 
1139 -29 l  1139 -26 1139 -23 1139 -20 ct 1139 -17 1139 -14 1139 -11 ct 1139 -8 1138 -6 1138 -4 ct 
1138 -2 1138 -1 1138 0 ct 1108 0 l  1108 -1 1108 -3 1108 -5 ct 1108 -8 1108 -11 1108 -14 ct 
1109 -18 1109 -22 1109 -26 ct 1109 -30 1109 -34 1109 -39 ct 1109 -256 l  1140 -256 l 
1140 -183 l  1140 -180 1140 -176 1140 -173 ct 1140 -170 1140 -167 1139 -165 ct 
1139 -162 1139 -159 1139 -157 ct 1140 -157 l  1146 -169 1153 -177 1163 -182 ct 
1172 -187 1184 -190 1198 -190 ct 1221 -190 1239 -182 1250 -166 ct 1261 -150 1267 -126 1267 -94 ct 
p
1234 -93 m  1234 -106 1233 -117 1232 -126 ct 1230 -136 1227 -143 1224 -149 ct 
1220 -155 1216 -159 1210 -162 ct 1205 -165 1198 -166 1190 -166 ct 1182 -166 1175 -165 1168 -162 ct 
1162 -159 1157 -155 1153 -149 ct 1148 -144 1145 -136 1143 -126 ct 1141 -117 1140 -105 1140 -91 ct 
1140 -78 1141 -67 1143 -58 ct 1145 -49 1148 -42 1153 -36 ct 1157 -30 1162 -26 1168 -24 ct 
1174 -21 1182 -20 1190 -20 ct 1197 -20 1204 -21 1209 -24 ct 1215 -27 1219 -31 1223 -37 ct 
1227 -42 1229 -50 1231 -59 ct 1233 -69 1234 -80 1234 -93 ct p ef
1294 0 m  1294 -256 l  1325 -256 l  1325 0 l  1294 0 l  p ef
1373 -226 m  1373 -256 l  1404 -256 l  1404 -226 l  1373 -226 l  p
1373 0 m  1373 -187 l  1404 -187 l  1404 0 l  1373 0 l  p ef
1476 -95 m  1476 -84 1477 -74 1479 -65 ct 1480 -56 1483 -48 1487 -42 ct 1490 -35 1495 -30 1501 -27 ct 
1507 -23 1515 -21 1523 -21 ct 1534 -21 1544 -24 1551 -30 ct 1559 -36 1563 -45 1565 -57 ct 
1596 -57 l  1595 -49 1593 -42 1589 -34 ct 1586 -27 1581 -21 1575 -15 ct 1570 -10 1562 -5 1554 -2 ct 
1545 1 1535 3 1524 3 ct 1510 3 1497 1 1487 -4 ct 1477 -9 1469 -16 1462 -25 ct 1456 -34 1451 -44 1448 -56 ct 
1445 -67 1444 -80 1444 -94 ct 1444 -106 1445 -117 1447 -127 ct 1449 -137 1452 -145 1456 -152 ct 
1460 -159 1464 -165 1469 -170 ct 1474 -175 1480 -179 1485 -182 ct 1491 -185 1498 -187 1504 -188 ct 
1511 -190 1517 -190 1524 -190 ct 1534 -190 1544 -189 1552 -186 ct 1560 -183 1567 -179 1573 -174 ct 
1579 -169 1584 -163 1587 -157 ct 1591 -150 1594 -142 1595 -135 ct 1563 -132 l 
1562 -143 1558 -151 1551 -157 ct 1544 -163 1535 -166 1523 -166 ct 1514 -166 1507 -165 1501 -162 ct 
1495 -159 1490 -154 1487 -148 ct 1483 -142 1480 -135 1479 -126 ct 1477 -117 1476 -107 1476 -95 ct 
p ef
1622 0 m  1622 -24 l  1736 -163 l  1629 -163 l  1629 -187 l  1771 -187 l 
1771 -163 l  1657 -24 l  1778 -24 l  1778 0 l  1622 0 l  p ef
1847 -87 m  1847 -77 1848 -68 1850 -60 ct 1852 -52 1855 -45 1859 -39 ct 1863 -33 1868 -28 1875 -25 ct 
1882 -22 1889 -20 1899 -20 ct 1912 -20 1923 -23 1931 -28 ct 1939 -34 1945 -41 1947 -49 ct 
1975 -41 l  1973 -36 1970 -31 1966 -26 ct 1963 -20 1958 -16 1952 -11 ct 1947 -7 1939 -4 1930 -1 ct 
1922 2 1911 3 1899 3 ct 1871 3 1850 -5 1836 -22 ct 1821 -38 1814 -62 1814 -95 ct 
1814 -112 1816 -127 1821 -139 ct 1825 -151 1831 -161 1838 -169 ct 1846 -176 1855 -182 1865 -185 ct 
1875 -188 1886 -190 1897 -190 ct 1913 -190 1926 -187 1937 -182 ct 1947 -177 1956 -170 1962 -162 ct 
1968 -153 1973 -142 1976 -130 ct 1978 -118 1980 -105 1980 -91 ct 1980 -87 l 
1847 -87 l  p
1948 -111 m  1946 -130 1941 -145 1933 -154 ct 1924 -163 1912 -167 1897 -167 ct 
1892 -167 1886 -166 1881 -165 ct 1875 -163 1870 -160 1865 -156 ct 1860 -152 1856 -146 1853 -139 ct 
1849 -131 1847 -122 1847 -111 ct 1948 -111 l  p ef
2127 0 m  2127 -118 l  2127 -127 2126 -135 2125 -141 ct 2124 -147 2121 -152 2118 -156 ct 
2115 -160 2112 -162 2107 -164 ct 2102 -165 2096 -166 2088 -166 ct 2081 -166 2074 -165 2069 -162 ct 
2063 -160 2058 -156 2053 -151 ct 2049 -146 2046 -140 2044 -133 ct 2041 -126 2040 -117 2040 -108 ct 
2040 0 l  2009 0 l  2009 -147 l  2009 -151 2009 -155 2009 -159 ct 2009 -163 2009 -167 2009 -171 ct 
2009 -175 2009 -178 2008 -181 ct 2008 -184 2008 -186 2008 -187 ct 2037 -187 l 
2038 -186 2038 -184 2038 -182 ct 2038 -179 2038 -176 2038 -173 ct 2038 -170 2039 -167 2039 -163 ct 
2039 -160 2039 -157 2039 -155 ct 2039 -155 l  2042 -160 2046 -165 2049 -169 ct 
2053 -174 2057 -177 2062 -180 ct 2066 -183 2072 -186 2078 -188 ct 2084 -189 2091 -190 2099 -190 ct 
2109 -190 2118 -189 2126 -186 ct 2133 -184 2139 -180 2144 -174 ct 2149 -169 2152 -162 2155 -154 ct 
2157 -146 2158 -136 2158 -124 ct 2158 0 l  2127 0 l  p
2063 -207 m  2063 -211 l  2101 -260 l  2136 -260 l  2136 -255 l  2079 -207 l 
2063 -207 l  p ef
pom
pum
16213 10603 t
26 0 m  26 -219 l  56 -219 l  56 -24 l  166 -24 l  166 0 l  26 0 l  p ef
206 -203 m  206 -230 l  234 -230 l  234 -203 l  206 -203 l  p
206 0 m  206 -168 l  234 -168 l  234 0 l  206 0 l  p ef
308 -85 m  308 -75 308 -66 310 -58 ct 311 -50 314 -43 317 -37 ct 320 -32 325 -27 330 -24 ct 
335 -21 342 -19 350 -19 ct 360 -19 368 -22 375 -27 ct 382 -32 386 -40 387 -51 ct 
416 -51 l  415 -44 413 -37 410 -31 ct 406 -24 402 -18 397 -13 ct 392 -8 385 -4 377 -1 ct 
370 1 361 3 351 3 ct 338 3 327 1 317 -4 ct 308 -8 301 -14 295 -22 ct 289 -30 285 -39 282 -50 ct 
280 -60 279 -72 279 -84 ct 279 -95 279 -105 281 -114 ct 283 -123 286 -130 289 -137 ct 
293 -143 296 -149 301 -153 ct 306 -157 311 -161 316 -163 ct 321 -166 327 -168 333 -169 ct 
339 -170 345 -171 351 -171 ct 360 -171 368 -170 376 -167 ct 383 -165 389 -161 395 -157 ct 
400 -152 404 -147 408 -141 ct 411 -135 413 -128 415 -121 ct 386 -119 l  385 -128 381 -135 375 -141 ct 
369 -146 361 -149 350 -149 ct 342 -149 335 -148 330 -145 ct 325 -143 320 -139 317 -133 ct 
314 -128 311 -121 310 -113 ct 308 -105 308 -96 308 -85 ct p ef
431 0 m  431 -21 l  533 -146 l  437 -146 l  437 -168 l  565 -168 l  565 -147 l 
462 -22 l  571 -22 l  571 0 l  431 0 l  p ef
746 -84 m  746 -26 725 4 684 4 ct 671 4 660 1 652 -3 ct 644 -8 637 -15 631 -26 ct 
631 -26 l  631 -23 631 -20 631 -17 ct 631 -14 631 -12 630 -9 ct 630 -7 630 -5 630 -3 ct 
630 -1 630 0 630 0 ct 603 0 l  603 -1 603 -2 603 -4 ct 603 -7 603 -9 603 -12 ct 
603 -16 603 -19 603 -23 ct 603 -26 603 -30 603 -34 ct 603 -230 l  631 -230 l 
631 -164 l  631 -161 631 -158 631 -155 ct 631 -152 631 -150 631 -148 ct 631 -145 631 -143 631 -140 ct 
631 -140 l  637 -151 643 -159 652 -164 ct 661 -168 671 -171 684 -171 ct 705 -171 721 -163 731 -149 ct 
741 -135 746 -113 746 -84 ct p
716 -83 m  716 -95 715 -105 714 -113 ct 713 -121 710 -128 707 -134 ct 704 -139 700 -143 695 -145 ct 
690 -148 684 -149 677 -149 ct 669 -149 663 -148 657 -145 ct 651 -143 647 -139 643 -134 ct 
639 -129 636 -122 634 -113 ct 632 -105 631 -94 631 -82 ct 631 -70 632 -60 634 -51 ct 
636 -43 639 -36 643 -31 ct 647 -26 651 -23 657 -20 ct 663 -18 669 -17 676 -17 ct 
683 -17 689 -18 694 -21 ct 699 -23 703 -27 706 -32 ct 710 -37 712 -44 714 -53 ct 
715 -61 716 -71 716 -83 ct p ef
831 3 m  814 3 802 -1 793 -10 ct 785 -19 781 -32 781 -47 ct 781 -58 783 -67 787 -75 ct 
791 -82 796 -87 803 -91 ct 810 -95 818 -98 826 -100 ct 835 -101 844 -102 853 -102 ct 
891 -102 l  891 -111 l  891 -118 890 -124 889 -129 ct 887 -134 885 -138 882 -141 ct 
879 -144 875 -146 871 -148 ct 866 -149 861 -150 855 -150 ct 849 -150 844 -149 840 -149 ct 
836 -148 832 -146 829 -144 ct 826 -142 823 -140 821 -136 ct 819 -133 818 -128 817 -123 ct 
788 -126 l  789 -132 791 -138 794 -144 ct 797 -149 801 -154 806 -158 ct 812 -162 818 -165 826 -168 ct 
834 -170 844 -171 855 -171 ct 876 -171 892 -166 903 -156 ct 914 -147 919 -133 919 -114 ct 
919 -42 l  919 -34 920 -28 922 -23 ct 924 -19 929 -17 935 -17 ct 936 -17 938 -17 939 -17 ct 
941 -18 942 -18 944 -18 ct 944 -1 l  940 0 937 1 933 1 ct 930 2 926 2 922 2 ct 
917 2 912 1 909 0 ct 905 -2 902 -4 899 -7 ct 897 -10 895 -13 894 -17 ct 893 -22 892 -27 892 -32 ct 
891 -32 l  888 -27 884 -22 881 -18 ct 877 -13 873 -10 868 -7 ct 864 -4 858 -1 852 1 ct 
846 2 839 3 831 3 ct p
838 -18 m  847 -18 854 -20 861 -23 ct 868 -26 873 -30 878 -35 ct 882 -40 885 -46 887 -52 ct 
890 -58 891 -63 891 -69 ct 891 -82 l  860 -82 l  853 -82 847 -82 841 -81 ct 
835 -80 829 -78 824 -76 ct 820 -73 816 -70 813 -65 ct 811 -60 809 -54 809 -47 ct 
809 -37 812 -30 817 -25 ct 822 -20 829 -18 838 -18 ct p ef
1196 -85 m  1196 -72 1194 -60 1192 -50 ct 1190 -39 1187 -30 1182 -22 ct 1177 -14 1171 -8 1163 -4 ct 
1155 1 1145 3 1134 3 ct 1122 3 1111 1 1102 -4 ct 1093 -8 1086 -16 1082 -26 ct 1081 -26 l 
1081 -26 1081 -25 1081 -23 ct 1081 -22 1081 -20 1081 -17 ct 1081 -15 1081 -12 1081 -9 ct 
1081 -6 1081 -3 1081 0 ct 1081 66 l  1053 66 l  1053 -134 l  1053 -138 1053 -141 1053 -145 ct 
1053 -149 1053 -152 1053 -155 ct 1053 -158 1053 -161 1053 -163 ct 1053 -165 1053 -167 1053 -168 ct 
1080 -168 l  1080 -168 1080 -166 1080 -165 ct 1080 -163 1080 -161 1080 -158 ct 
1081 -155 1081 -153 1081 -150 ct 1081 -147 1081 -144 1081 -141 ct 1082 -141 l 
1084 -146 1087 -151 1091 -155 ct 1094 -159 1098 -162 1102 -164 ct 1106 -167 1111 -168 1116 -169 ct 
1121 -170 1127 -171 1134 -171 ct 1145 -171 1155 -169 1163 -165 ct 1171 -161 1177 -155 1182 -147 ct 
1187 -140 1190 -131 1192 -120 ct 1194 -110 1196 -98 1196 -85 ct p
1166 -84 m  1166 -95 1166 -104 1164 -112 ct 1163 -120 1161 -127 1158 -132 ct 
1155 -138 1151 -142 1146 -145 ct 1141 -148 1134 -149 1127 -149 ct 1120 -149 1115 -149 1109 -147 ct 
1104 -145 1099 -142 1095 -137 ct 1091 -132 1087 -125 1085 -116 ct 1083 -107 1081 -96 1081 -82 ct 
1081 -70 1082 -60 1084 -52 ct 1086 -44 1089 -37 1093 -32 ct 1097 -27 1101 -23 1107 -21 ct 
1113 -19 1119 -18 1126 -18 ct 1134 -18 1140 -19 1146 -22 ct 1151 -25 1155 -29 1158 -35 ct 
1161 -41 1163 -48 1164 -56 ct 1166 -64 1166 -74 1166 -84 ct p ef
1239 0 m  1239 -129 l  1239 -132 1239 -136 1239 -140 ct 1239 -143 1239 -147 1239 -150 ct 
1239 -154 1239 -157 1238 -160 ct 1238 -163 1238 -166 1238 -168 ct 1265 -168 l 
1265 -166 1265 -163 1265 -160 ct 1265 -157 1265 -154 1265 -150 ct 1266 -147 1266 -144 1266 -141 ct 
1266 -138 1266 -136 1266 -134 ct 1266 -134 l  1268 -140 1270 -146 1273 -150 ct 
1275 -155 1278 -159 1281 -162 ct 1284 -165 1287 -167 1291 -169 ct 1295 -170 1300 -171 1306 -171 ct 
1309 -171 1311 -171 1313 -170 ct 1315 -170 1316 -170 1318 -169 ct 1318 -144 l 
1316 -144 1314 -145 1311 -145 ct 1309 -145 1306 -145 1303 -145 ct 1296 -145 1291 -144 1286 -141 ct 
1282 -138 1278 -134 1275 -129 ct 1272 -124 1270 -118 1269 -111 ct 1268 -104 1267 -96 1267 -88 ct 
1267 0 l  1239 0 l  p ef
1487 -84 m  1487 -55 1480 -33 1467 -19 ct 1454 -4 1435 3 1411 3 ct 1399 3 1389 1 1379 -2 ct 
1370 -6 1362 -11 1356 -18 ct 1350 -26 1345 -35 1341 -46 ct 1338 -57 1336 -69 1336 -84 ct 
1336 -142 1361 -171 1412 -171 ct 1425 -171 1436 -169 1445 -166 ct 1455 -162 1463 -157 1469 -149 ct 
1475 -142 1479 -133 1482 -122 ct 1485 -111 1487 -99 1487 -84 ct p
1457 -84 m  1457 -97 1456 -108 1454 -116 ct 1452 -125 1449 -132 1445 -137 ct 
1441 -142 1437 -145 1431 -147 ct 1425 -149 1419 -150 1412 -150 ct 1405 -150 1399 -149 1393 -147 ct 
1387 -145 1382 -141 1378 -136 ct 1374 -131 1371 -124 1369 -116 ct 1367 -107 1366 -97 1366 -84 ct 
1366 -71 1367 -60 1369 -52 ct 1371 -43 1375 -37 1379 -31 ct 1382 -26 1387 -23 1393 -21 ct 
1398 -19 1404 -18 1410 -18 ct 1418 -18 1424 -19 1430 -21 ct 1436 -23 1441 -26 1445 -31 ct 
1449 -36 1452 -43 1454 -52 ct 1456 -60 1457 -71 1457 -84 ct p ef
1551 -85 m  1551 -75 1551 -66 1553 -58 ct 1554 -50 1557 -43 1560 -37 ct 1563 -32 1568 -27 1573 -24 ct 
1578 -21 1585 -19 1593 -19 ct 1603 -19 1611 -22 1618 -27 ct 1625 -32 1629 -40 1630 -51 ct 
1659 -51 l  1658 -44 1656 -37 1653 -31 ct 1649 -24 1645 -18 1640 -13 ct 1635 -8 1628 -4 1620 -1 ct 
1613 1 1604 3 1594 3 ct 1581 3 1570 1 1560 -4 ct 1551 -8 1544 -14 1538 -22 ct 1532 -30 1528 -39 1525 -50 ct 
1523 -60 1522 -72 1522 -84 ct 1522 -95 1522 -105 1524 -114 ct 1526 -123 1529 -130 1532 -137 ct 
1536 -143 1539 -149 1544 -153 ct 1549 -157 1554 -161 1559 -163 ct 1564 -166 1570 -168 1576 -169 ct 
1582 -170 1588 -171 1594 -171 ct 1603 -171 1611 -170 1619 -167 ct 1626 -165 1632 -161 1638 -157 ct 
1643 -152 1647 -147 1651 -141 ct 1654 -135 1656 -128 1658 -121 ct 1629 -119 l 
1628 -128 1624 -135 1618 -141 ct 1612 -146 1604 -149 1593 -149 ct 1585 -149 1578 -148 1573 -145 ct 
1568 -143 1563 -139 1560 -133 ct 1557 -128 1554 -121 1553 -113 ct 1551 -105 1551 -96 1551 -85 ct 
p ef
1710 -78 m  1710 -69 1711 -61 1713 -54 ct 1714 -46 1717 -40 1721 -35 ct 1725 -29 1730 -25 1735 -22 ct 
1741 -19 1748 -18 1757 -18 ct 1769 -18 1779 -20 1786 -25 ct 1793 -30 1798 -36 1801 -44 ct 
1825 -37 l  1823 -32 1821 -27 1818 -23 ct 1815 -18 1810 -14 1805 -10 ct 1800 -6 1793 -3 1785 -1 ct 
1777 2 1768 3 1757 3 ct 1732 3 1713 -4 1700 -19 ct 1687 -34 1681 -56 1681 -85 ct 
1681 -101 1682 -114 1686 -125 ct 1690 -136 1696 -145 1703 -152 ct 1709 -158 1717 -163 1726 -166 ct 
1736 -169 1745 -171 1756 -171 ct 1770 -171 1782 -169 1791 -164 ct 1800 -160 1808 -153 1814 -145 ct 
1820 -137 1824 -128 1826 -117 ct 1829 -106 1830 -94 1830 -82 ct 1830 -78 l  1710 -78 l 
p
1801 -99 m  1799 -117 1795 -130 1787 -138 ct 1780 -146 1769 -150 1755 -150 ct 
1751 -150 1746 -150 1741 -148 ct 1735 -147 1731 -144 1726 -140 ct 1722 -136 1718 -131 1715 -125 ct 
1712 -118 1711 -110 1710 -99 ct 1801 -99 l  p ef
2000 -47 m  2000 -39 1998 -32 1995 -26 ct 1992 -19 1987 -14 1982 -10 ct 1976 -6 1969 -3 1960 0 ct 
1952 2 1942 3 1931 3 ct 1922 3 1913 2 1905 1 ct 1897 -1 1890 -3 1884 -6 ct 1879 -10 1874 -14 1870 -20 ct 
1866 -25 1863 -32 1861 -40 ct 1886 -44 l  1888 -35 1893 -29 1900 -25 ct 1908 -20 1918 -18 1931 -18 ct 
1937 -18 1943 -19 1948 -20 ct 1953 -20 1957 -22 1961 -24 ct 1964 -26 1967 -29 1969 -32 ct 
1971 -35 1972 -39 1972 -44 ct 1972 -49 1971 -54 1969 -57 ct 1966 -60 1963 -63 1959 -65 ct 
1955 -67 1949 -69 1943 -71 ct 1937 -72 1931 -74 1923 -76 ct 1917 -78 1910 -80 1903 -82 ct 
1897 -84 1891 -87 1885 -91 ct 1880 -94 1876 -99 1873 -104 ct 1869 -109 1868 -116 1868 -124 ct 
1868 -139 1873 -151 1884 -159 ct 1895 -167 1911 -171 1932 -171 ct 1950 -171 1965 -168 1976 -161 ct 
1987 -155 1994 -144 1997 -130 ct 1971 -127 l  1970 -131 1969 -135 1966 -138 ct 
1964 -141 1961 -143 1957 -145 ct 1954 -147 1950 -148 1945 -149 ct 1941 -150 1936 -150 1932 -150 ct 
1919 -150 1910 -148 1904 -144 ct 1898 -140 1895 -135 1895 -127 ct 1895 -122 1896 -118 1898 -115 ct 
1900 -112 1903 -110 1907 -108 ct 1911 -106 1916 -104 1922 -103 ct 1927 -101 1933 -100 1940 -98 ct 
1945 -97 1949 -96 1954 -94 ct 1959 -93 1963 -91 1967 -90 ct 1972 -88 1976 -86 1980 -83 ct 
1984 -81 1987 -78 1990 -74 ct 1993 -71 1995 -67 1997 -62 ct 1999 -58 2000 -53 2000 -47 ct 
p ef
2175 -84 m  2175 -55 2168 -33 2155 -19 ct 2142 -4 2123 3 2099 3 ct 2087 3 2077 1 2067 -2 ct 
2058 -6 2050 -11 2044 -18 ct 2038 -26 2033 -35 2029 -46 ct 2026 -57 2024 -69 2024 -84 ct 
2024 -142 2049 -171 2100 -171 ct 2113 -171 2124 -169 2133 -166 ct 2143 -162 2151 -157 2157 -149 ct 
2163 -142 2167 -133 2170 -122 ct 2173 -111 2175 -99 2175 -84 ct p
2145 -84 m  2145 -97 2144 -108 2142 -116 ct 2140 -125 2137 -132 2133 -137 ct 
2129 -142 2125 -145 2119 -147 ct 2113 -149 2107 -150 2100 -150 ct 2093 -150 2087 -149 2081 -147 ct 
2075 -145 2070 -141 2066 -136 ct 2062 -131 2059 -124 2057 -116 ct 2055 -107 2054 -97 2054 -84 ct 
2054 -71 2055 -60 2057 -52 ct 2059 -43 2063 -37 2067 -31 ct 2070 -26 2075 -23 2081 -21 ct 
2086 -19 2092 -18 2098 -18 ct 2106 -18 2112 -19 2118 -21 ct 2124 -23 2129 -26 2133 -31 ct 
2137 -36 2140 -43 2142 -52 ct 2144 -60 2145 -71 2145 -84 ct p
2078 -187 m  2078 -190 l  2112 -234 l  2144 -234 l  2144 -230 l  2093 -187 l 
2078 -187 l  p ef
2378 0 m  2346 0 l  2319 -108 l  2318 -111 2317 -115 2316 -119 ct 2316 -123 2315 -127 2314 -131 ct 
2313 -135 2312 -140 2311 -145 ct 2310 -140 2309 -136 2308 -131 ct 2307 -127 2306 -123 2305 -119 ct 
2304 -115 2303 -111 2303 -108 ct 2275 0 l  2243 0 l  2196 -168 l  2223 -168 l 
2252 -54 l  2252 -52 2253 -49 2254 -45 ct 2254 -42 2255 -38 2256 -35 ct 2257 -31 2257 -27 2258 -23 ct 
2259 -27 2260 -31 2261 -35 ct 2262 -38 2263 -41 2263 -44 ct 2264 -48 2265 -50 2266 -53 ct 
2296 -168 l  2326 -168 l  2355 -53 l  2356 -50 2357 -47 2358 -43 ct 2358 -40 2359 -37 2360 -34 ct 
2361 -30 2362 -27 2362 -23 ct 2363 -27 2364 -31 2365 -35 ct 2366 -38 2366 -41 2367 -45 ct 
2368 -48 2369 -51 2369 -54 ct 2399 -168 l  2426 -168 l  2378 0 l  p ef
pom
pum
11519 6934 t
90.0 r 123 -198 m  111 -198 100 -196 90 -192 ct 80 -187 72 -182 66 -174 ct 59 -166 55 -157 51 -146 ct 
48 -136 46 -124 46 -110 ct 46 -97 48 -85 52 -74 ct 55 -63 60 -54 67 -46 ct 74 -38 82 -32 92 -28 ct 
101 -24 112 -21 124 -21 ct 133 -21 140 -22 147 -25 ct 154 -27 161 -30 166 -34 ct 
172 -38 177 -43 182 -48 ct 186 -54 190 -60 193 -67 ct 218 -55 l  214 -47 209 -39 203 -32 ct 
197 -25 190 -19 183 -14 ct 175 -8 166 -4 156 -1 ct 146 2 135 3 123 3 ct 105 3 90 0 76 -5 ct 
63 -11 52 -19 43 -29 ct 34 -39 27 -51 23 -65 ct 18 -79 16 -94 16 -110 ct 16 -128 19 -143 23 -157 ct 
28 -170 35 -182 44 -192 ct 53 -201 64 -209 77 -214 ct 91 -219 106 -222 123 -222 ct 
146 -222 165 -217 181 -208 ct 197 -199 208 -186 216 -168 ct 187 -159 l  185 -164 183 -169 179 -173 ct 
176 -178 171 -182 166 -186 ct 161 -189 154 -192 147 -195 ct 140 -197 132 -198 123 -198 ct 
p ef
246 0 m  246 -21 l  348 -146 l  252 -146 l  252 -168 l  380 -168 l  380 -147 l 
277 -22 l  386 -22 l  386 0 l  246 0 l  p ef
461 3 m  444 3 432 -1 423 -10 ct 415 -19 411 -32 411 -47 ct 411 -58 413 -67 417 -75 ct 
421 -82 426 -87 433 -91 ct 440 -95 448 -98 456 -100 ct 465 -101 474 -102 483 -102 ct 
521 -102 l  521 -111 l  521 -118 520 -124 519 -129 ct 517 -134 515 -138 512 -141 ct 
509 -144 505 -146 501 -148 ct 496 -149 491 -150 485 -150 ct 479 -150 474 -149 470 -149 ct 
466 -148 462 -146 459 -144 ct 456 -142 453 -140 451 -136 ct 449 -133 448 -128 447 -123 ct 
418 -126 l  419 -132 421 -138 424 -144 ct 427 -149 431 -154 436 -158 ct 442 -162 448 -165 456 -168 ct 
464 -170 474 -171 485 -171 ct 506 -171 522 -166 533 -156 ct 544 -147 549 -133 549 -114 ct 
549 -42 l  549 -34 550 -28 552 -23 ct 554 -19 559 -17 565 -17 ct 566 -17 568 -17 569 -17 ct 
571 -18 572 -18 574 -18 ct 574 -1 l  570 0 567 1 563 1 ct 560 2 556 2 552 2 ct 
547 2 542 1 539 0 ct 535 -2 532 -4 529 -7 ct 527 -10 525 -13 524 -17 ct 523 -22 522 -27 522 -32 ct 
521 -32 l  518 -27 514 -22 511 -18 ct 507 -13 503 -10 498 -7 ct 494 -4 488 -1 482 1 ct 
476 2 469 3 461 3 ct p
468 -18 m  477 -18 484 -20 491 -23 ct 498 -26 503 -30 508 -35 ct 512 -40 515 -46 517 -52 ct 
520 -58 521 -63 521 -69 ct 521 -82 l  490 -82 l  483 -82 477 -82 471 -81 ct 
465 -80 459 -78 454 -76 ct 450 -73 446 -70 443 -65 ct 441 -60 439 -54 439 -47 ct 
439 -37 442 -30 447 -25 ct 452 -20 459 -18 468 -18 ct p ef
730 -47 m  730 -39 728 -32 725 -26 ct 722 -19 717 -14 712 -10 ct 706 -6 699 -3 690 0 ct 
682 2 672 3 661 3 ct 652 3 643 2 635 1 ct 627 -1 620 -3 614 -6 ct 609 -10 604 -14 600 -20 ct 
596 -25 593 -32 591 -40 ct 616 -44 l  618 -35 623 -29 630 -25 ct 638 -20 648 -18 661 -18 ct 
667 -18 673 -19 678 -20 ct 683 -20 687 -22 691 -24 ct 694 -26 697 -29 699 -32 ct 
701 -35 702 -39 702 -44 ct 702 -49 701 -54 699 -57 ct 696 -60 693 -63 689 -65 ct 
685 -67 679 -69 673 -71 ct 667 -72 661 -74 653 -76 ct 647 -78 640 -80 633 -82 ct 
627 -84 621 -87 615 -91 ct 610 -94 606 -99 603 -104 ct 599 -109 598 -116 598 -124 ct 
598 -139 603 -151 614 -159 ct 625 -167 641 -171 662 -171 ct 680 -171 695 -168 706 -161 ct 
717 -155 724 -144 727 -130 ct 701 -127 l  700 -131 699 -135 696 -138 ct 694 -141 691 -143 687 -145 ct 
684 -147 680 -148 675 -149 ct 671 -150 666 -150 662 -150 ct 649 -150 640 -148 634 -144 ct 
628 -140 625 -135 625 -127 ct 625 -122 626 -118 628 -115 ct 630 -112 633 -110 637 -108 ct 
641 -106 646 -104 652 -103 ct 657 -101 663 -100 670 -98 ct 675 -97 679 -96 684 -94 ct 
689 -93 693 -91 697 -90 ct 702 -88 706 -86 710 -83 ct 714 -81 717 -78 720 -74 ct 
723 -71 725 -67 727 -62 ct 729 -58 730 -53 730 -47 ct p ef
840 -82 m  840 -97 841 -110 843 -124 ct 845 -137 849 -149 853 -161 ct 858 -174 864 -185 871 -197 ct 
878 -208 887 -219 897 -230 ct 924 -230 l  914 -219 906 -208 899 -197 ct 892 -185 886 -173 881 -161 ct 
877 -149 873 -136 871 -123 ct 869 -110 868 -96 868 -82 ct 868 -68 869 -54 871 -41 ct 
873 -28 877 -15 881 -3 ct 886 9 892 21 899 33 ct 906 44 914 55 924 66 ct 897 66 l 
887 55 878 44 871 33 ct 864 21 858 10 853 -3 ct 849 -15 845 -27 843 -40 ct 841 -53 840 -67 840 -82 ct 
840 -82 l  p ef
1045 0 m  1045 -106 l  1045 -115 1045 -121 1044 -127 ct 1043 -132 1041 -137 1038 -140 ct 
1036 -144 1033 -146 1029 -147 ct 1025 -149 1020 -149 1015 -149 ct 1009 -149 1003 -148 999 -146 ct 
994 -144 990 -140 986 -136 ct 983 -131 980 -126 979 -120 ct 977 -113 976 -106 976 -97 ct 
976 0 l  948 0 l  948 -132 l  948 -136 948 -139 948 -143 ct 948 -147 948 -151 948 -154 ct 
948 -158 948 -161 947 -163 ct 947 -166 947 -167 947 -168 ct 974 -168 l  974 -167 974 -166 974 -164 ct 
974 -161 974 -159 974 -156 ct 974 -153 975 -150 975 -147 ct 975 -144 975 -141 975 -139 ct 
975 -139 l  978 -144 980 -148 983 -152 ct 986 -156 990 -160 993 -162 ct 997 -165 1002 -167 1007 -169 ct 
1012 -170 1018 -171 1024 -171 ct 1037 -171 1047 -168 1054 -163 ct 1062 -158 1067 -150 1070 -139 ct 
1070 -139 l  1073 -144 1076 -148 1079 -152 ct 1082 -156 1086 -160 1090 -162 ct 
1094 -165 1098 -167 1104 -169 ct 1109 -170 1115 -171 1121 -171 ct 1130 -171 1137 -170 1143 -168 ct 
1149 -165 1155 -162 1158 -157 ct 1162 -152 1165 -146 1167 -139 ct 1169 -131 1170 -122 1170 -112 ct 
1170 0 l  1142 0 l  1142 -106 l  1142 -115 1142 -121 1141 -127 ct 1140 -132 1138 -137 1136 -140 ct 
1133 -144 1130 -146 1126 -147 ct 1122 -149 1117 -149 1112 -149 ct 1106 -149 1100 -148 1096 -146 ct 
1091 -144 1087 -141 1083 -136 ct 1080 -132 1077 -126 1076 -120 ct 1074 -113 1073 -106 1073 -97 ct 
1073 0 l  1045 0 l  p ef
1339 -47 m  1339 -39 1337 -32 1334 -26 ct 1331 -19 1326 -14 1321 -10 ct 1315 -6 1308 -3 1299 0 ct 
1291 2 1281 3 1270 3 ct 1261 3 1252 2 1244 1 ct 1236 -1 1229 -3 1223 -6 ct 1218 -10 1213 -14 1209 -20 ct 
1205 -25 1202 -32 1200 -40 ct 1225 -44 l  1227 -35 1232 -29 1239 -25 ct 1247 -20 1257 -18 1270 -18 ct 
1276 -18 1282 -19 1287 -20 ct 1292 -20 1296 -22 1300 -24 ct 1303 -26 1306 -29 1308 -32 ct 
1310 -35 1311 -39 1311 -44 ct 1311 -49 1310 -54 1308 -57 ct 1305 -60 1302 -63 1298 -65 ct 
1294 -67 1288 -69 1282 -71 ct 1276 -72 1270 -74 1262 -76 ct 1256 -78 1249 -80 1242 -82 ct 
1236 -84 1230 -87 1224 -91 ct 1219 -94 1215 -99 1212 -104 ct 1208 -109 1207 -116 1207 -124 ct 
1207 -139 1212 -151 1223 -159 ct 1234 -167 1250 -171 1271 -171 ct 1289 -171 1304 -168 1315 -161 ct 
1326 -155 1333 -144 1336 -130 ct 1310 -127 l  1309 -131 1308 -135 1305 -138 ct 
1303 -141 1300 -143 1296 -145 ct 1293 -147 1289 -148 1284 -149 ct 1280 -150 1275 -150 1271 -150 ct 
1258 -150 1249 -148 1243 -144 ct 1237 -140 1234 -135 1234 -127 ct 1234 -122 1235 -118 1237 -115 ct 
1239 -112 1242 -110 1246 -108 ct 1250 -106 1255 -104 1261 -103 ct 1266 -101 1272 -100 1279 -98 ct 
1284 -97 1288 -96 1293 -94 ct 1298 -93 1302 -91 1306 -90 ct 1311 -88 1315 -86 1319 -83 ct 
1323 -81 1326 -78 1329 -74 ct 1332 -71 1334 -67 1336 -62 ct 1338 -58 1339 -53 1339 -47 ct 
p ef
1435 -82 m  1435 -67 1434 -53 1432 -40 ct 1430 -27 1426 -15 1422 -3 ct 1417 10 1411 21 1404 33 ct 
1397 44 1388 55 1378 66 ct 1351 66 l  1361 55 1369 44 1376 33 ct 1383 21 1389 9 1394 -3 ct 
1398 -15 1402 -28 1404 -41 ct 1406 -54 1407 -68 1407 -82 ct 1407 -96 1406 -110 1404 -123 ct 
1402 -136 1398 -149 1394 -161 ct 1389 -173 1383 -185 1376 -197 ct 1369 -208 1361 -219 1351 -230 ct 
1378 -230 l  1388 -219 1397 -208 1404 -197 ct 1411 -185 1417 -174 1422 -161 ct 
1426 -149 1430 -137 1432 -124 ct 1434 -110 1435 -97 1435 -82 ct 1435 -82 l  p ef
pom
0 9000 t 
pom
count op_count sub {pop} repeat countdictstack dict_count sub {end} repeat b4_inc_state restore
%%PageTrailer
%%Trailer
%%EOF
