%!PS-Adobe-3.0 EPSF-3.0 
%%BoundingBox: 0 0 454 255
%%Pages: 0
%%Creator: LibreOffice 4.2
%%Title: none
%%CreationDate: none
%%LanguageLevel: 2
%%EndComments
%%BeginProlog
%%BeginResource: procset SDRes-Prolog 1.0 0
/b4_inc_state save def
/dict_count countdictstack def
/op_count count 1 sub def
userdict begin
0 setgray 0 setlinecap 1 setlinewidth 0 setlinejoin 10 setmiterlimit[] 0 setdash newpath
/languagelevel where {pop languagelevel 1 ne {false setstrokeadjust false setoverprint} if} if
/bdef {bind def} bind def
/c {setrgbcolor} bdef
/l {neg lineto} bdef
/rl {neg rlineto} bdef
/lc {setlinecap} bdef
/lj {setlinejoin} bdef
/lw {setlinewidth} bdef
/ml {setmiterlimit} bdef
/ld {setdash} bdef
/m {neg moveto} bdef
/ct {6 2 roll neg 6 2 roll neg 6 2 roll neg curveto} bdef
/r {rotate} bdef
/t {neg translate} bdef
/s {scale} bdef
/sw {show} bdef
/gs {gsave} bdef
/gr {grestore} bdef
/f {findfont dup length dict begin
{1 index /FID ne {def} {pop pop} ifelse} forall /Encoding ISOLatin1Encoding def
currentdict end /NFont exch definefont pop /NFont findfont} bdef
/p {closepath} bdef
/sf {scalefont setfont} bdef
/ef {eofill}bdef
/pc {closepath stroke}bdef
/ps {stroke}bdef
/pum {matrix currentmatrix}bdef
/pom {setmatrix}bdef
/bs {/aString exch def /nXOfs exch def /nWidth exch def currentpoint nXOfs 0 rmoveto pum nWidth aString stringwidth pop div 1 scale aString show pom moveto} bdef
%%EndResource
%%EndProlog
%%BeginSetup
%%EndSetup
%%Page: 1 1
%%BeginPageSetup
%%EndPageSetup
pum
0.02837 0.02833 s 
0 -9000 t
/tm matrix currentmatrix def
tm setmatrix
-6028 -9236 t 
1 1 s 
1.000 1.000 1.000 c 14028 18235 m  6028 18235 l  6028 9236 l  22027 9236 l 
22027 18235 l  14028 18235 l  p ef
0 lw 1 lj 0.703 0.703 0.703 c 13046 16427 m  8271 16427 l  8271 9615 l 
17821 9615 l  17821 16427 l  13046 16427 l  pc
17821 16426 m  8271 16426 l  ps
17821 15290 m  8271 15290 l  ps
17821 14155 m  8271 14155 l  ps
17821 13020 m  8271 13020 l  ps
17821 11885 m  8271 11885 l  ps
17821 10749 m  8271 10749 l  ps
17821 9614 m  8271 9614 l  ps
8271 16576 m  8271 16426 l  ps
8271 16576 m  8271 16426 l  ps
8953 16576 m  8953 16426 l  ps
8953 16576 m  8953 16426 l  ps
9635 16576 m  9635 16426 l  ps
9635 16576 m  9635 16426 l  ps
10317 16576 m  10317 16426 l  ps
10317 16576 m  10317 16426 l  ps
10999 16576 m  10999 16426 l  ps
10999 16576 m  10999 16426 l  ps
11682 16576 m  11682 16426 l  ps
11682 16576 m  11682 16426 l  ps
12364 16576 m  12364 16426 l  ps
12364 16576 m  12364 16426 l  ps
13046 16576 m  13046 16426 l  ps
13046 16576 m  13046 16426 l  ps
13728 16576 m  13728 16426 l  ps
13728 16576 m  13728 16426 l  ps
14409 16576 m  14409 16426 l  ps
14409 16576 m  14409 16426 l  ps
15092 16576 m  15092 16426 l  ps
15092 16576 m  15092 16426 l  ps
15774 16576 m  15774 16426 l  ps
15774 16576 m  15774 16426 l  ps
16456 16576 m  16456 16426 l  ps
16456 16576 m  16456 16426 l  ps
17138 16576 m  17138 16426 l  ps
17138 16576 m  17138 16426 l  ps
17821 16576 m  17821 16426 l  ps
17821 16576 m  17821 16426 l  ps
8271 16426 m  17821 16426 l  ps
8121 16426 m  8271 16426 l  ps
8121 16426 m  8271 16426 l  ps
8121 15290 m  8271 15290 l  ps
8121 15290 m  8271 15290 l  ps
8121 14155 m  8271 14155 l  ps
8121 14155 m  8271 14155 l  ps
8121 13020 m  8271 13020 l  ps
8121 13020 m  8271 13020 l  ps
8121 11885 m  8271 11885 l  ps
8121 11885 m  8271 11885 l  ps
8121 10749 m  8271 10749 l  ps
8121 10749 m  8271 10749 l  ps
8121 9614 m  8271 9614 l  ps
8121 9614 m  8271 9614 l  ps
8271 16426 m  8271 9614 l  ps
79.995 lw 0.003 0.273 0.527 c 8953 14155 m  9635 12028 l  10317 10066 l 
10999 11620 l  11682 11174 l  12364 11672 l  13046 11751 l  13728 11737 l 
14409 10680 l  15092 11692 l  15774 10775 l  16456 11547 l  17138 11253 l 
17821 11912 l  ps
pum
8178 16994 t
0.003 0.003 0.003 c 27 0 m  27 -26 l  89 -26 l  89 -213 l  34 -174 l  34 -204 l 
91 -243 l  120 -243 l  120 -26 l  179 -26 l  179 0 l  27 0 l  p ef
pom
pum
8860 16994 t
18 0 m  18 -22 l  24 -35 31 -47 39 -58 ct 48 -68 57 -77 66 -85 ct 75 -94 84 -101 94 -109 ct 
103 -116 111 -123 118 -130 ct 126 -137 132 -145 136 -152 ct 141 -160 143 -169 143 -179 ct 
143 -186 142 -192 140 -197 ct 138 -202 135 -207 131 -210 ct 127 -214 122 -217 117 -218 ct 
111 -220 105 -221 99 -221 ct 92 -221 87 -220 81 -218 ct 76 -217 71 -214 67 -211 ct 
62 -207 59 -203 56 -198 ct 53 -193 52 -187 51 -180 ct 19 -183 l  20 -192 23 -200 26 -208 ct 
30 -215 35 -222 42 -228 ct 49 -234 57 -238 66 -242 ct 75 -245 86 -247 99 -247 ct 
111 -247 121 -245 131 -242 ct 140 -239 148 -235 155 -229 ct 161 -224 166 -217 170 -209 ct 
173 -200 175 -191 175 -180 ct 175 -172 173 -164 170 -157 ct 167 -149 164 -142 159 -136 ct 
154 -129 148 -123 142 -116 ct 135 -110 129 -104 122 -98 ct 115 -92 107 -86 100 -81 ct 
93 -75 87 -69 80 -63 ct 74 -57 68 -51 63 -45 ct 58 -39 55 -33 52 -26 ct 179 -26 l 
179 0 l  18 0 l  p ef
pom
pum
9542 16994 t
181 -68 m  181 -57 179 -47 175 -38 ct 172 -29 166 -22 160 -16 ct 153 -10 144 -5 134 -2 ct 
123 1 112 3 98 3 ct 83 3 71 1 60 -3 ct 50 -6 42 -11 35 -17 ct 28 -24 23 -31 20 -39 ct 
17 -46 14 -55 13 -63 ct 46 -66 l  46 -60 48 -54 51 -48 ct 53 -43 56 -38 61 -35 ct 
65 -31 70 -28 76 -26 ct 83 -24 90 -23 98 -23 ct 114 -23 126 -27 135 -34 ct 144 -42 149 -54 149 -69 ct 
149 -78 147 -85 143 -90 ct 139 -96 134 -100 128 -103 ct 122 -106 115 -108 109 -109 ct 
102 -110 95 -111 89 -111 ct 72 -111 l  72 -138 l  89 -138 l  94 -138 101 -139 107 -140 ct 
113 -141 119 -143 124 -146 ct 129 -149 134 -154 137 -159 ct 141 -164 142 -171 142 -180 ct 
142 -193 138 -203 131 -210 ct 123 -218 112 -221 97 -221 ct 83 -221 72 -218 64 -211 ct 
55 -204 50 -194 49 -182 ct 18 -184 l  19 -195 22 -204 26 -212 ct 31 -220 37 -226 44 -231 ct 
51 -237 59 -241 68 -243 ct 77 -246 87 -247 97 -247 ct 111 -247 122 -245 132 -242 ct 
142 -239 150 -234 156 -228 ct 162 -222 167 -216 170 -208 ct 173 -200 174 -192 174 -183 ct 
174 -176 173 -169 171 -163 ct 169 -157 166 -151 162 -146 ct 158 -141 153 -137 146 -134 ct 
140 -130 132 -127 123 -125 ct 123 -125 l  133 -124 142 -122 149 -118 ct 156 -115 162 -111 167 -105 ct 
171 -100 175 -95 177 -88 ct 180 -82 181 -75 181 -68 ct p ef
pom
pum
10224 16994 t
152 -55 m  152 0 l  123 0 l  123 -55 l  8 -55 l  8 -79 l  119 -243 l  152 -243 l 
152 -79 l  186 -79 l  186 -55 l  152 -55 l  p
123 -208 m  122 -207 122 -206 121 -205 ct 120 -203 119 -201 118 -199 ct 117 -197 115 -195 114 -193 ct 
113 -191 112 -189 111 -187 ct 49 -96 l  48 -95 47 -94 46 -92 ct 45 -91 44 -89 43 -88 ct 
42 -86 41 -84 39 -83 ct 38 -81 37 -80 37 -79 ct 123 -79 l  123 -208 l  p ef
pom
pum
10906 16994 t
182 -80 m  182 -67 180 -56 176 -46 ct 172 -36 167 -27 160 -20 ct 152 -13 143 -7 133 -3 ct 
122 1 109 3 95 3 ct 83 3 71 1 62 -1 ct 52 -4 44 -9 38 -14 ct 31 -19 26 -25 22 -32 ct 
18 -39 16 -47 14 -55 ct 46 -58 l  47 -54 49 -49 51 -45 ct 53 -41 56 -37 60 -33 ct 
64 -30 69 -27 75 -25 ct 81 -23 88 -22 96 -22 ct 104 -22 111 -24 118 -26 ct 124 -29 130 -32 135 -37 ct 
139 -42 143 -48 145 -55 ct 148 -62 149 -70 149 -79 ct 149 -86 148 -93 146 -99 ct 
143 -106 140 -111 135 -116 ct 131 -120 125 -124 119 -126 ct 112 -129 105 -130 97 -130 ct 
92 -130 87 -130 82 -129 ct 78 -128 74 -126 70 -125 ct 67 -123 63 -121 60 -119 ct 
57 -117 54 -115 52 -113 ct 21 -113 l  29 -243 l  167 -243 l  167 -217 l  58 -217 l 
53 -140 l  58 -144 65 -148 74 -151 ct 82 -154 92 -155 103 -155 ct 115 -155 126 -154 136 -150 ct 
145 -146 154 -141 160 -134 ct 167 -128 172 -120 176 -110 ct 180 -101 182 -91 182 -80 ct 
p ef
pom
pum
11589 16994 t
181 -80 m  181 -68 179 -57 176 -47 ct 172 -36 167 -28 161 -20 ct 154 -13 146 -7 136 -3 ct 
126 1 115 3 102 3 ct 88 3 76 0 65 -5 ct 55 -11 46 -18 39 -28 ct 32 -39 27 -51 23 -66 ct 
20 -81 18 -97 18 -116 ct 18 -138 20 -157 24 -173 ct 28 -190 34 -203 41 -214 ct 
48 -225 58 -233 68 -239 ct 79 -244 91 -247 105 -247 ct 113 -247 121 -246 128 -244 ct 
135 -243 142 -240 148 -236 ct 154 -232 159 -227 163 -221 ct 168 -215 171 -207 174 -198 ct 
144 -192 l  141 -203 136 -210 129 -215 ct 122 -220 114 -222 104 -222 ct 96 -222 88 -220 81 -216 ct 
74 -212 69 -206 64 -198 ct 59 -190 55 -180 53 -168 ct 50 -156 49 -142 49 -126 ct 
54 -136 62 -144 73 -150 ct 83 -155 95 -158 108 -158 ct 119 -158 129 -156 138 -153 ct 
147 -149 154 -144 161 -137 ct 167 -130 172 -122 176 -113 ct 179 -103 181 -92 181 -80 ct 
p
149 -79 m  149 -87 148 -95 146 -102 ct 144 -108 141 -114 137 -119 ct 133 -124 128 -128 122 -130 ct 
115 -133 108 -134 100 -134 ct 95 -134 89 -133 83 -131 ct 78 -130 72 -127 68 -123 ct 
63 -120 59 -115 56 -109 ct 53 -102 52 -95 52 -86 ct 52 -77 53 -69 55 -61 ct 58 -53 61 -46 65 -41 ct 
70 -35 75 -30 81 -27 ct 87 -24 94 -22 101 -22 ct 109 -22 116 -23 121 -26 ct 127 -29 132 -32 137 -37 ct 
141 -42 144 -48 146 -55 ct 148 -62 149 -70 149 -79 ct p ef
pom
pum
12271 16994 t
179 -218 m  166 -200 155 -182 145 -165 ct 135 -147 126 -130 119 -113 ct 111 -95 106 -77 101 -59 ct 
97 -41 95 -21 95 -1 ct 63 -1 l  63 -20 65 -39 70 -58 ct 74 -76 81 -95 88 -113 ct 
96 -131 105 -148 116 -166 ct 126 -183 137 -200 149 -217 ct 18 -217 l  18 -243 l 
179 -243 l  179 -218 l  p ef
pom
pum
12953 16994 t
181 -68 m  181 -58 179 -48 176 -40 ct 173 -31 168 -24 161 -17 ct 154 -11 146 -6 135 -2 ct 
125 1 113 3 98 3 ct 84 3 72 1 61 -2 ct 51 -6 42 -11 35 -17 ct 29 -23 24 -31 20 -40 ct 
17 -48 15 -58 15 -68 ct 15 -77 17 -85 19 -92 ct 22 -98 26 -104 30 -109 ct 35 -114 40 -118 46 -121 ct 
52 -125 58 -127 64 -128 ct 64 -128 l  57 -130 51 -132 46 -136 ct 40 -140 36 -144 32 -149 ct 
29 -154 26 -159 24 -166 ct 22 -172 21 -178 21 -185 ct 21 -193 23 -201 26 -209 ct 
29 -216 34 -223 41 -229 ct 47 -234 55 -239 64 -242 ct 74 -245 85 -247 98 -247 ct 
111 -247 122 -245 132 -242 ct 142 -239 150 -234 156 -228 ct 162 -223 167 -216 170 -209 ct 
173 -201 175 -193 175 -184 ct 175 -178 174 -171 172 -165 ct 170 -159 167 -154 164 -149 ct 
160 -144 156 -139 150 -136 ct 145 -132 139 -130 132 -129 ct 132 -128 l  139 -127 145 -125 151 -122 ct 
157 -119 162 -115 167 -110 ct 171 -105 175 -99 177 -92 ct 180 -85 181 -77 181 -68 ct 
p
143 -183 m  143 -189 142 -194 140 -199 ct 139 -204 136 -209 133 -212 ct 129 -216 125 -219 119 -221 ct 
113 -223 106 -224 98 -224 ct 89 -224 83 -223 77 -221 ct 71 -219 67 -216 63 -212 ct 
59 -209 57 -204 55 -199 ct 54 -194 53 -189 53 -183 ct 53 -178 53 -173 55 -168 ct 
56 -163 58 -158 62 -154 ct 65 -150 69 -147 75 -144 ct 81 -141 89 -140 98 -140 ct 
108 -140 116 -141 121 -144 ct 127 -147 132 -150 135 -154 ct 138 -158 140 -163 141 -168 ct 
142 -173 143 -178 143 -183 ct p
149 -71 m  149 -77 148 -83 146 -88 ct 145 -94 142 -98 138 -103 ct 134 -107 129 -110 122 -113 ct 
116 -115 107 -117 98 -117 ct 88 -117 81 -115 74 -113 ct 68 -110 63 -107 59 -103 ct 
55 -98 52 -93 50 -88 ct 48 -82 47 -76 47 -70 ct 47 -63 48 -56 50 -50 ct 52 -44 55 -39 59 -34 ct 
63 -30 68 -26 75 -24 ct 81 -21 89 -20 99 -20 ct 108 -20 116 -21 122 -24 ct 129 -26 134 -30 138 -34 ct 
142 -39 145 -44 146 -50 ct 148 -56 149 -63 149 -71 ct p ef
pom
pum
13635 16994 t
180 -127 m  180 -105 178 -86 173 -70 ct 169 -54 164 -40 156 -29 ct 148 -19 139 -11 128 -5 ct 
117 0 105 3 92 3 ct 82 3 74 2 67 0 ct 59 -2 52 -5 47 -9 ct 41 -13 36 -18 32 -24 ct 
27 -31 24 -39 22 -48 ct 51 -52 l  54 -42 59 -34 66 -29 ct 73 -24 82 -22 92 -22 ct 
101 -22 108 -24 115 -28 ct 122 -32 128 -38 133 -46 ct 138 -54 142 -64 144 -76 ct 
147 -88 149 -102 149 -118 ct 147 -112 143 -108 139 -103 ct 135 -99 130 -95 125 -93 ct 
119 -90 114 -87 107 -86 ct 101 -84 95 -84 89 -84 ct 78 -84 68 -86 59 -89 ct 50 -93 42 -99 36 -106 ct 
30 -113 25 -122 22 -132 ct 18 -142 17 -153 17 -165 ct 17 -178 18 -189 22 -199 ct 
26 -209 31 -218 38 -225 ct 45 -232 53 -238 63 -241 ct 73 -245 85 -247 97 -247 ct 
124 -247 145 -237 159 -217 ct 173 -197 180 -167 180 -127 ct p
146 -157 m  146 -166 145 -174 143 -182 ct 141 -190 137 -197 133 -203 ct 129 -209 124 -213 118 -217 ct 
112 -220 104 -222 96 -222 ct 89 -222 82 -221 76 -218 ct 70 -215 65 -211 61 -207 ct 
57 -202 54 -196 51 -189 ct 49 -182 48 -174 48 -165 ct 48 -157 49 -150 51 -143 ct 
53 -136 56 -130 60 -124 ct 64 -119 69 -115 75 -112 ct 81 -109 88 -108 96 -108 ct 
102 -108 108 -109 114 -111 ct 119 -113 125 -116 130 -120 ct 134 -124 138 -129 141 -135 ct 
144 -141 146 -149 146 -157 ct p ef
pom
pum
14225 16994 t
27 0 m  27 -26 l  89 -26 l  89 -213 l  34 -174 l  34 -204 l  91 -243 l 
120 -243 l  120 -26 l  179 -26 l  179 0 l  27 0 l  p ef
368 -122 m  368 -99 365 -79 361 -63 ct 356 -47 350 -34 343 -25 ct 335 -15 326 -8 316 -3 ct 
305 1 294 3 283 3 ct 271 3 260 1 250 -3 ct 239 -8 231 -15 223 -24 ct 215 -34 210 -47 205 -63 ct 
201 -79 199 -99 199 -122 ct 199 -146 201 -167 205 -183 ct 210 -199 216 -212 223 -221 ct 
231 -231 240 -237 250 -241 ct 260 -245 272 -247 284 -247 ct 295 -247 306 -245 316 -241 ct 
327 -237 335 -231 343 -221 ct 351 -212 357 -199 361 -183 ct 365 -167 368 -146 368 -122 ct 
p
336 -122 m  336 -141 335 -157 333 -170 ct 330 -183 327 -193 322 -201 ct 318 -209 312 -214 306 -217 ct 
299 -220 292 -222 284 -222 ct 275 -222 267 -220 261 -217 ct 254 -214 248 -208 244 -201 ct 
239 -193 236 -183 234 -170 ct 231 -157 230 -141 230 -122 ct 230 -103 231 -88 234 -75 ct 
236 -62 239 -52 244 -44 ct 249 -36 254 -31 261 -27 ct 267 -24 275 -22 283 -22 ct 
291 -22 299 -24 305 -27 ct 312 -31 317 -36 322 -44 ct 326 -52 330 -62 332 -75 ct 
335 -88 336 -103 336 -122 ct p ef
pom
pum
14908 16994 t
27 0 m  27 -26 l  89 -26 l  89 -213 l  34 -174 l  34 -204 l  91 -243 l 
120 -243 l  120 -26 l  179 -26 l  179 0 l  27 0 l  p ef
212 0 m  212 -26 l  274 -26 l  274 -213 l  219 -174 l  219 -204 l  276 -243 l 
305 -243 l  305 -26 l  364 -26 l  364 0 l  212 0 l  p ef
pom
pum
15590 16994 t
27 0 m  27 -26 l  89 -26 l  89 -213 l  34 -174 l  34 -204 l  91 -243 l 
120 -243 l  120 -26 l  179 -26 l  179 0 l  27 0 l  p ef
203 0 m  203 -22 l  209 -35 216 -47 224 -58 ct 233 -68 242 -77 251 -85 ct 260 -94 269 -101 279 -109 ct 
288 -116 296 -123 303 -130 ct 311 -137 317 -145 321 -152 ct 326 -160 328 -169 328 -179 ct 
328 -186 327 -192 325 -197 ct 323 -202 320 -207 316 -210 ct 312 -214 307 -217 302 -218 ct 
296 -220 290 -221 284 -221 ct 277 -221 272 -220 266 -218 ct 261 -217 256 -214 252 -211 ct 
247 -207 244 -203 241 -198 ct 238 -193 237 -187 236 -180 ct 204 -183 l  205 -192 208 -200 211 -208 ct 
215 -215 220 -222 227 -228 ct 234 -234 242 -238 251 -242 ct 260 -245 271 -247 284 -247 ct 
296 -247 306 -245 316 -242 ct 325 -239 333 -235 340 -229 ct 346 -224 351 -217 355 -209 ct 
358 -200 360 -191 360 -180 ct 360 -172 358 -164 355 -157 ct 352 -149 349 -142 344 -136 ct 
339 -129 333 -123 327 -116 ct 320 -110 314 -104 307 -98 ct 300 -92 292 -86 285 -81 ct 
278 -75 272 -69 265 -63 ct 259 -57 253 -51 248 -45 ct 243 -39 240 -33 237 -26 ct 
364 -26 l  364 0 l  203 0 l  p ef
pom
pum
16272 16994 t
27 0 m  27 -26 l  89 -26 l  89 -213 l  34 -174 l  34 -204 l  91 -243 l 
120 -243 l  120 -26 l  179 -26 l  179 0 l  27 0 l  p ef
366 -68 m  366 -57 364 -47 360 -38 ct 357 -29 351 -22 345 -16 ct 338 -10 329 -5 319 -2 ct 
308 1 297 3 283 3 ct 268 3 256 1 245 -3 ct 235 -6 227 -11 220 -17 ct 213 -24 208 -31 205 -39 ct 
202 -46 199 -55 198 -63 ct 231 -66 l  231 -60 233 -54 236 -48 ct 238 -43 241 -38 246 -35 ct 
250 -31 255 -28 261 -26 ct 268 -24 275 -23 283 -23 ct 299 -23 311 -27 320 -34 ct 
329 -42 334 -54 334 -69 ct 334 -78 332 -85 328 -90 ct 324 -96 319 -100 313 -103 ct 
307 -106 300 -108 294 -109 ct 287 -110 280 -111 274 -111 ct 257 -111 l  257 -138 l 
274 -138 l  279 -138 286 -139 292 -140 ct 298 -141 304 -143 309 -146 ct 314 -149 319 -154 322 -159 ct 
326 -164 327 -171 327 -180 ct 327 -193 323 -203 316 -210 ct 308 -218 297 -221 282 -221 ct 
268 -221 257 -218 249 -211 ct 240 -204 235 -194 234 -182 ct 203 -184 l  204 -195 207 -204 211 -212 ct 
216 -220 222 -226 229 -231 ct 236 -237 244 -241 253 -243 ct 262 -246 272 -247 282 -247 ct 
296 -247 307 -245 317 -242 ct 327 -239 335 -234 341 -228 ct 347 -222 352 -216 355 -208 ct 
358 -200 359 -192 359 -183 ct 359 -176 358 -169 356 -163 ct 354 -157 351 -151 347 -146 ct 
343 -141 338 -137 331 -134 ct 325 -130 317 -127 308 -125 ct 308 -125 l  318 -124 327 -122 334 -118 ct 
341 -115 347 -111 352 -105 ct 356 -100 360 -95 362 -88 ct 365 -82 366 -75 366 -68 ct 
p ef
pom
pum
16954 16994 t
27 0 m  27 -26 l  89 -26 l  89 -213 l  34 -174 l  34 -204 l  91 -243 l 
120 -243 l  120 -26 l  179 -26 l  179 0 l  27 0 l  p ef
337 -55 m  337 0 l  308 0 l  308 -55 l  193 -55 l  193 -79 l  304 -243 l 
337 -243 l  337 -79 l  371 -79 l  371 -55 l  337 -55 l  p
308 -208 m  307 -207 307 -206 306 -205 ct 305 -203 304 -201 303 -199 ct 302 -197 300 -195 299 -193 ct 
298 -191 297 -189 296 -187 ct 234 -96 l  233 -95 232 -94 231 -92 ct 230 -91 229 -89 228 -88 ct 
227 -86 226 -84 224 -83 ct 223 -81 222 -80 222 -79 ct 308 -79 l  308 -208 l 
p ef
pom
pum
17637 16994 t
27 0 m  27 -26 l  89 -26 l  89 -213 l  34 -174 l  34 -204 l  91 -243 l 
120 -243 l  120 -26 l  179 -26 l  179 0 l  27 0 l  p ef
367 -80 m  367 -67 365 -56 361 -46 ct 357 -36 352 -27 345 -20 ct 337 -13 328 -7 318 -3 ct 
307 1 294 3 280 3 ct 268 3 256 1 247 -1 ct 237 -4 229 -9 223 -14 ct 216 -19 211 -25 207 -32 ct 
203 -39 201 -47 199 -55 ct 231 -58 l  232 -54 234 -49 236 -45 ct 238 -41 241 -37 245 -33 ct 
249 -30 254 -27 260 -25 ct 266 -23 273 -22 281 -22 ct 289 -22 296 -24 303 -26 ct 
309 -29 315 -32 320 -37 ct 324 -42 328 -48 330 -55 ct 333 -62 334 -70 334 -79 ct 
334 -86 333 -93 331 -99 ct 328 -106 325 -111 320 -116 ct 316 -120 310 -124 304 -126 ct 
297 -129 290 -130 282 -130 ct 277 -130 272 -130 267 -129 ct 263 -128 259 -126 255 -125 ct 
252 -123 248 -121 245 -119 ct 242 -117 239 -115 237 -113 ct 206 -113 l  214 -243 l 
352 -243 l  352 -217 l  243 -217 l  238 -140 l  243 -144 250 -148 259 -151 ct 
267 -154 277 -155 288 -155 ct 300 -155 311 -154 321 -150 ct 330 -146 339 -141 345 -134 ct 
352 -128 357 -120 361 -110 ct 365 -101 367 -91 367 -80 ct p ef
pom
pum
7360 16547 t
183 -122 m  183 -99 180 -79 176 -63 ct 171 -47 165 -34 158 -25 ct 150 -15 141 -8 131 -3 ct 
120 1 109 3 98 3 ct 86 3 75 1 65 -3 ct 54 -8 46 -15 38 -24 ct 30 -34 25 -47 20 -63 ct 
16 -79 14 -99 14 -122 ct 14 -146 16 -167 20 -183 ct 25 -199 31 -212 38 -221 ct 
46 -231 55 -237 65 -241 ct 75 -245 87 -247 99 -247 ct 110 -247 121 -245 131 -241 ct 
142 -237 150 -231 158 -221 ct 166 -212 172 -199 176 -183 ct 180 -167 183 -146 183 -122 ct 
p
151 -122 m  151 -141 150 -157 148 -170 ct 145 -183 142 -193 137 -201 ct 133 -209 127 -214 121 -217 ct 
114 -220 107 -222 99 -222 ct 90 -222 82 -220 76 -217 ct 69 -214 63 -208 59 -201 ct 
54 -193 51 -183 49 -170 ct 46 -157 45 -141 45 -122 ct 45 -103 46 -88 49 -75 ct 
51 -62 54 -52 59 -44 ct 64 -36 69 -31 76 -27 ct 82 -24 90 -22 98 -22 ct 106 -22 114 -24 120 -27 ct 
127 -31 132 -36 137 -44 ct 141 -52 145 -62 147 -75 ct 150 -88 151 -103 151 -122 ct 
p ef
251 -38 m  251 -9 l  251 -3 251 3 251 8 ct 250 13 249 17 248 22 ct 247 26 246 30 244 34 ct 
242 38 240 41 238 45 ct 217 45 l  222 38 226 30 229 23 ct 232 15 233 7 233 0 ct 
218 0 l  218 -38 l  251 -38 l  p ef
474 -122 m  474 -99 471 -79 467 -63 ct 462 -47 456 -34 449 -25 ct 441 -15 432 -8 422 -3 ct 
411 1 400 3 389 3 ct 377 3 366 1 356 -3 ct 345 -8 337 -15 329 -24 ct 321 -34 316 -47 311 -63 ct 
307 -79 305 -99 305 -122 ct 305 -146 307 -167 311 -183 ct 316 -199 322 -212 329 -221 ct 
337 -231 346 -237 356 -241 ct 366 -245 378 -247 390 -247 ct 401 -247 412 -245 422 -241 ct 
433 -237 441 -231 449 -221 ct 457 -212 463 -199 467 -183 ct 471 -167 474 -146 474 -122 ct 
p
442 -122 m  442 -141 441 -157 439 -170 ct 436 -183 433 -193 428 -201 ct 424 -209 418 -214 412 -217 ct 
405 -220 398 -222 390 -222 ct 381 -222 373 -220 367 -217 ct 360 -214 354 -208 350 -201 ct 
345 -193 342 -183 340 -170 ct 337 -157 336 -141 336 -122 ct 336 -103 337 -88 340 -75 ct 
342 -62 345 -52 350 -44 ct 355 -36 360 -31 367 -27 ct 373 -24 381 -22 389 -22 ct 
397 -22 405 -24 411 -27 ct 418 -31 423 -36 428 -44 ct 432 -52 436 -62 438 -75 ct 
441 -88 442 -103 442 -122 ct p ef
659 -122 m  659 -99 656 -79 652 -63 ct 647 -47 641 -34 634 -25 ct 626 -15 617 -8 607 -3 ct 
596 1 585 3 574 3 ct 562 3 551 1 541 -3 ct 530 -8 522 -15 514 -24 ct 506 -34 501 -47 496 -63 ct 
492 -79 490 -99 490 -122 ct 490 -146 492 -167 496 -183 ct 501 -199 507 -212 514 -221 ct 
522 -231 531 -237 541 -241 ct 551 -245 563 -247 575 -247 ct 586 -247 597 -245 607 -241 ct 
618 -237 626 -231 634 -221 ct 642 -212 648 -199 652 -183 ct 656 -167 659 -146 659 -122 ct 
p
627 -122 m  627 -141 626 -157 624 -170 ct 621 -183 618 -193 613 -201 ct 609 -209 603 -214 597 -217 ct 
590 -220 583 -222 575 -222 ct 566 -222 558 -220 552 -217 ct 545 -214 539 -208 535 -201 ct 
530 -193 527 -183 525 -170 ct 522 -157 521 -141 521 -122 ct 521 -103 522 -88 525 -75 ct 
527 -62 530 -52 535 -44 ct 540 -36 545 -31 552 -27 ct 558 -24 566 -22 574 -22 ct 
582 -22 590 -24 596 -27 ct 603 -31 608 -36 613 -44 ct 617 -52 621 -62 623 -75 ct 
626 -88 627 -103 627 -122 ct p ef
pom
pum
7360 15411 t
183 -122 m  183 -99 180 -79 176 -63 ct 171 -47 165 -34 158 -25 ct 150 -15 141 -8 131 -3 ct 
120 1 109 3 98 3 ct 86 3 75 1 65 -3 ct 54 -8 46 -15 38 -24 ct 30 -34 25 -47 20 -63 ct 
16 -79 14 -99 14 -122 ct 14 -146 16 -167 20 -183 ct 25 -199 31 -212 38 -221 ct 
46 -231 55 -237 65 -241 ct 75 -245 87 -247 99 -247 ct 110 -247 121 -245 131 -241 ct 
142 -237 150 -231 158 -221 ct 166 -212 172 -199 176 -183 ct 180 -167 183 -146 183 -122 ct 
p
151 -122 m  151 -141 150 -157 148 -170 ct 145 -183 142 -193 137 -201 ct 133 -209 127 -214 121 -217 ct 
114 -220 107 -222 99 -222 ct 90 -222 82 -220 76 -217 ct 69 -214 63 -208 59 -201 ct 
54 -193 51 -183 49 -170 ct 46 -157 45 -141 45 -122 ct 45 -103 46 -88 49 -75 ct 
51 -62 54 -52 59 -44 ct 64 -36 69 -31 76 -27 ct 82 -24 90 -22 98 -22 ct 106 -22 114 -24 120 -27 ct 
127 -31 132 -36 137 -44 ct 141 -52 145 -62 147 -75 ct 150 -88 151 -103 151 -122 ct 
p ef
251 -38 m  251 -9 l  251 -3 251 3 251 8 ct 250 13 249 17 248 22 ct 247 26 246 30 244 34 ct 
242 38 240 41 238 45 ct 217 45 l  222 38 226 30 229 23 ct 232 15 233 7 233 0 ct 
218 0 l  218 -38 l  251 -38 l  p ef
473 -80 m  473 -67 471 -56 467 -46 ct 463 -36 458 -27 451 -20 ct 443 -13 434 -7 424 -3 ct 
413 1 400 3 386 3 ct 374 3 362 1 353 -1 ct 343 -4 335 -9 329 -14 ct 322 -19 317 -25 313 -32 ct 
309 -39 307 -47 305 -55 ct 337 -58 l  338 -54 340 -49 342 -45 ct 344 -41 347 -37 351 -33 ct 
355 -30 360 -27 366 -25 ct 372 -23 379 -22 387 -22 ct 395 -22 402 -24 409 -26 ct 
415 -29 421 -32 426 -37 ct 430 -42 434 -48 436 -55 ct 439 -62 440 -70 440 -79 ct 
440 -86 439 -93 437 -99 ct 434 -106 431 -111 426 -116 ct 422 -120 416 -124 410 -126 ct 
403 -129 396 -130 388 -130 ct 383 -130 378 -130 373 -129 ct 369 -128 365 -126 361 -125 ct 
358 -123 354 -121 351 -119 ct 348 -117 345 -115 343 -113 ct 312 -113 l  320 -243 l 
458 -243 l  458 -217 l  349 -217 l  344 -140 l  349 -144 356 -148 365 -151 ct 
373 -154 383 -155 394 -155 ct 406 -155 417 -154 427 -150 ct 436 -146 445 -141 451 -134 ct 
458 -128 463 -120 467 -110 ct 471 -101 473 -91 473 -80 ct p ef
659 -122 m  659 -99 656 -79 652 -63 ct 647 -47 641 -34 634 -25 ct 626 -15 617 -8 607 -3 ct 
596 1 585 3 574 3 ct 562 3 551 1 541 -3 ct 530 -8 522 -15 514 -24 ct 506 -34 501 -47 496 -63 ct 
492 -79 490 -99 490 -122 ct 490 -146 492 -167 496 -183 ct 501 -199 507 -212 514 -221 ct 
522 -231 531 -237 541 -241 ct 551 -245 563 -247 575 -247 ct 586 -247 597 -245 607 -241 ct 
618 -237 626 -231 634 -221 ct 642 -212 648 -199 652 -183 ct 656 -167 659 -146 659 -122 ct 
p
627 -122 m  627 -141 626 -157 624 -170 ct 621 -183 618 -193 613 -201 ct 609 -209 603 -214 597 -217 ct 
590 -220 583 -222 575 -222 ct 566 -222 558 -220 552 -217 ct 545 -214 539 -208 535 -201 ct 
530 -193 527 -183 525 -170 ct 522 -157 521 -141 521 -122 ct 521 -103 522 -88 525 -75 ct 
527 -62 530 -52 535 -44 ct 540 -36 545 -31 552 -27 ct 558 -24 566 -22 574 -22 ct 
582 -22 590 -24 596 -27 ct 603 -31 608 -36 613 -44 ct 617 -52 621 -62 623 -75 ct 
626 -88 627 -103 627 -122 ct p ef
pom
pum
7360 14276 t
27 0 m  27 -26 l  89 -26 l  89 -213 l  34 -174 l  34 -204 l  91 -243 l 
120 -243 l  120 -26 l  179 -26 l  179 0 l  27 0 l  p ef
251 -38 m  251 -9 l  251 -3 251 3 251 8 ct 250 13 249 17 248 22 ct 247 26 246 30 244 34 ct 
242 38 240 41 238 45 ct 217 45 l  222 38 226 30 229 23 ct 232 15 233 7 233 0 ct 
218 0 l  218 -38 l  251 -38 l  p ef
474 -122 m  474 -99 471 -79 467 -63 ct 462 -47 456 -34 449 -25 ct 441 -15 432 -8 422 -3 ct 
411 1 400 3 389 3 ct 377 3 366 1 356 -3 ct 345 -8 337 -15 329 -24 ct 321 -34 316 -47 311 -63 ct 
307 -79 305 -99 305 -122 ct 305 -146 307 -167 311 -183 ct 316 -199 322 -212 329 -221 ct 
337 -231 346 -237 356 -241 ct 366 -245 378 -247 390 -247 ct 401 -247 412 -245 422 -241 ct 
433 -237 441 -231 449 -221 ct 457 -212 463 -199 467 -183 ct 471 -167 474 -146 474 -122 ct 
p
442 -122 m  442 -141 441 -157 439 -170 ct 436 -183 433 -193 428 -201 ct 424 -209 418 -214 412 -217 ct 
405 -220 398 -222 390 -222 ct 381 -222 373 -220 367 -217 ct 360 -214 354 -208 350 -201 ct 
345 -193 342 -183 340 -170 ct 337 -157 336 -141 336 -122 ct 336 -103 337 -88 340 -75 ct 
342 -62 345 -52 350 -44 ct 355 -36 360 -31 367 -27 ct 373 -24 381 -22 389 -22 ct 
397 -22 405 -24 411 -27 ct 418 -31 423 -36 428 -44 ct 432 -52 436 -62 438 -75 ct 
441 -88 442 -103 442 -122 ct p ef
659 -122 m  659 -99 656 -79 652 -63 ct 647 -47 641 -34 634 -25 ct 626 -15 617 -8 607 -3 ct 
596 1 585 3 574 3 ct 562 3 551 1 541 -3 ct 530 -8 522 -15 514 -24 ct 506 -34 501 -47 496 -63 ct 
492 -79 490 -99 490 -122 ct 490 -146 492 -167 496 -183 ct 501 -199 507 -212 514 -221 ct 
522 -231 531 -237 541 -241 ct 551 -245 563 -247 575 -247 ct 586 -247 597 -245 607 -241 ct 
618 -237 626 -231 634 -221 ct 642 -212 648 -199 652 -183 ct 656 -167 659 -146 659 -122 ct 
p
627 -122 m  627 -141 626 -157 624 -170 ct 621 -183 618 -193 613 -201 ct 609 -209 603 -214 597 -217 ct 
590 -220 583 -222 575 -222 ct 566 -222 558 -220 552 -217 ct 545 -214 539 -208 535 -201 ct 
530 -193 527 -183 525 -170 ct 522 -157 521 -141 521 -122 ct 521 -103 522 -88 525 -75 ct 
527 -62 530 -52 535 -44 ct 540 -36 545 -31 552 -27 ct 558 -24 566 -22 574 -22 ct 
582 -22 590 -24 596 -27 ct 603 -31 608 -36 613 -44 ct 617 -52 621 -62 623 -75 ct 
626 -88 627 -103 627 -122 ct p ef
pom
pum
7360 13140 t
27 0 m  27 -26 l  89 -26 l  89 -213 l  34 -174 l  34 -204 l  91 -243 l 
120 -243 l  120 -26 l  179 -26 l  179 0 l  27 0 l  p ef
251 -38 m  251 -9 l  251 -3 251 3 251 8 ct 250 13 249 17 248 22 ct 247 26 246 30 244 34 ct 
242 38 240 41 238 45 ct 217 45 l  222 38 226 30 229 23 ct 232 15 233 7 233 0 ct 
218 0 l  218 -38 l  251 -38 l  p ef
473 -80 m  473 -67 471 -56 467 -46 ct 463 -36 458 -27 451 -20 ct 443 -13 434 -7 424 -3 ct 
413 1 400 3 386 3 ct 374 3 362 1 353 -1 ct 343 -4 335 -9 329 -14 ct 322 -19 317 -25 313 -32 ct 
309 -39 307 -47 305 -55 ct 337 -58 l  338 -54 340 -49 342 -45 ct 344 -41 347 -37 351 -33 ct 
355 -30 360 -27 366 -25 ct 372 -23 379 -22 387 -22 ct 395 -22 402 -24 409 -26 ct 
415 -29 421 -32 426 -37 ct 430 -42 434 -48 436 -55 ct 439 -62 440 -70 440 -79 ct 
440 -86 439 -93 437 -99 ct 434 -106 431 -111 426 -116 ct 422 -120 416 -124 410 -126 ct 
403 -129 396 -130 388 -130 ct 383 -130 378 -130 373 -129 ct 369 -128 365 -126 361 -125 ct 
358 -123 354 -121 351 -119 ct 348 -117 345 -115 343 -113 ct 312 -113 l  320 -243 l 
458 -243 l  458 -217 l  349 -217 l  344 -140 l  349 -144 356 -148 365 -151 ct 
373 -154 383 -155 394 -155 ct 406 -155 417 -154 427 -150 ct 436 -146 445 -141 451 -134 ct 
458 -128 463 -120 467 -110 ct 471 -101 473 -91 473 -80 ct p ef
659 -122 m  659 -99 656 -79 652 -63 ct 647 -47 641 -34 634 -25 ct 626 -15 617 -8 607 -3 ct 
596 1 585 3 574 3 ct 562 3 551 1 541 -3 ct 530 -8 522 -15 514 -24 ct 506 -34 501 -47 496 -63 ct 
492 -79 490 -99 490 -122 ct 490 -146 492 -167 496 -183 ct 501 -199 507 -212 514 -221 ct 
522 -231 531 -237 541 -241 ct 551 -245 563 -247 575 -247 ct 586 -247 597 -245 607 -241 ct 
618 -237 626 -231 634 -221 ct 642 -212 648 -199 652 -183 ct 656 -167 659 -146 659 -122 ct 
p
627 -122 m  627 -141 626 -157 624 -170 ct 621 -183 618 -193 613 -201 ct 609 -209 603 -214 597 -217 ct 
590 -220 583 -222 575 -222 ct 566 -222 558 -220 552 -217 ct 545 -214 539 -208 535 -201 ct 
530 -193 527 -183 525 -170 ct 522 -157 521 -141 521 -122 ct 521 -103 522 -88 525 -75 ct 
527 -62 530 -52 535 -44 ct 540 -36 545 -31 552 -27 ct 558 -24 566 -22 574 -22 ct 
582 -22 590 -24 596 -27 ct 603 -31 608 -36 613 -44 ct 617 -52 621 -62 623 -75 ct 
626 -88 627 -103 627 -122 ct p ef
pom
pum
7360 12005 t
18 0 m  18 -22 l  24 -35 31 -47 39 -58 ct 48 -68 57 -77 66 -85 ct 75 -94 84 -101 94 -109 ct 
103 -116 111 -123 118 -130 ct 126 -137 132 -145 136 -152 ct 141 -160 143 -169 143 -179 ct 
143 -186 142 -192 140 -197 ct 138 -202 135 -207 131 -210 ct 127 -214 122 -217 117 -218 ct 
111 -220 105 -221 99 -221 ct 92 -221 87 -220 81 -218 ct 76 -217 71 -214 67 -211 ct 
62 -207 59 -203 56 -198 ct 53 -193 52 -187 51 -180 ct 19 -183 l  20 -192 23 -200 26 -208 ct 
30 -215 35 -222 42 -228 ct 49 -234 57 -238 66 -242 ct 75 -245 86 -247 99 -247 ct 
111 -247 121 -245 131 -242 ct 140 -239 148 -235 155 -229 ct 161 -224 166 -217 170 -209 ct 
173 -200 175 -191 175 -180 ct 175 -172 173 -164 170 -157 ct 167 -149 164 -142 159 -136 ct 
154 -129 148 -123 142 -116 ct 135 -110 129 -104 122 -98 ct 115 -92 107 -86 100 -81 ct 
93 -75 87 -69 80 -63 ct 74 -57 68 -51 63 -45 ct 58 -39 55 -33 52 -26 ct 179 -26 l 
179 0 l  18 0 l  p ef
251 -38 m  251 -9 l  251 -3 251 3 251 8 ct 250 13 249 17 248 22 ct 247 26 246 30 244 34 ct 
242 38 240 41 238 45 ct 217 45 l  222 38 226 30 229 23 ct 232 15 233 7 233 0 ct 
218 0 l  218 -38 l  251 -38 l  p ef
474 -122 m  474 -99 471 -79 467 -63 ct 462 -47 456 -34 449 -25 ct 441 -15 432 -8 422 -3 ct 
411 1 400 3 389 3 ct 377 3 366 1 356 -3 ct 345 -8 337 -15 329 -24 ct 321 -34 316 -47 311 -63 ct 
307 -79 305 -99 305 -122 ct 305 -146 307 -167 311 -183 ct 316 -199 322 -212 329 -221 ct 
337 -231 346 -237 356 -241 ct 366 -245 378 -247 390 -247 ct 401 -247 412 -245 422 -241 ct 
433 -237 441 -231 449 -221 ct 457 -212 463 -199 467 -183 ct 471 -167 474 -146 474 -122 ct 
p
442 -122 m  442 -141 441 -157 439 -170 ct 436 -183 433 -193 428 -201 ct 424 -209 418 -214 412 -217 ct 
405 -220 398 -222 390 -222 ct 381 -222 373 -220 367 -217 ct 360 -214 354 -208 350 -201 ct 
345 -193 342 -183 340 -170 ct 337 -157 336 -141 336 -122 ct 336 -103 337 -88 340 -75 ct 
342 -62 345 -52 350 -44 ct 355 -36 360 -31 367 -27 ct 373 -24 381 -22 389 -22 ct 
397 -22 405 -24 411 -27 ct 418 -31 423 -36 428 -44 ct 432 -52 436 -62 438 -75 ct 
441 -88 442 -103 442 -122 ct p ef
659 -122 m  659 -99 656 -79 652 -63 ct 647 -47 641 -34 634 -25 ct 626 -15 617 -8 607 -3 ct 
596 1 585 3 574 3 ct 562 3 551 1 541 -3 ct 530 -8 522 -15 514 -24 ct 506 -34 501 -47 496 -63 ct 
492 -79 490 -99 490 -122 ct 490 -146 492 -167 496 -183 ct 501 -199 507 -212 514 -221 ct 
522 -231 531 -237 541 -241 ct 551 -245 563 -247 575 -247 ct 586 -247 597 -245 607 -241 ct 
618 -237 626 -231 634 -221 ct 642 -212 648 -199 652 -183 ct 656 -167 659 -146 659 -122 ct 
p
627 -122 m  627 -141 626 -157 624 -170 ct 621 -183 618 -193 613 -201 ct 609 -209 603 -214 597 -217 ct 
590 -220 583 -222 575 -222 ct 566 -222 558 -220 552 -217 ct 545 -214 539 -208 535 -201 ct 
530 -193 527 -183 525 -170 ct 522 -157 521 -141 521 -122 ct 521 -103 522 -88 525 -75 ct 
527 -62 530 -52 535 -44 ct 540 -36 545 -31 552 -27 ct 558 -24 566 -22 574 -22 ct 
582 -22 590 -24 596 -27 ct 603 -31 608 -36 613 -44 ct 617 -52 621 -62 623 -75 ct 
626 -88 627 -103 627 -122 ct p ef
pom
pum
7360 10869 t
18 0 m  18 -22 l  24 -35 31 -47 39 -58 ct 48 -68 57 -77 66 -85 ct 75 -94 84 -101 94 -109 ct 
103 -116 111 -123 118 -130 ct 126 -137 132 -145 136 -152 ct 141 -160 143 -169 143 -179 ct 
143 -186 142 -192 140 -197 ct 138 -202 135 -207 131 -210 ct 127 -214 122 -217 117 -218 ct 
111 -220 105 -221 99 -221 ct 92 -221 87 -220 81 -218 ct 76 -217 71 -214 67 -211 ct 
62 -207 59 -203 56 -198 ct 53 -193 52 -187 51 -180 ct 19 -183 l  20 -192 23 -200 26 -208 ct 
30 -215 35 -222 42 -228 ct 49 -234 57 -238 66 -242 ct 75 -245 86 -247 99 -247 ct 
111 -247 121 -245 131 -242 ct 140 -239 148 -235 155 -229 ct 161 -224 166 -217 170 -209 ct 
173 -200 175 -191 175 -180 ct 175 -172 173 -164 170 -157 ct 167 -149 164 -142 159 -136 ct 
154 -129 148 -123 142 -116 ct 135 -110 129 -104 122 -98 ct 115 -92 107 -86 100 -81 ct 
93 -75 87 -69 80 -63 ct 74 -57 68 -51 63 -45 ct 58 -39 55 -33 52 -26 ct 179 -26 l 
179 0 l  18 0 l  p ef
251 -38 m  251 -9 l  251 -3 251 3 251 8 ct 250 13 249 17 248 22 ct 247 26 246 30 244 34 ct 
242 38 240 41 238 45 ct 217 45 l  222 38 226 30 229 23 ct 232 15 233 7 233 0 ct 
218 0 l  218 -38 l  251 -38 l  p ef
473 -80 m  473 -67 471 -56 467 -46 ct 463 -36 458 -27 451 -20 ct 443 -13 434 -7 424 -3 ct 
413 1 400 3 386 3 ct 374 3 362 1 353 -1 ct 343 -4 335 -9 329 -14 ct 322 -19 317 -25 313 -32 ct 
309 -39 307 -47 305 -55 ct 337 -58 l  338 -54 340 -49 342 -45 ct 344 -41 347 -37 351 -33 ct 
355 -30 360 -27 366 -25 ct 372 -23 379 -22 387 -22 ct 395 -22 402 -24 409 -26 ct 
415 -29 421 -32 426 -37 ct 430 -42 434 -48 436 -55 ct 439 -62 440 -70 440 -79 ct 
440 -86 439 -93 437 -99 ct 434 -106 431 -111 426 -116 ct 422 -120 416 -124 410 -126 ct 
403 -129 396 -130 388 -130 ct 383 -130 378 -130 373 -129 ct 369 -128 365 -126 361 -125 ct 
358 -123 354 -121 351 -119 ct 348 -117 345 -115 343 -113 ct 312 -113 l  320 -243 l 
458 -243 l  458 -217 l  349 -217 l  344 -140 l  349 -144 356 -148 365 -151 ct 
373 -154 383 -155 394 -155 ct 406 -155 417 -154 427 -150 ct 436 -146 445 -141 451 -134 ct 
458 -128 463 -120 467 -110 ct 471 -101 473 -91 473 -80 ct p ef
659 -122 m  659 -99 656 -79 652 -63 ct 647 -47 641 -34 634 -25 ct 626 -15 617 -8 607 -3 ct 
596 1 585 3 574 3 ct 562 3 551 1 541 -3 ct 530 -8 522 -15 514 -24 ct 506 -34 501 -47 496 -63 ct 
492 -79 490 -99 490 -122 ct 490 -146 492 -167 496 -183 ct 501 -199 507 -212 514 -221 ct 
522 -231 531 -237 541 -241 ct 551 -245 563 -247 575 -247 ct 586 -247 597 -245 607 -241 ct 
618 -237 626 -231 634 -221 ct 642 -212 648 -199 652 -183 ct 656 -167 659 -146 659 -122 ct 
p
627 -122 m  627 -141 626 -157 624 -170 ct 621 -183 618 -193 613 -201 ct 609 -209 603 -214 597 -217 ct 
590 -220 583 -222 575 -222 ct 566 -222 558 -220 552 -217 ct 545 -214 539 -208 535 -201 ct 
530 -193 527 -183 525 -170 ct 522 -157 521 -141 521 -122 ct 521 -103 522 -88 525 -75 ct 
527 -62 530 -52 535 -44 ct 540 -36 545 -31 552 -27 ct 558 -24 566 -22 574 -22 ct 
582 -22 590 -24 596 -27 ct 603 -31 608 -36 613 -44 ct 617 -52 621 -62 623 -75 ct 
626 -88 627 -103 627 -122 ct p ef
pom
pum
7360 9734 t
181 -68 m  181 -57 179 -47 175 -38 ct 172 -29 166 -22 160 -16 ct 153 -10 144 -5 134 -2 ct 
123 1 112 3 98 3 ct 83 3 71 1 60 -3 ct 50 -6 42 -11 35 -17 ct 28 -24 23 -31 20 -39 ct 
17 -46 14 -55 13 -63 ct 46 -66 l  46 -60 48 -54 51 -48 ct 53 -43 56 -38 61 -35 ct 
65 -31 70 -28 76 -26 ct 83 -24 90 -23 98 -23 ct 114 -23 126 -27 135 -34 ct 144 -42 149 -54 149 -69 ct 
149 -78 147 -85 143 -90 ct 139 -96 134 -100 128 -103 ct 122 -106 115 -108 109 -109 ct 
102 -110 95 -111 89 -111 ct 72 -111 l  72 -138 l  89 -138 l  94 -138 101 -139 107 -140 ct 
113 -141 119 -143 124 -146 ct 129 -149 134 -154 137 -159 ct 141 -164 142 -171 142 -180 ct 
142 -193 138 -203 131 -210 ct 123 -218 112 -221 97 -221 ct 83 -221 72 -218 64 -211 ct 
55 -204 50 -194 49 -182 ct 18 -184 l  19 -195 22 -204 26 -212 ct 31 -220 37 -226 44 -231 ct 
51 -237 59 -241 68 -243 ct 77 -246 87 -247 97 -247 ct 111 -247 122 -245 132 -242 ct 
142 -239 150 -234 156 -228 ct 162 -222 167 -216 170 -208 ct 173 -200 174 -192 174 -183 ct 
174 -176 173 -169 171 -163 ct 169 -157 166 -151 162 -146 ct 158 -141 153 -137 146 -134 ct 
140 -130 132 -127 123 -125 ct 123 -125 l  133 -124 142 -122 149 -118 ct 156 -115 162 -111 167 -105 ct 
171 -100 175 -95 177 -88 ct 180 -82 181 -75 181 -68 ct p ef
251 -38 m  251 -9 l  251 -3 251 3 251 8 ct 250 13 249 17 248 22 ct 247 26 246 30 244 34 ct 
242 38 240 41 238 45 ct 217 45 l  222 38 226 30 229 23 ct 232 15 233 7 233 0 ct 
218 0 l  218 -38 l  251 -38 l  p ef
474 -122 m  474 -99 471 -79 467 -63 ct 462 -47 456 -34 449 -25 ct 441 -15 432 -8 422 -3 ct 
411 1 400 3 389 3 ct 377 3 366 1 356 -3 ct 345 -8 337 -15 329 -24 ct 321 -34 316 -47 311 -63 ct 
307 -79 305 -99 305 -122 ct 305 -146 307 -167 311 -183 ct 316 -199 322 -212 329 -221 ct 
337 -231 346 -237 356 -241 ct 366 -245 378 -247 390 -247 ct 401 -247 412 -245 422 -241 ct 
433 -237 441 -231 449 -221 ct 457 -212 463 -199 467 -183 ct 471 -167 474 -146 474 -122 ct 
p
442 -122 m  442 -141 441 -157 439 -170 ct 436 -183 433 -193 428 -201 ct 424 -209 418 -214 412 -217 ct 
405 -220 398 -222 390 -222 ct 381 -222 373 -220 367 -217 ct 360 -214 354 -208 350 -201 ct 
345 -193 342 -183 340 -170 ct 337 -157 336 -141 336 -122 ct 336 -103 337 -88 340 -75 ct 
342 -62 345 -52 350 -44 ct 355 -36 360 -31 367 -27 ct 373 -24 381 -22 389 -22 ct 
397 -22 405 -24 411 -27 ct 418 -31 423 -36 428 -44 ct 432 -52 436 -62 438 -75 ct 
441 -88 442 -103 442 -122 ct p ef
659 -122 m  659 -99 656 -79 652 -63 ct 647 -47 641 -34 634 -25 ct 626 -15 617 -8 607 -3 ct 
596 1 585 3 574 3 ct 562 3 551 1 541 -3 ct 530 -8 522 -15 514 -24 ct 506 -34 501 -47 496 -63 ct 
492 -79 490 -99 490 -122 ct 490 -146 492 -167 496 -183 ct 501 -199 507 -212 514 -221 ct 
522 -231 531 -237 541 -241 ct 551 -245 563 -247 575 -247 ct 586 -247 597 -245 607 -241 ct 
618 -237 626 -231 634 -221 ct 642 -212 648 -199 652 -183 ct 656 -167 659 -146 659 -122 ct 
p
627 -122 m  627 -141 626 -157 624 -170 ct 621 -183 618 -193 613 -201 ct 609 -209 603 -214 597 -217 ct 
590 -220 583 -222 575 -222 ct 566 -222 558 -220 552 -217 ct 545 -214 539 -208 535 -201 ct 
530 -193 527 -183 525 -170 ct 522 -157 521 -141 521 -122 ct 521 -103 522 -88 525 -75 ct 
527 -62 530 -52 535 -44 ct 540 -36 545 -31 552 -27 ct 558 -24 566 -22 574 -22 ct 
582 -22 590 -24 596 -27 ct 603 -31 608 -36 613 -44 ct 617 -52 621 -62 623 -75 ct 
626 -88 627 -103 627 -122 ct p ef
pom
0.003 0.273 0.527 c 18444 13735 m  19244 13735 l  ps
pum
19344 13854 t
0.003 0.003 0.003 c 217 -170 m  217 -160 215 -150 212 -141 ct 208 -131 203 -124 196 -117 ct 
189 -110 180 -105 170 -101 ct 159 -97 147 -95 133 -95 ct 62 -95 l  62 -1 l  29 -1 l 
29 -243 l  131 -243 l  146 -243 158 -242 169 -238 ct 179 -235 188 -230 195 -223 ct 
203 -217 208 -209 211 -200 ct 215 -191 217 -181 217 -170 ct p
184 -170 m  184 -185 179 -197 170 -205 ct 160 -213 146 -217 127 -217 ct 62 -217 l 
62 -121 l  129 -121 l  148 -121 161 -125 170 -134 ct 179 -142 184 -154 184 -170 ct 
p ef
262 0 m  262 -143 l  262 -147 262 -151 262 -155 ct 262 -159 262 -163 262 -167 ct 
262 -171 262 -174 262 -178 ct 262 -181 262 -184 261 -187 ct 291 -187 l  291 -184 291 -181 291 -178 ct 
291 -174 292 -171 292 -167 ct 292 -164 292 -160 292 -157 ct 292 -154 292 -151 292 -148 ct 
293 -148 l  295 -156 297 -162 300 -167 ct 302 -172 305 -177 309 -180 ct 312 -183 316 -186 320 -188 ct 
325 -189 331 -190 337 -190 ct 340 -190 342 -190 344 -189 ct 347 -189 348 -189 350 -188 ct 
350 -160 l  348 -160 345 -161 342 -161 ct 340 -161 337 -162 333 -162 ct 326 -162 320 -160 315 -157 ct 
310 -154 306 -149 303 -143 ct 300 -138 297 -131 296 -123 ct 294 -115 294 -107 294 -97 ct 
294 0 l  262 0 l  p ef
352 0 m  352 -24 l  466 -163 l  359 -163 l  359 -187 l  501 -187 l  501 -163 l 
387 -24 l  508 -24 l  508 0 l  352 0 l  p ef
633 0 m  629 11 624 21 620 30 ct 615 39 610 47 604 53 ct 599 60 593 65 586 68 ct 
579 71 571 73 562 73 ct 558 73 554 73 551 73 ct 548 73 544 72 541 71 ct 541 48 l 
543 49 545 49 548 49 ct 551 49 553 49 555 49 ct 564 49 573 46 580 39 ct 588 32 595 21 601 6 ct 
604 -1 l  530 -187 l  563 -187 l  602 -83 l  603 -80 605 -76 607 -71 ct 608 -66 610 -61 612 -55 ct 
614 -50 615 -46 617 -41 ct 618 -37 619 -35 619 -34 ct 619 -35 620 -37 622 -41 ct 
623 -45 624 -49 626 -54 ct 628 -58 629 -63 631 -68 ct 633 -72 634 -76 636 -80 ct 
672 -187 l  705 -187 l  633 0 l  p ef
878 -52 m  878 -43 876 -36 873 -29 ct 869 -22 864 -16 858 -11 ct 851 -7 844 -3 834 -1 ct 
825 2 814 3 802 3 ct 791 3 782 2 773 1 ct 764 -1 757 -4 750 -8 ct 743 -11 738 -16 734 -22 ct 
729 -28 726 -36 724 -44 ct 751 -50 l  754 -40 759 -32 768 -28 ct 776 -23 787 -21 802 -21 ct 
809 -21 815 -21 820 -22 ct 826 -23 831 -25 835 -27 ct 839 -29 842 -32 844 -36 ct 
846 -39 848 -44 848 -50 ct 848 -55 846 -60 844 -63 ct 841 -67 837 -70 833 -73 ct 
828 -75 822 -77 815 -79 ct 809 -81 801 -83 793 -85 ct 786 -87 778 -89 771 -91 ct 
764 -94 757 -97 751 -101 ct 745 -105 740 -110 737 -116 ct 733 -122 731 -129 731 -138 ct 
731 -155 737 -168 749 -177 ct 762 -186 779 -190 802 -190 ct 823 -190 839 -186 851 -179 ct 
864 -172 871 -160 874 -144 ct 847 -141 l  846 -146 844 -150 841 -153 ct 838 -156 835 -159 831 -161 ct 
827 -163 823 -164 818 -165 ct 813 -166 808 -167 802 -167 ct 788 -167 778 -164 771 -160 ct 
765 -156 761 -149 761 -141 ct 761 -136 763 -132 765 -128 ct 768 -125 771 -122 775 -120 ct 
780 -118 785 -116 791 -114 ct 798 -113 804 -111 812 -109 ct 817 -108 822 -106 827 -105 ct 
832 -103 837 -102 842 -100 ct 847 -98 852 -95 856 -93 ct 860 -90 864 -87 867 -83 ct 
870 -79 873 -75 875 -70 ct 877 -65 878 -59 878 -52 ct p ef
1082 -94 m  1082 -80 1080 -67 1078 -55 ct 1076 -43 1072 -33 1067 -25 ct 1061 -16 1054 -9 1045 -4 ct 
1037 1 1026 3 1013 3 ct 1000 3 988 0 978 -5 ct 968 -10 960 -18 955 -29 ct 954 -29 l 
954 -29 954 -28 954 -26 ct 954 -24 955 -22 955 -19 ct 955 -17 955 -14 955 -10 ct 
955 -7 955 -3 955 0 ct 955 73 l  924 73 l  924 -149 l  924 -153 924 -158 924 -162 ct 
924 -166 924 -170 923 -173 ct 923 -176 923 -179 923 -182 ct 923 -184 923 -186 923 -187 ct 
953 -187 l  953 -187 953 -185 953 -183 ct 953 -181 954 -179 954 -176 ct 954 -173 954 -170 954 -166 ct 
954 -163 954 -160 954 -157 ct 955 -157 l  958 -163 961 -168 965 -172 ct 969 -176 973 -180 978 -182 ct 
982 -185 988 -187 993 -188 ct 999 -189 1006 -190 1013 -190 ct 1026 -190 1037 -188 1045 -183 ct 
1054 -179 1061 -172 1067 -164 ct 1072 -155 1076 -145 1078 -134 ct 1080 -122 1082 -109 1082 -94 ct 
p
1049 -94 m  1049 -105 1048 -115 1047 -124 ct 1045 -133 1043 -141 1040 -147 ct 
1036 -153 1032 -158 1026 -161 ct 1021 -164 1013 -166 1005 -166 ct 998 -166 992 -165 985 -163 ct 
979 -161 974 -157 970 -152 ct 965 -146 961 -139 959 -129 ct 956 -119 955 -107 955 -91 ct 
955 -78 956 -67 958 -58 ct 960 -49 963 -41 968 -36 ct 972 -30 977 -26 983 -24 ct 
989 -21 997 -20 1005 -20 ct 1013 -20 1020 -22 1026 -25 ct 1032 -28 1036 -33 1040 -39 ct 
1043 -46 1045 -53 1047 -63 ct 1048 -72 1049 -82 1049 -94 ct p ef
1109 -226 m  1109 -256 l  1140 -256 l  1140 -226 l  1109 -226 l  p
1109 0 m  1109 -187 l  1140 -187 l  1140 0 l  1109 0 l  p ef
1212 -87 m  1212 -77 1213 -68 1215 -60 ct 1217 -52 1220 -45 1224 -39 ct 1228 -33 1233 -28 1240 -25 ct 
1247 -22 1254 -20 1264 -20 ct 1277 -20 1288 -23 1296 -28 ct 1304 -34 1310 -41 1312 -49 ct 
1340 -41 l  1338 -36 1335 -31 1331 -26 ct 1328 -20 1323 -16 1317 -11 ct 1312 -7 1304 -4 1295 -1 ct 
1287 2 1276 3 1264 3 ct 1236 3 1215 -5 1201 -22 ct 1186 -38 1179 -62 1179 -95 ct 
1179 -112 1181 -127 1186 -139 ct 1190 -151 1196 -161 1203 -169 ct 1211 -176 1220 -182 1230 -185 ct 
1240 -188 1251 -190 1262 -190 ct 1278 -190 1291 -187 1302 -182 ct 1312 -177 1321 -170 1327 -162 ct 
1333 -153 1338 -142 1341 -130 ct 1343 -118 1345 -105 1345 -91 ct 1345 -87 l 
1212 -87 l  p
1313 -111 m  1311 -130 1306 -145 1298 -154 ct 1289 -163 1277 -167 1262 -167 ct 
1257 -167 1251 -166 1246 -165 ct 1240 -163 1235 -160 1230 -156 ct 1225 -152 1221 -146 1218 -139 ct 
1214 -131 1212 -122 1212 -111 ct 1313 -111 l  p ef
1513 -52 m  1513 -43 1511 -36 1508 -29 ct 1504 -22 1499 -16 1493 -11 ct 1486 -7 1479 -3 1469 -1 ct 
1460 2 1449 3 1437 3 ct 1426 3 1417 2 1408 1 ct 1399 -1 1392 -4 1385 -8 ct 1378 -11 1373 -16 1369 -22 ct 
1364 -28 1361 -36 1359 -44 ct 1386 -50 l  1389 -40 1394 -32 1403 -28 ct 1411 -23 1422 -21 1437 -21 ct 
1444 -21 1450 -21 1455 -22 ct 1461 -23 1466 -25 1470 -27 ct 1474 -29 1477 -32 1479 -36 ct 
1481 -39 1483 -44 1483 -50 ct 1483 -55 1481 -60 1479 -63 ct 1476 -67 1472 -70 1468 -73 ct 
1463 -75 1457 -77 1450 -79 ct 1444 -81 1436 -83 1428 -85 ct 1421 -87 1413 -89 1406 -91 ct 
1399 -94 1392 -97 1386 -101 ct 1380 -105 1375 -110 1372 -116 ct 1368 -122 1366 -129 1366 -138 ct 
1366 -155 1372 -168 1384 -177 ct 1397 -186 1414 -190 1437 -190 ct 1458 -190 1474 -186 1486 -179 ct 
1499 -172 1506 -160 1509 -144 ct 1482 -141 l  1481 -146 1479 -150 1476 -153 ct 
1473 -156 1470 -159 1466 -161 ct 1462 -163 1458 -164 1453 -165 ct 1448 -166 1443 -167 1437 -167 ct 
1423 -167 1413 -164 1406 -160 ct 1400 -156 1396 -149 1396 -141 ct 1396 -136 1398 -132 1400 -128 ct 
1403 -125 1406 -122 1410 -120 ct 1415 -118 1420 -116 1426 -114 ct 1433 -113 1439 -111 1447 -109 ct 
1452 -108 1457 -106 1462 -105 ct 1467 -103 1472 -102 1477 -100 ct 1482 -98 1487 -95 1491 -93 ct 
1495 -90 1499 -87 1502 -83 ct 1505 -79 1508 -75 1510 -70 ct 1512 -65 1513 -59 1513 -52 ct 
p ef
1543 0 m  1543 -24 l  1657 -163 l  1550 -163 l  1550 -187 l  1692 -187 l 
1692 -163 l  1578 -24 l  1699 -24 l  1699 0 l  1543 0 l  p ef
1768 -87 m  1768 -77 1769 -68 1771 -60 ct 1773 -52 1776 -45 1780 -39 ct 1784 -33 1789 -28 1796 -25 ct 
1803 -22 1810 -20 1820 -20 ct 1833 -20 1844 -23 1852 -28 ct 1860 -34 1866 -41 1868 -49 ct 
1896 -41 l  1894 -36 1891 -31 1887 -26 ct 1884 -20 1879 -16 1873 -11 ct 1868 -7 1860 -4 1851 -1 ct 
1843 2 1832 3 1820 3 ct 1792 3 1771 -5 1757 -22 ct 1742 -38 1735 -62 1735 -95 ct 
1735 -112 1737 -127 1742 -139 ct 1746 -151 1752 -161 1759 -169 ct 1767 -176 1776 -182 1786 -185 ct 
1796 -188 1807 -190 1818 -190 ct 1834 -190 1847 -187 1858 -182 ct 1868 -177 1877 -170 1883 -162 ct 
1889 -153 1894 -142 1897 -130 ct 1899 -118 1901 -105 1901 -91 ct 1901 -87 l 
1768 -87 l  p
1869 -111 m  1867 -130 1862 -145 1854 -154 ct 1845 -163 1833 -167 1818 -167 ct 
1813 -167 1807 -166 1802 -165 ct 1796 -163 1791 -160 1786 -156 ct 1781 -152 1777 -146 1774 -139 ct 
1770 -131 1768 -122 1768 -111 ct 1869 -111 l  p ef
2047 0 m  2047 -118 l  2047 -127 2047 -135 2045 -141 ct 2044 -147 2042 -152 2039 -156 ct 
2036 -160 2032 -162 2027 -164 ct 2022 -165 2016 -166 2009 -166 ct 2001 -166 1995 -165 1989 -162 ct 
1983 -160 1978 -156 1974 -151 ct 1969 -146 1966 -140 1964 -133 ct 1962 -126 1961 -117 1961 -108 ct 
1961 0 l  1929 0 l  1929 -147 l  1929 -151 1929 -155 1929 -159 ct 1929 -163 1929 -167 1929 -171 ct 
1929 -175 1929 -178 1929 -181 ct 1929 -184 1929 -186 1928 -187 ct 1958 -187 l 
1958 -186 1958 -184 1958 -182 ct 1958 -179 1958 -176 1959 -173 ct 1959 -170 1959 -167 1959 -163 ct 
1959 -160 1959 -157 1959 -155 ct 1960 -155 l  1963 -160 1966 -165 1969 -169 ct 
1973 -174 1977 -177 1982 -180 ct 1987 -183 1992 -186 1998 -188 ct 2004 -189 2011 -190 2019 -190 ct 
2030 -190 2039 -189 2046 -186 ct 2053 -184 2060 -180 2064 -174 ct 2069 -169 2073 -162 2075 -154 ct 
2077 -146 2078 -136 2078 -124 ct 2078 0 l  2047 0 l  p ef
2114 -226 m  2114 -256 l  2145 -256 l  2145 -226 l  2114 -226 l  p
2114 0 m  2114 -187 l  2145 -187 l  2145 0 l  2114 0 l  p ef
2218 -87 m  2218 -77 2219 -68 2221 -60 ct 2223 -52 2226 -45 2230 -39 ct 2234 -33 2239 -28 2246 -25 ct 
2253 -22 2260 -20 2270 -20 ct 2283 -20 2294 -23 2302 -28 ct 2310 -34 2316 -41 2318 -49 ct 
2346 -41 l  2344 -36 2341 -31 2337 -26 ct 2334 -20 2329 -16 2323 -11 ct 2318 -7 2310 -4 2301 -1 ct 
2293 2 2282 3 2270 3 ct 2242 3 2221 -5 2207 -22 ct 2192 -38 2185 -62 2185 -95 ct 
2185 -112 2187 -127 2192 -139 ct 2196 -151 2202 -161 2209 -169 ct 2217 -176 2226 -182 2236 -185 ct 
2246 -188 2257 -190 2268 -190 ct 2284 -190 2297 -187 2308 -182 ct 2318 -177 2327 -170 2333 -162 ct 
2339 -153 2344 -142 2347 -130 ct 2349 -118 2351 -105 2351 -91 ct 2351 -87 l 
2218 -87 l  p
2319 -111 m  2317 -130 2312 -145 2304 -154 ct 2295 -163 2283 -167 2268 -167 ct 
2263 -167 2257 -166 2252 -165 ct 2246 -163 2241 -160 2236 -156 ct 2231 -152 2227 -146 2224 -139 ct 
2220 -131 2218 -122 2218 -111 ct 2319 -111 l  p ef
pom
pum
11467 17641 t
26 0 m  26 -219 l  56 -219 l  56 -24 l  166 -24 l  166 0 l  26 0 l  p ef
206 -203 m  206 -230 l  234 -230 l  234 -203 l  206 -203 l  p
206 0 m  206 -168 l  234 -168 l  234 0 l  206 0 l  p ef
308 -85 m  308 -75 308 -66 310 -58 ct 311 -50 314 -43 317 -37 ct 320 -32 325 -27 330 -24 ct 
335 -21 342 -19 350 -19 ct 360 -19 368 -22 375 -27 ct 382 -32 386 -40 387 -51 ct 
416 -51 l  415 -44 413 -37 410 -31 ct 406 -24 402 -18 397 -13 ct 392 -8 385 -4 377 -1 ct 
370 1 361 3 351 3 ct 338 3 327 1 317 -4 ct 308 -8 301 -14 295 -22 ct 289 -30 285 -39 282 -50 ct 
280 -60 279 -72 279 -84 ct 279 -95 279 -105 281 -114 ct 283 -123 286 -130 289 -137 ct 
293 -143 296 -149 301 -153 ct 306 -157 311 -161 316 -163 ct 321 -166 327 -168 333 -169 ct 
339 -170 345 -171 351 -171 ct 360 -171 368 -170 376 -167 ct 383 -165 389 -161 395 -157 ct 
400 -152 404 -147 408 -141 ct 411 -135 413 -128 415 -121 ct 386 -119 l  385 -128 381 -135 375 -141 ct 
369 -146 361 -149 350 -149 ct 342 -149 335 -148 330 -145 ct 325 -143 320 -139 317 -133 ct 
314 -128 311 -121 310 -113 ct 308 -105 308 -96 308 -85 ct p ef
431 0 m  431 -21 l  533 -146 l  437 -146 l  437 -168 l  565 -168 l  565 -147 l 
462 -22 l  571 -22 l  571 0 l  431 0 l  p ef
746 -84 m  746 -26 725 4 684 4 ct 671 4 660 1 652 -3 ct 644 -8 637 -15 631 -26 ct 
631 -26 l  631 -23 631 -20 631 -17 ct 631 -14 631 -12 630 -9 ct 630 -7 630 -5 630 -3 ct 
630 -1 630 0 630 0 ct 603 0 l  603 -1 603 -2 603 -4 ct 603 -7 603 -9 603 -12 ct 
603 -16 603 -19 603 -23 ct 603 -26 603 -30 603 -34 ct 603 -230 l  631 -230 l 
631 -164 l  631 -161 631 -158 631 -155 ct 631 -152 631 -150 631 -148 ct 631 -145 631 -143 631 -140 ct 
631 -140 l  637 -151 643 -159 652 -164 ct 661 -168 671 -171 684 -171 ct 705 -171 721 -163 731 -149 ct 
741 -135 746 -113 746 -84 ct p
716 -83 m  716 -95 715 -105 714 -113 ct 713 -121 710 -128 707 -134 ct 704 -139 700 -143 695 -145 ct 
690 -148 684 -149 677 -149 ct 669 -149 663 -148 657 -145 ct 651 -143 647 -139 643 -134 ct 
639 -129 636 -122 634 -113 ct 632 -105 631 -94 631 -82 ct 631 -70 632 -60 634 -51 ct 
636 -43 639 -36 643 -31 ct 647 -26 651 -23 657 -20 ct 663 -18 669 -17 676 -17 ct 
683 -17 689 -18 694 -21 ct 699 -23 703 -27 706 -32 ct 710 -37 712 -44 714 -53 ct 
715 -61 716 -71 716 -83 ct p ef
831 3 m  814 3 802 -1 793 -10 ct 785 -19 781 -32 781 -47 ct 781 -58 783 -67 787 -75 ct 
791 -82 796 -87 803 -91 ct 810 -95 818 -98 826 -100 ct 835 -101 844 -102 853 -102 ct 
891 -102 l  891 -111 l  891 -118 890 -124 889 -129 ct 887 -134 885 -138 882 -141 ct 
879 -144 875 -146 871 -148 ct 866 -149 861 -150 855 -150 ct 849 -150 844 -149 840 -149 ct 
836 -148 832 -146 829 -144 ct 826 -142 823 -140 821 -136 ct 819 -133 818 -128 817 -123 ct 
788 -126 l  789 -132 791 -138 794 -144 ct 797 -149 801 -154 806 -158 ct 812 -162 818 -165 826 -168 ct 
834 -170 844 -171 855 -171 ct 876 -171 892 -166 903 -156 ct 914 -147 919 -133 919 -114 ct 
919 -42 l  919 -34 920 -28 922 -23 ct 924 -19 929 -17 935 -17 ct 936 -17 938 -17 939 -17 ct 
941 -18 942 -18 944 -18 ct 944 -1 l  940 0 937 1 933 1 ct 930 2 926 2 922 2 ct 
917 2 912 1 909 0 ct 905 -2 902 -4 899 -7 ct 897 -10 895 -13 894 -17 ct 893 -22 892 -27 892 -32 ct 
891 -32 l  888 -27 884 -22 881 -18 ct 877 -13 873 -10 868 -7 ct 864 -4 858 -1 852 1 ct 
846 2 839 3 831 3 ct p
838 -18 m  847 -18 854 -20 861 -23 ct 868 -26 873 -30 878 -35 ct 882 -40 885 -46 887 -52 ct 
890 -58 891 -63 891 -69 ct 891 -82 l  860 -82 l  853 -82 847 -82 841 -81 ct 
835 -80 829 -78 824 -76 ct 820 -73 816 -70 813 -65 ct 811 -60 809 -54 809 -47 ct 
809 -37 812 -30 817 -25 ct 822 -20 829 -18 838 -18 ct p ef
1196 -85 m  1196 -72 1194 -60 1192 -50 ct 1190 -39 1187 -30 1182 -22 ct 1177 -14 1171 -8 1163 -4 ct 
1155 1 1145 3 1134 3 ct 1122 3 1111 1 1102 -4 ct 1093 -8 1086 -16 1082 -26 ct 1081 -26 l 
1081 -26 1081 -25 1081 -23 ct 1081 -22 1081 -20 1081 -17 ct 1081 -15 1081 -12 1081 -9 ct 
1081 -6 1081 -3 1081 0 ct 1081 66 l  1053 66 l  1053 -134 l  1053 -138 1053 -141 1053 -145 ct 
1053 -149 1053 -152 1053 -155 ct 1053 -158 1053 -161 1053 -163 ct 1053 -165 1053 -167 1053 -168 ct 
1080 -168 l  1080 -168 1080 -166 1080 -165 ct 1080 -163 1080 -161 1080 -158 ct 
1081 -155 1081 -153 1081 -150 ct 1081 -147 1081 -144 1081 -141 ct 1082 -141 l 
1084 -146 1087 -151 1091 -155 ct 1094 -159 1098 -162 1102 -164 ct 1106 -167 1111 -168 1116 -169 ct 
1121 -170 1127 -171 1134 -171 ct 1145 -171 1155 -169 1163 -165 ct 1171 -161 1177 -155 1182 -147 ct 
1187 -140 1190 -131 1192 -120 ct 1194 -110 1196 -98 1196 -85 ct p
1166 -84 m  1166 -95 1166 -104 1164 -112 ct 1163 -120 1161 -127 1158 -132 ct 
1155 -138 1151 -142 1146 -145 ct 1141 -148 1134 -149 1127 -149 ct 1120 -149 1115 -149 1109 -147 ct 
1104 -145 1099 -142 1095 -137 ct 1091 -132 1087 -125 1085 -116 ct 1083 -107 1081 -96 1081 -82 ct 
1081 -70 1082 -60 1084 -52 ct 1086 -44 1089 -37 1093 -32 ct 1097 -27 1101 -23 1107 -21 ct 
1113 -19 1119 -18 1126 -18 ct 1134 -18 1140 -19 1146 -22 ct 1151 -25 1155 -29 1158 -35 ct 
1161 -41 1163 -48 1164 -56 ct 1166 -64 1166 -74 1166 -84 ct p ef
1239 0 m  1239 -129 l  1239 -132 1239 -136 1239 -140 ct 1239 -143 1239 -147 1239 -150 ct 
1239 -154 1239 -157 1238 -160 ct 1238 -163 1238 -166 1238 -168 ct 1265 -168 l 
1265 -166 1265 -163 1265 -160 ct 1265 -157 1265 -154 1265 -150 ct 1266 -147 1266 -144 1266 -141 ct 
1266 -138 1266 -136 1266 -134 ct 1266 -134 l  1268 -140 1270 -146 1273 -150 ct 
1275 -155 1278 -159 1281 -162 ct 1284 -165 1287 -167 1291 -169 ct 1295 -170 1300 -171 1306 -171 ct 
1309 -171 1311 -171 1313 -170 ct 1315 -170 1316 -170 1318 -169 ct 1318 -144 l 
1316 -144 1314 -145 1311 -145 ct 1309 -145 1306 -145 1303 -145 ct 1296 -145 1291 -144 1286 -141 ct 
1282 -138 1278 -134 1275 -129 ct 1272 -124 1270 -118 1269 -111 ct 1268 -104 1267 -96 1267 -88 ct 
1267 0 l  1239 0 l  p ef
1487 -84 m  1487 -55 1480 -33 1467 -19 ct 1454 -4 1435 3 1411 3 ct 1399 3 1389 1 1379 -2 ct 
1370 -6 1362 -11 1356 -18 ct 1350 -26 1345 -35 1341 -46 ct 1338 -57 1336 -69 1336 -84 ct 
1336 -142 1361 -171 1412 -171 ct 1425 -171 1436 -169 1445 -166 ct 1455 -162 1463 -157 1469 -149 ct 
1475 -142 1479 -133 1482 -122 ct 1485 -111 1487 -99 1487 -84 ct p
1457 -84 m  1457 -97 1456 -108 1454 -116 ct 1452 -125 1449 -132 1445 -137 ct 
1441 -142 1437 -145 1431 -147 ct 1425 -149 1419 -150 1412 -150 ct 1405 -150 1399 -149 1393 -147 ct 
1387 -145 1382 -141 1378 -136 ct 1374 -131 1371 -124 1369 -116 ct 1367 -107 1366 -97 1366 -84 ct 
1366 -71 1367 -60 1369 -52 ct 1371 -43 1375 -37 1379 -31 ct 1382 -26 1387 -23 1393 -21 ct 
1398 -19 1404 -18 1410 -18 ct 1418 -18 1424 -19 1430 -21 ct 1436 -23 1441 -26 1445 -31 ct 
1449 -36 1452 -43 1454 -52 ct 1456 -60 1457 -71 1457 -84 ct p ef
1551 -85 m  1551 -75 1551 -66 1553 -58 ct 1554 -50 1557 -43 1560 -37 ct 1563 -32 1568 -27 1573 -24 ct 
1578 -21 1585 -19 1593 -19 ct 1603 -19 1611 -22 1618 -27 ct 1625 -32 1629 -40 1630 -51 ct 
1659 -51 l  1658 -44 1656 -37 1653 -31 ct 1649 -24 1645 -18 1640 -13 ct 1635 -8 1628 -4 1620 -1 ct 
1613 1 1604 3 1594 3 ct 1581 3 1570 1 1560 -4 ct 1551 -8 1544 -14 1538 -22 ct 1532 -30 1528 -39 1525 -50 ct 
1523 -60 1522 -72 1522 -84 ct 1522 -95 1522 -105 1524 -114 ct 1526 -123 1529 -130 1532 -137 ct 
1536 -143 1539 -149 1544 -153 ct 1549 -157 1554 -161 1559 -163 ct 1564 -166 1570 -168 1576 -169 ct 
1582 -170 1588 -171 1594 -171 ct 1603 -171 1611 -170 1619 -167 ct 1626 -165 1632 -161 1638 -157 ct 
1643 -152 1647 -147 1651 -141 ct 1654 -135 1656 -128 1658 -121 ct 1629 -119 l 
1628 -128 1624 -135 1618 -141 ct 1612 -146 1604 -149 1593 -149 ct 1585 -149 1578 -148 1573 -145 ct 
1568 -143 1563 -139 1560 -133 ct 1557 -128 1554 -121 1553 -113 ct 1551 -105 1551 -96 1551 -85 ct 
p ef
1710 -78 m  1710 -69 1711 -61 1713 -54 ct 1714 -46 1717 -40 1721 -35 ct 1725 -29 1730 -25 1735 -22 ct 
1741 -19 1748 -18 1757 -18 ct 1769 -18 1779 -20 1786 -25 ct 1793 -30 1798 -36 1801 -44 ct 
1825 -37 l  1823 -32 1821 -27 1818 -23 ct 1815 -18 1810 -14 1805 -10 ct 1800 -6 1793 -3 1785 -1 ct 
1777 2 1768 3 1757 3 ct 1732 3 1713 -4 1700 -19 ct 1687 -34 1681 -56 1681 -85 ct 
1681 -101 1682 -114 1686 -125 ct 1690 -136 1696 -145 1703 -152 ct 1709 -158 1717 -163 1726 -166 ct 
1736 -169 1745 -171 1756 -171 ct 1770 -171 1782 -169 1791 -164 ct 1800 -160 1808 -153 1814 -145 ct 
1820 -137 1824 -128 1826 -117 ct 1829 -106 1830 -94 1830 -82 ct 1830 -78 l  1710 -78 l 
p
1801 -99 m  1799 -117 1795 -130 1787 -138 ct 1780 -146 1769 -150 1755 -150 ct 
1751 -150 1746 -150 1741 -148 ct 1735 -147 1731 -144 1726 -140 ct 1722 -136 1718 -131 1715 -125 ct 
1712 -118 1711 -110 1710 -99 ct 1801 -99 l  p ef
2000 -47 m  2000 -39 1998 -32 1995 -26 ct 1992 -19 1987 -14 1982 -10 ct 1976 -6 1969 -3 1960 0 ct 
1952 2 1942 3 1931 3 ct 1922 3 1913 2 1905 1 ct 1897 -1 1890 -3 1884 -6 ct 1879 -10 1874 -14 1870 -20 ct 
1866 -25 1863 -32 1861 -40 ct 1886 -44 l  1888 -35 1893 -29 1900 -25 ct 1908 -20 1918 -18 1931 -18 ct 
1937 -18 1943 -19 1948 -20 ct 1953 -20 1957 -22 1961 -24 ct 1964 -26 1967 -29 1969 -32 ct 
1971 -35 1972 -39 1972 -44 ct 1972 -49 1971 -54 1969 -57 ct 1966 -60 1963 -63 1959 -65 ct 
1955 -67 1949 -69 1943 -71 ct 1937 -72 1931 -74 1923 -76 ct 1917 -78 1910 -80 1903 -82 ct 
1897 -84 1891 -87 1885 -91 ct 1880 -94 1876 -99 1873 -104 ct 1869 -109 1868 -116 1868 -124 ct 
1868 -139 1873 -151 1884 -159 ct 1895 -167 1911 -171 1932 -171 ct 1950 -171 1965 -168 1976 -161 ct 
1987 -155 1994 -144 1997 -130 ct 1971 -127 l  1970 -131 1969 -135 1966 -138 ct 
1964 -141 1961 -143 1957 -145 ct 1954 -147 1950 -148 1945 -149 ct 1941 -150 1936 -150 1932 -150 ct 
1919 -150 1910 -148 1904 -144 ct 1898 -140 1895 -135 1895 -127 ct 1895 -122 1896 -118 1898 -115 ct 
1900 -112 1903 -110 1907 -108 ct 1911 -106 1916 -104 1922 -103 ct 1927 -101 1933 -100 1940 -98 ct 
1945 -97 1949 -96 1954 -94 ct 1959 -93 1963 -91 1967 -90 ct 1972 -88 1976 -86 1980 -83 ct 
1984 -81 1987 -78 1990 -74 ct 1993 -71 1995 -67 1997 -62 ct 1999 -58 2000 -53 2000 -47 ct 
p ef
2175 -84 m  2175 -55 2168 -33 2155 -19 ct 2142 -4 2123 3 2099 3 ct 2087 3 2077 1 2067 -2 ct 
2058 -6 2050 -11 2044 -18 ct 2038 -26 2033 -35 2029 -46 ct 2026 -57 2024 -69 2024 -84 ct 
2024 -142 2049 -171 2100 -171 ct 2113 -171 2124 -169 2133 -166 ct 2143 -162 2151 -157 2157 -149 ct 
2163 -142 2167 -133 2170 -122 ct 2173 -111 2175 -99 2175 -84 ct p
2145 -84 m  2145 -97 2144 -108 2142 -116 ct 2140 -125 2137 -132 2133 -137 ct 
2129 -142 2125 -145 2119 -147 ct 2113 -149 2107 -150 2100 -150 ct 2093 -150 2087 -149 2081 -147 ct 
2075 -145 2070 -141 2066 -136 ct 2062 -131 2059 -124 2057 -116 ct 2055 -107 2054 -97 2054 -84 ct 
2054 -71 2055 -60 2057 -52 ct 2059 -43 2063 -37 2067 -31 ct 2070 -26 2075 -23 2081 -21 ct 
2086 -19 2092 -18 2098 -18 ct 2106 -18 2112 -19 2118 -21 ct 2124 -23 2129 -26 2133 -31 ct 
2137 -36 2140 -43 2142 -52 ct 2144 -60 2145 -71 2145 -84 ct p
2078 -187 m  2078 -190 l  2112 -234 l  2144 -234 l  2144 -230 l  2093 -187 l 
2078 -187 l  p ef
2378 0 m  2346 0 l  2319 -108 l  2318 -111 2317 -115 2316 -119 ct 2316 -123 2315 -127 2314 -131 ct 
2313 -135 2312 -140 2311 -145 ct 2310 -140 2309 -136 2308 -131 ct 2307 -127 2306 -123 2305 -119 ct 
2304 -115 2303 -111 2303 -108 ct 2275 0 l  2243 0 l  2196 -168 l  2223 -168 l 
2252 -54 l  2252 -52 2253 -49 2254 -45 ct 2254 -42 2255 -38 2256 -35 ct 2257 -31 2257 -27 2258 -23 ct 
2259 -27 2260 -31 2261 -35 ct 2262 -38 2263 -41 2263 -44 ct 2264 -48 2265 -50 2266 -53 ct 
2296 -168 l  2326 -168 l  2355 -53 l  2356 -50 2357 -47 2358 -43 ct 2358 -40 2359 -37 2360 -34 ct 
2361 -30 2362 -27 2362 -23 ct 2363 -27 2364 -31 2365 -35 ct 2366 -38 2366 -41 2367 -45 ct 
2368 -48 2369 -51 2369 -54 ct 2399 -168 l  2426 -168 l  2378 0 l  p ef
pom
pum
6865 14898 t
90.0 r 195 -153 m  195 -143 194 -134 191 -126 ct 187 -118 183 -111 176 -105 ct 
170 -99 162 -94 153 -90 ct 144 -87 133 -85 120 -85 ct 56 -85 l  56 0 l  26 0 l 
26 -219 l  118 -219 l  131 -219 142 -217 152 -214 ct 162 -211 170 -206 176 -201 ct 
183 -195 187 -188 191 -180 ct 194 -172 195 -163 195 -153 ct p
166 -152 m  166 -166 161 -177 153 -184 ct 144 -191 132 -195 115 -195 ct 56 -195 l 
56 -108 l  116 -108 l  133 -108 145 -112 153 -120 ct 162 -127 166 -138 166 -152 ct 
p ef
234 0 m  234 -129 l  234 -132 234 -136 234 -140 ct 234 -143 234 -147 234 -150 ct 
234 -154 234 -157 233 -160 ct 233 -163 233 -166 233 -168 ct 260 -168 l  260 -166 260 -163 260 -160 ct 
260 -157 260 -154 260 -150 ct 261 -147 261 -144 261 -141 ct 261 -138 261 -136 261 -134 ct 
261 -134 l  263 -140 265 -146 268 -150 ct 270 -155 273 -159 276 -162 ct 279 -165 282 -167 286 -169 ct 
290 -170 295 -171 301 -171 ct 304 -171 306 -171 308 -170 ct 310 -170 311 -170 313 -169 ct 
313 -144 l  311 -144 309 -145 306 -145 ct 304 -145 301 -145 298 -145 ct 291 -145 286 -144 281 -141 ct 
277 -138 273 -134 270 -129 ct 267 -124 265 -118 264 -111 ct 263 -104 262 -96 262 -88 ct 
262 0 l  234 0 l  p ef
326 0 m  326 -21 l  428 -146 l  332 -146 l  332 -168 l  460 -168 l  460 -147 l 
357 -22 l  466 -22 l  466 0 l  326 0 l  p ef
570 0 m  566 10 562 19 558 27 ct 554 36 549 43 544 48 ct 539 54 533 58 527 61 ct 
521 64 514 66 506 66 ct 502 66 499 66 496 66 ct 493 66 490 66 486 65 ct 486 44 l 
488 44 491 44 493 44 ct 496 44 498 44 499 44 ct 508 44 515 41 522 35 ct 529 29 535 19 541 6 ct 
543 -1 l  477 -168 l  507 -168 l  542 -75 l  543 -72 544 -68 546 -64 ct 548 -59 549 -54 551 -50 ct 
552 -45 554 -41 555 -37 ct 556 -33 557 -31 557 -30 ct 558 -31 558 -33 559 -37 ct 
561 -40 562 -44 564 -48 ct 565 -52 567 -56 568 -61 ct 570 -65 571 -69 572 -72 ct 
605 -168 l  634 -168 l  570 0 l  p ef
783 -47 m  783 -39 781 -32 778 -26 ct 775 -19 770 -14 765 -10 ct 759 -6 752 -3 743 0 ct 
735 2 725 3 714 3 ct 705 3 696 2 688 1 ct 680 -1 673 -3 667 -6 ct 662 -10 657 -14 653 -20 ct 
649 -25 646 -32 644 -40 ct 669 -44 l  671 -35 676 -29 683 -25 ct 691 -20 701 -18 714 -18 ct 
720 -18 726 -19 731 -20 ct 736 -20 740 -22 744 -24 ct 747 -26 750 -29 752 -32 ct 
754 -35 755 -39 755 -44 ct 755 -49 754 -54 752 -57 ct 749 -60 746 -63 742 -65 ct 
738 -67 732 -69 726 -71 ct 720 -72 714 -74 706 -76 ct 700 -78 693 -80 686 -82 ct 
680 -84 674 -87 668 -91 ct 663 -94 659 -99 656 -104 ct 652 -109 651 -116 651 -124 ct 
651 -139 656 -151 667 -159 ct 678 -167 694 -171 715 -171 ct 733 -171 748 -168 759 -161 ct 
770 -155 777 -144 780 -130 ct 754 -127 l  753 -131 752 -135 749 -138 ct 747 -141 744 -143 740 -145 ct 
737 -147 733 -148 728 -149 ct 724 -150 719 -150 715 -150 ct 702 -150 693 -148 687 -144 ct 
681 -140 678 -135 678 -127 ct 678 -122 679 -118 681 -115 ct 683 -112 686 -110 690 -108 ct 
694 -106 699 -104 705 -103 ct 710 -101 716 -100 723 -98 ct 728 -97 732 -96 737 -94 ct 
742 -93 746 -91 750 -90 ct 755 -88 759 -86 763 -83 ct 767 -81 770 -78 773 -74 ct 
776 -71 778 -67 780 -62 ct 782 -58 783 -53 783 -47 ct p ef
958 -85 m  958 -72 956 -60 954 -50 ct 952 -39 949 -30 944 -22 ct 939 -14 933 -8 925 -4 ct 
917 1 907 3 896 3 ct 884 3 873 1 864 -4 ct 855 -8 848 -16 844 -26 ct 843 -26 l 
843 -26 843 -25 843 -23 ct 843 -22 843 -20 843 -17 ct 843 -15 843 -12 843 -9 ct 
843 -6 843 -3 843 0 ct 843 66 l  815 66 l  815 -134 l  815 -138 815 -141 815 -145 ct 
815 -149 815 -152 815 -155 ct 815 -158 815 -161 815 -163 ct 815 -165 815 -167 815 -168 ct 
842 -168 l  842 -168 842 -166 842 -165 ct 842 -163 842 -161 842 -158 ct 843 -155 843 -153 843 -150 ct 
843 -147 843 -144 843 -141 ct 844 -141 l  846 -146 849 -151 853 -155 ct 856 -159 860 -162 864 -164 ct 
868 -167 873 -168 878 -169 ct 883 -170 889 -171 896 -171 ct 907 -171 917 -169 925 -165 ct 
933 -161 939 -155 944 -147 ct 949 -140 952 -131 954 -120 ct 956 -110 958 -98 958 -85 ct 
p
928 -84 m  928 -95 928 -104 926 -112 ct 925 -120 923 -127 920 -132 ct 917 -138 913 -142 908 -145 ct 
903 -148 896 -149 889 -149 ct 882 -149 877 -149 871 -147 ct 866 -145 861 -142 857 -137 ct 
853 -132 849 -125 847 -116 ct 845 -107 843 -96 843 -82 ct 843 -70 844 -60 846 -52 ct 
848 -44 851 -37 855 -32 ct 859 -27 863 -23 869 -21 ct 875 -19 881 -18 888 -18 ct 
896 -18 902 -19 908 -22 ct 913 -25 917 -29 920 -35 ct 923 -41 925 -48 926 -56 ct 
928 -64 928 -74 928 -84 ct p ef
1000 -203 m  1000 -230 l  1028 -230 l  1028 -203 l  1000 -203 l  p
1000 0 m  1000 -168 l  1028 -168 l  1028 0 l  1000 0 l  p ef
1101 -78 m  1101 -69 1102 -61 1104 -54 ct 1105 -46 1108 -40 1112 -35 ct 1116 -29 1121 -25 1126 -22 ct 
1132 -19 1139 -18 1148 -18 ct 1160 -18 1170 -20 1177 -25 ct 1184 -30 1189 -36 1192 -44 ct 
1216 -37 l  1214 -32 1212 -27 1209 -23 ct 1206 -18 1201 -14 1196 -10 ct 1191 -6 1184 -3 1176 -1 ct 
1168 2 1159 3 1148 3 ct 1123 3 1104 -4 1091 -19 ct 1078 -34 1072 -56 1072 -85 ct 
1072 -101 1073 -114 1077 -125 ct 1081 -136 1087 -145 1094 -152 ct 1100 -158 1108 -163 1117 -166 ct 
1127 -169 1136 -171 1147 -171 ct 1161 -171 1173 -169 1182 -164 ct 1191 -160 1199 -153 1205 -145 ct 
1211 -137 1215 -128 1217 -117 ct 1220 -106 1221 -94 1221 -82 ct 1221 -78 l  1101 -78 l 
p
1192 -99 m  1190 -117 1186 -130 1178 -138 ct 1171 -146 1160 -150 1146 -150 ct 
1142 -150 1137 -150 1132 -148 ct 1126 -147 1122 -144 1117 -140 ct 1113 -136 1109 -131 1106 -125 ct 
1103 -118 1102 -110 1101 -99 ct 1192 -99 l  p ef
1392 -47 m  1392 -39 1390 -32 1387 -26 ct 1384 -19 1379 -14 1374 -10 ct 1368 -6 1361 -3 1352 0 ct 
1344 2 1334 3 1323 3 ct 1314 3 1305 2 1297 1 ct 1289 -1 1282 -3 1276 -6 ct 1271 -10 1266 -14 1262 -20 ct 
1258 -25 1255 -32 1253 -40 ct 1278 -44 l  1280 -35 1285 -29 1292 -25 ct 1300 -20 1310 -18 1323 -18 ct 
1329 -18 1335 -19 1340 -20 ct 1345 -20 1349 -22 1353 -24 ct 1356 -26 1359 -29 1361 -32 ct 
1363 -35 1364 -39 1364 -44 ct 1364 -49 1363 -54 1361 -57 ct 1358 -60 1355 -63 1351 -65 ct 
1347 -67 1341 -69 1335 -71 ct 1329 -72 1323 -74 1315 -76 ct 1309 -78 1302 -80 1295 -82 ct 
1289 -84 1283 -87 1277 -91 ct 1272 -94 1268 -99 1265 -104 ct 1261 -109 1260 -116 1260 -124 ct 
1260 -139 1265 -151 1276 -159 ct 1287 -167 1303 -171 1324 -171 ct 1342 -171 1357 -168 1368 -161 ct 
1379 -155 1386 -144 1389 -130 ct 1363 -127 l  1362 -131 1361 -135 1358 -138 ct 
1356 -141 1353 -143 1349 -145 ct 1346 -147 1342 -148 1337 -149 ct 1333 -150 1328 -150 1324 -150 ct 
1311 -150 1302 -148 1296 -144 ct 1290 -140 1287 -135 1287 -127 ct 1287 -122 1288 -118 1290 -115 ct 
1292 -112 1295 -110 1299 -108 ct 1303 -106 1308 -104 1314 -103 ct 1319 -101 1325 -100 1332 -98 ct 
1337 -97 1341 -96 1346 -94 ct 1351 -93 1355 -91 1359 -90 ct 1364 -88 1368 -86 1372 -83 ct 
1376 -81 1379 -78 1382 -74 ct 1385 -71 1387 -67 1389 -62 ct 1391 -58 1392 -53 1392 -47 ct 
p ef
1410 0 m  1410 -21 l  1512 -146 l  1416 -146 l  1416 -168 l  1544 -168 l 
1544 -147 l  1441 -22 l  1550 -22 l  1550 0 l  1410 0 l  p ef
1604 -78 m  1604 -69 1605 -61 1607 -54 ct 1608 -46 1611 -40 1615 -35 ct 1619 -29 1624 -25 1629 -22 ct 
1635 -19 1642 -18 1651 -18 ct 1663 -18 1673 -20 1680 -25 ct 1687 -30 1692 -36 1695 -44 ct 
1719 -37 l  1717 -32 1715 -27 1712 -23 ct 1709 -18 1704 -14 1699 -10 ct 1694 -6 1687 -3 1679 -1 ct 
1671 2 1662 3 1651 3 ct 1626 3 1607 -4 1594 -19 ct 1581 -34 1575 -56 1575 -85 ct 
1575 -101 1576 -114 1580 -125 ct 1584 -136 1590 -145 1597 -152 ct 1603 -158 1611 -163 1620 -166 ct 
1630 -169 1639 -171 1650 -171 ct 1664 -171 1676 -169 1685 -164 ct 1694 -160 1702 -153 1708 -145 ct 
1714 -137 1718 -128 1720 -117 ct 1723 -106 1724 -94 1724 -82 ct 1724 -78 l  1604 -78 l 
p
1695 -99 m  1693 -117 1689 -130 1681 -138 ct 1674 -146 1663 -150 1649 -150 ct 
1645 -150 1640 -150 1635 -148 ct 1629 -147 1625 -144 1620 -140 ct 1616 -136 1612 -131 1609 -125 ct 
1606 -118 1605 -110 1604 -99 ct 1695 -99 l  p ef
1874 0 m  1874 -106 l  1874 -115 1874 -121 1872 -127 ct 1871 -132 1869 -137 1866 -140 ct 
1864 -144 1860 -146 1856 -147 ct 1851 -149 1846 -149 1839 -149 ct 1833 -149 1827 -148 1822 -146 ct 
1816 -144 1812 -140 1808 -136 ct 1804 -131 1801 -126 1799 -120 ct 1797 -113 1796 -106 1796 -97 ct 
1796 0 l  1768 0 l  1768 -132 l  1768 -136 1768 -139 1768 -143 ct 1768 -147 1768 -151 1768 -154 ct 
1768 -158 1768 -161 1767 -163 ct 1767 -166 1767 -167 1767 -168 ct 1794 -168 l 
1794 -167 1794 -166 1794 -164 ct 1794 -161 1794 -159 1794 -156 ct 1794 -153 1795 -150 1795 -147 ct 
1795 -144 1795 -141 1795 -139 ct 1795 -139 l  1798 -144 1801 -148 1804 -152 ct 
1807 -156 1811 -160 1815 -162 ct 1820 -165 1824 -167 1830 -169 ct 1835 -170 1842 -171 1849 -171 ct 
1858 -171 1866 -170 1873 -168 ct 1880 -165 1885 -162 1890 -157 ct 1894 -152 1897 -146 1899 -139 ct 
1901 -131 1902 -122 1902 -112 ct 1902 0 l  1874 0 l  p ef
1952 -203 m  1952 -230 l  1980 -230 l  1980 -203 l  1952 -203 l  p
1952 0 m  1952 -168 l  1980 -168 l  1980 0 l  1952 0 l  p ef
2054 -78 m  2054 -69 2055 -61 2057 -54 ct 2058 -46 2061 -40 2065 -35 ct 2069 -29 2074 -25 2079 -22 ct 
2085 -19 2092 -18 2101 -18 ct 2113 -18 2123 -20 2130 -25 ct 2137 -30 2142 -36 2145 -44 ct 
2169 -37 l  2167 -32 2165 -27 2162 -23 ct 2159 -18 2154 -14 2149 -10 ct 2144 -6 2137 -3 2129 -1 ct 
2121 2 2112 3 2101 3 ct 2076 3 2057 -4 2044 -19 ct 2031 -34 2025 -56 2025 -85 ct 
2025 -101 2026 -114 2030 -125 ct 2034 -136 2040 -145 2047 -152 ct 2053 -158 2061 -163 2070 -166 ct 
2080 -169 2089 -171 2100 -171 ct 2114 -171 2126 -169 2135 -164 ct 2144 -160 2152 -153 2158 -145 ct 
2164 -137 2168 -128 2170 -117 ct 2173 -106 2174 -94 2174 -82 ct 2174 -78 l  2054 -78 l 
p
2145 -99 m  2143 -117 2139 -130 2131 -138 ct 2124 -146 2113 -150 2099 -150 ct 
2095 -150 2090 -150 2085 -148 ct 2079 -147 2075 -144 2070 -140 ct 2066 -136 2062 -131 2059 -125 ct 
2056 -118 2055 -110 2054 -99 ct 2145 -99 l  p ef
2295 -82 m  2295 -97 2296 -110 2298 -124 ct 2300 -137 2304 -149 2308 -161 ct 
2313 -174 2319 -185 2326 -197 ct 2333 -208 2342 -219 2352 -230 ct 2379 -230 l 
2369 -219 2361 -208 2354 -197 ct 2347 -185 2341 -173 2336 -161 ct 2332 -149 2328 -136 2326 -123 ct 
2324 -110 2323 -96 2323 -82 ct 2323 -68 2324 -54 2326 -41 ct 2328 -28 2332 -15 2336 -3 ct 
2341 9 2347 21 2354 33 ct 2361 44 2369 55 2379 66 ct 2352 66 l  2342 55 2333 44 2326 33 ct 
2319 21 2313 10 2308 -3 ct 2304 -15 2300 -27 2298 -40 ct 2296 -53 2295 -67 2295 -82 ct 
2295 -82 l  p ef
2493 -194 m  2493 1 l  2463 1 l  2463 -194 l  2388 -194 l  2388 -218 l 
2568 -218 l  2568 -194 l  2493 -194 l  p ef
2590 0 m  2590 -24 l  2646 -24 l  2646 -192 l  2597 -157 l  2597 -183 l 
2648 -219 l  2674 -219 l  2674 -24 l  2727 -24 l  2727 0 l  2590 0 l  p ef
2752 4 m  2816 -230 l  2840 -230 l  2777 4 l  2752 4 l  p ef
2943 -194 m  2943 1 l  2913 1 l  2913 -194 l  2838 -194 l  2838 -218 l 
3018 -218 l  3018 -194 l  2943 -194 l  p ef
3180 -85 m  3180 -72 3178 -60 3176 -50 ct 3174 -39 3171 -30 3166 -22 ct 3161 -14 3155 -8 3147 -4 ct 
3139 1 3129 3 3118 3 ct 3106 3 3095 1 3086 -4 ct 3077 -8 3070 -16 3066 -26 ct 3065 -26 l 
3065 -26 3065 -25 3065 -23 ct 3065 -22 3065 -20 3065 -17 ct 3065 -15 3065 -12 3065 -9 ct 
3065 -6 3065 -3 3065 0 ct 3065 66 l  3037 66 l  3037 -134 l  3037 -138 3037 -141 3037 -145 ct 
3037 -149 3037 -152 3037 -155 ct 3037 -158 3037 -161 3037 -163 ct 3037 -165 3037 -167 3037 -168 ct 
3064 -168 l  3064 -168 3064 -166 3064 -165 ct 3064 -163 3064 -161 3064 -158 ct 
3065 -155 3065 -153 3065 -150 ct 3065 -147 3065 -144 3065 -141 ct 3066 -141 l 
3068 -146 3071 -151 3075 -155 ct 3078 -159 3082 -162 3086 -164 ct 3090 -167 3095 -168 3100 -169 ct 
3105 -170 3111 -171 3118 -171 ct 3129 -171 3139 -169 3147 -165 ct 3155 -161 3161 -155 3166 -147 ct 
3171 -140 3174 -131 3176 -120 ct 3178 -110 3180 -98 3180 -85 ct p
3150 -84 m  3150 -95 3150 -104 3148 -112 ct 3147 -120 3145 -127 3142 -132 ct 
3139 -138 3135 -142 3130 -145 ct 3125 -148 3118 -149 3111 -149 ct 3104 -149 3099 -149 3093 -147 ct 
3088 -145 3083 -142 3079 -137 ct 3075 -132 3071 -125 3069 -116 ct 3067 -107 3065 -96 3065 -82 ct 
3065 -70 3066 -60 3068 -52 ct 3070 -44 3073 -37 3077 -32 ct 3081 -27 3085 -23 3091 -21 ct 
3097 -19 3103 -18 3110 -18 ct 3118 -18 3124 -19 3130 -22 ct 3135 -25 3139 -29 3142 -35 ct 
3145 -41 3147 -48 3148 -56 ct 3150 -64 3150 -74 3150 -84 ct p ef
3287 -82 m  3287 -67 3286 -53 3284 -40 ct 3282 -27 3278 -15 3274 -3 ct 3269 10 3263 21 3256 33 ct 
3249 44 3240 55 3230 66 ct 3203 66 l  3213 55 3221 44 3228 33 ct 3235 21 3241 9 3246 -3 ct 
3250 -15 3254 -28 3256 -41 ct 3258 -54 3259 -68 3259 -82 ct 3259 -96 3258 -110 3256 -123 ct 
3254 -136 3250 -149 3246 -161 ct 3241 -173 3235 -185 3228 -197 ct 3221 -208 3213 -219 3203 -230 ct 
3230 -230 l  3240 -219 3249 -208 3256 -197 ct 3263 -185 3269 -174 3274 -161 ct 
3278 -149 3282 -137 3284 -124 ct 3286 -110 3287 -97 3287 -82 ct 3287 -82 l  p ef
pom
0 9000 t 
pom
count op_count sub {pop} repeat countdictstack dict_count sub {end} repeat b4_inc_state restore
%%PageTrailer
%%Trailer
%%EOF
